{
    "type": "crafting_shaped",
	"group": "null",
    "pattern": [
        "bbb",
        "bbb",
        "bbb"
    ],
    "key": {
		"b": {
            "item": "minecraft:structure_void"
        }
    },
    "result": {
        "item": "minecraft:structure_void",
        "count": 1
    }
}