{
  "rewards": {
    "function": "killfeed:shot/fish/67108865"
  },
  "criteria": {
    "kill": {
      "trigger": "minecraft:player_killed_entity",
      "conditions": {
        "entity": {
          "nbt": "{Variant:67108865}",
          "type": "tropical_fish"
        },
        "killing_blow": {
          "is_projectile": "true"
        }
      }
    }
  }
}