{
  "type": "minecraft:crafting_shaped",
  "group": "decoration",
  "pattern": [
    "###",
    "#=#",
    "###"
  ],
  "key": {
    "=": {"tag": "minecraft:logs"},
    "#": {"item": "minecraft:cobblestone"}
  },
  "result": {
    "item": "minecraft:lever",
    "count": 8
  }
}
