{
	"parent": "item/door_hole",
	"elements": [
		{
			"from": [0, 13, 0],
			"to": [3, 16, 16],
			"faces": {
				"north": {"uv": [3, 0, 0, 3], "texture": "#top", "cullface": "north"},
				"east": {"uv": [16, 0, 0, 3], "texture": "#top"},
				"south": {"uv": [0, 0, 3, 3], "texture": "#top", "cullface": "south"},
				"west": {"uv": [0, 0, 16, 3], "texture": "#top", "cullface": "west"},
				"up": {"uv": [0, 0, 16, 1], "texture": "#top", "rotation": 90, "cullface": "up"},
				"down": {"uv": [0, 2, 16, 3], "texture": "#top", "rotation": 270}
			}
		},
		{
			"from": [0, 10, 13],
			"to": [3, 13, 16],
			"faces": {
				"north": {"uv": [14, 3, 13, 6], "texture": "#top", "cullface": "north"},
				"east": {"uv": [16, 3, 13, 6], "texture": "#top"},
				"south": {"uv": [0, 3, 3, 6], "texture": "#top", "cullface": "south"},
				"west": {"uv": [13, 3, 16, 6], "texture": "#top", "cullface": "west"},
				"up": {"uv": [0, 8, 3, 9], "texture": "#top", "rotation": 90, "cullface": "up"}
			}
		},
		{
			"from": [0, 10, 7],
			"to": [3, 13, 9],
			"faces": {
				"north": {"uv": [8, 3, 7, 6], "texture": "#top", "cullface": "north"},
				"east": {"uv": [9, 3, 7, 6], "texture": "#top"},
				"south": {"uv": [8, 3, 9, 6], "texture": "#top", "cullface": "south"},
				"west": {"uv": [7, 3, 9, 6], "texture": "#top", "cullface": "west"},
				"up": {"uv": [0, 3, 3, 4], "texture": "#top", "rotation": 90, "cullface": "up"}
			}
		},
		{
			"from": [0, 10, 0],
			"to": [3, 13, 3],
			"faces": {
				"north": {"uv": [3, 3, 0, 6], "texture": "#top", "cullface": "north"},
				"east": {"uv": [3, 3, 0, 6], "texture": "#top"},
				"south": {"uv": [2, 3, 3, 6], "texture": "#top", "cullface": "south"},
				"west": {"uv": [0, 3, 3, 6], "texture": "#top", "cullface": "west"},
				"up": {"uv": [0, 3, 3, 4], "texture": "#top", "rotation": 90, "cullface": "up"}
			}
		},
		{
			"from": [0, 8, 0],
			"to": [3, 10, 16],
			"faces": {
				"north": {"uv": [3, 6, 0, 8], "texture": "#top", "cullface": "north"},
				"east": {"uv": [16, 6, 0, 8], "texture": "#top"},
				"south": {"uv": [0, 6, 3, 8], "texture": "#top", "cullface": "south"},
				"west": {"uv": [0, 6, 16, 8], "texture": "#top", "cullface": "west"},
				"up": {"uv": [0, 6, 16, 7], "texture": "#top", "rotation": 90, "cullface": "up"},
				"down": {"uv": [0, 7, 16, 8], "texture": "#top", "rotation": 270}
			}
		},
		{
			"from": [0, 5, 7],
			"to": [3, 8, 9],
			"faces": {
				"north": {"uv": [8, 8, 7, 11], "texture": "#top", "cullface": "north"},
				"east": {"uv": [9, 8, 7, 11], "texture": "#top"},
				"south": {"uv": [8, 8, 9, 11], "texture": "#top", "cullface": "south"},
				"west": {"uv": [7, 8, 9, 11], "texture": "#top", "cullface": "west"},
				"up": {"uv": [0, 8, 3, 9], "texture": "#top", "rotation": 90, "cullface": "up"}
			}
		},
		{
			"from": [0, 5, 13],
			"to": [3, 8, 16],
			"faces": {
				"north": {"uv": [14, 8, 13, 11], "texture": "#top", "cullface": "north"},
				"east": {"uv": [16, 8, 13, 11], "texture": "#top"},
				"south": {"uv": [0, 8, 3, 11], "texture": "#top", "cullface": "south"},
				"west": {"uv": [13, 8, 16, 11], "texture": "#top", "cullface": "west"},
				"up": {"uv": [0, 8, 3, 9], "texture": "#top", "rotation": 90, "cullface": "up"}
			}
		},
		{
			"from": [0, 5, 0],
			"to": [3, 8, 3],
			"faces": {
				"north": {"uv": [3, 8, 0, 11], "texture": "#top", "cullface": "north"},
				"east": {"uv": [3, 8, 0, 11], "texture": "#top"},
				"south": {"uv": [2, 8, 3, 11], "texture": "#top", "cullface": "south"},
				"west": {"uv": [0, 8, 3, 11], "texture": "#top", "cullface": "west"},
				"up": {"uv": [0, 8, 3, 9], "texture": "#top", "rotation": 90, "cullface": "up"}
			}
		},
		{
			"from": [0, 0, 0],
			"to": [3, 5, 16],
			"faces": {
				"north": {"uv": [3, 11, 0, 16], "texture": "#top", "cullface": "north"},
				"east": {"uv": [16, 11, 0, 16], "texture": "#top"},
				"south": {"uv": [0, 11, 3, 16], "texture": "#top", "cullface": "south"},
				"west": {"uv": [0, 11, 16, 16], "texture": "#top", "cullface": "west"},
				"up": {"uv": [0, 11, 16, 12], "texture": "#top", "rotation": 90, "cullface": "up"}
			}
		}
	],
	"display": {
		"gui": {
			"rotation": [30, 45, 0],
			"translation": [2.25, -2.25, -2.5],
			"scale": [0.425, 0.425, 0.425]
		},
		"ground": {
			"rotation": [0, 0, 0],
			"translation": [2, 3, 0],
			"scale": [0.25, 0.25, 0.25]
		},
		"fixed": {
			"rotation": [0, -90, 0],
			"translation": [0, -4, 4],
			"scale": [0.5, 0.5, 0.5]
		},
		"head": {
			"rotation": [0, 0, 0],
			"translation": [0, 0, 0],
			"scale": [0, 0, 0]
		},
		"thirdperson_righthand": {
			"rotation": [0, 180, 0],
			"translation": [-2.5, -4, -1.5],
			"scale": [0.375, 0.375, 0.375]
		},
		"thirdperson_lefthand": {
			"rotation": [0, 180, 0],
			"translation": [2.5, -4, -1.5],
			"scale": [0.375, 0.375, 0.375]
		},
		"firstperson_righthand": {
			"rotation": [0, 45, 0],
			"translation": [0, 0, 0],
			"scale": [0.4, 0.4, 0.4]
		},
		"firstperson_lefthand": {
			"rotation": [0, 225, 0],
			"translation": [0, 0, 0],
			"scale": [0.4, 0.4, 0.4]
		}
	},
  "textures": {
    "particle": "block/iron_door_top",
    "bottom": "block/iron_door_bottom",
    "top": "block/iron_door_top"
  }
}