{
    "display": {
        "icon": {
            "item": "minecraft:carrot_on_a_stick",
            "nbt": "{CustomModelData:10}"
        },
        "title": {
            "translate": "advancements.tcc.minecraft.adventure.begin_quest.title"
        },
        "description": {
            "translate": "advancements.tcc.minecraft.adventure.begin_quest.description"
        },
        "show_toast": true,
        "announce_to_chat": true,
        "frame": "goal"
    },
    "parent": "minecraft:adventure/trade",
    "criteria": {
        "criteria": {
            "trigger": "impossible"
        }
    }
}