{ 
"animation":{
"frametime":3,
"frames":[
	{
	"index":0,
	"time": 200
	},
	1,
	2,
	3,
	4,
	5,
	{
	"index":0,
	"time": 200
	},
	6,
	7,
	8,
	9,
	10,
	{
	"index":0,
	"time": 200
	},
	11,
	12,
	13,
	14,
	15,
	{
	"index":0,
	"time": 200
	},
	16,
	17,
	18,
	19,
	20
	]
   }
}