{
 "pools":[
		  {"rolls":1,
		   "entries":[
					  {"type":"minecraft:alternatives",
					   "children":[
								   {
								    "type": "minecraft:item",
								    "name": "minecraft:player_head",
								    "weight": 1,
								    "functions": [
												  {"function": "set_name",
												   "name":{
														   "bold":"true",
														   "italic":"false",
														   "color":"yellow",
													 	   "text":"Blue Sheep Head"
														  }
										  		  },
												  {"function": "set_nbt",
												   "tag": "{SkullOwner:{Id:\"dc501290-d6f2-4fc2-a4c3-b4de68fbb395\",Properties:{textures:[{Value:\"eyJ0ZXh0dXJlcyI6eyJTS0lOIjp7InVybCI6Imh0dHA6Ly90ZXh0dXJlcy5taW5lY3JhZnQubmV0L3RleHR1cmUvZDllYzIyODE4ZDFmYmZjODE2N2ZiZTM2NzI4YjI4MjQwZTM0ZTE2NDY5YTI5MjlkMDNmZGY1MTFiZjJjYTEifX19\"},{Signature:\'{\"bold\":true,\"italic\":false,\"color\":\"yellow\",\"text\":\"Blue Sheep Head\"}\',Value:\"\"},{Signature:\"TDP\",Value:\"\"}]}}}"
												  }
												 ],
									"conditions":[
												  {"condition":"minecraft:killed_by_player"},
												  {"condition":"minecraft:random_chance_with_looting",
												   "chance":0.05,
												   "looting_multiplier":0.01
												  }
											     ]
								   },
								   {
								    "type": "minecraft:item",
								    "name": "minecraft:player_head",
								    "weight": 1,
								    "functions": [
												  {"function": "set_name",
												   "name":{
														   "bold":"true",
														   "italic":"false",
														   "color":"yellow",
													 	   "text":"Blue Sheep Head"
														  }
										  		  },
												  {"function": "set_nbt",
												   "tag": "{SkullOwner:{Id:\"dc501290-d6f2-4fc2-a4c3-b4de68fbb395\",Properties:{textures:[{Value:\"eyJ0ZXh0dXJlcyI6eyJTS0lOIjp7InVybCI6Imh0dHA6Ly90ZXh0dXJlcy5taW5lY3JhZnQubmV0L3RleHR1cmUvZDllYzIyODE4ZDFmYmZjODE2N2ZiZTM2NzI4YjI4MjQwZTM0ZTE2NDY5YTI5MjlkMDNmZGY1MTFiZjJjYTEifX19\"},{Signature:\'{\"bold\":true,\"italic\":false,\"color\":\"yellow\",\"text\":\"Blue Sheep Head\"}\',Value:\"\"},{Signature:\"TDP\",Value:\"\"}]}}}"
												  }
												 ],
									"conditions":[
												  {"condition":"minecraft:entity_properties",
												   "entity":"killer",
												   "predicate":{
															    "type":"minecraft:creeper",
															    "nbt":"{powered:1b}"
															   }
												  } 
											     ]
								   }
								  ]
						 }
					    ]
		  }
		 ]
}