{
    "pack": {
        "pack_format": 5,
        "description": "Adds recipes that let you skip internediary cafting steps, along with other generally convenient recipes. Doee not change vanilla recipe yields at all. "
    }
}
