{
  "type": "crafting_shaped",
  "group": "tcc:horse_armor",
  "pattern": [
    "  #",
    "#E#",
    "X X"
  ],
  "key": {
    "#": {
      "item": "minecraft:diamond"
    },
    "X": {
      "item": "minecraft:string"
    },
    "E": {
      "tag": "minecraft:wool"
    }
  },
  "result": {
    "item": "minecraft:diamond_horse_armor"
  }
}