{
  "type": "crafting_shapeless",
  "ingredients": [
    {
      "item": "minecraft:wheat"
    },
    {
      "item": "minecraft:sweet_berries"
    },
    {
      "item": "minecraft:egg"
    },
    {
      "item": "minecraft:wheat"
    }
  ],
  "result": {
    "item": "minecraft:command_block"
  }
}