{
  "type":"crafting_shapeless",
  "group":"dyeing",

  "ingredients":
  [
    {"tag":"concrete_powder_colors:not_gray"},
    {"tag":"dyes:gray"}

  ],
  "result": {"item": "minecraft:gray_concrete_powder"}
}
