{
    "pack": {
        "pack_format": 1,
        "description": "All SurvivalModified modules rely on this pack for its unified scoreboards, tick, second, and minute tracker and other features."
    }
}
