{
  "type": "minecraft:entity",
  "pools": [
    {
      "rolls": 1,
      "entries": [
        {
          "type": "minecraft:item",
          "weight": 1,
          "functions": [
            {
              "function": "minecraft:set_nbt",
              "tag": "{tcc:{Item:\"zombie_pigman_head\"},display:{Lore:[\"{\\\"translate\\\":\\\"tcc.lore.tooltip\\\"}\"],Name:\"{\\\"translate\\\":\\\"block.tcc.zombie_pigman_head\\\",\\\"color\\\":\\\"yellow\\\"}\"},SkullOwner:{Name:\"Zombie Pigman\",Id:\"f0e5bd0f-d8df-4305-a159-6ec2083ef056\",Properties:{textures:[{Value:\"eyJ0ZXh0dXJlcyI6eyJTS0lOIjp7InVybCI6Imh0dHA6Ly90ZXh0dXJlcy5taW5lY3JhZnQubmV0L3RleHR1cmUvMTA1NjdiNmNlNDU1YzI1NDgxZjFiYmQ4NDJjZjllMjg1OWFkMDNjZjljYWQ1NmNiOTVjNTQ1MGVjNjExYzA2In19fQ==\"}]}}}"
            }
          ],
          "name": "minecraft:player_head"
        }
      ]
    }
  ]
}
