{
  "rewards": {
    "function": "killfeed:shot/horses/baby/horse.771"
  },
  "criteria": {
    "kill": {
      "trigger": "minecraft:player_killed_entity",
      "conditions": {
        "entity": {
          "type": "horse",
          "nbt": "{Variant:771}",
          "flags": {
            "is_baby": true
          }
        },
        "killing_blow": {
          "is_projectile": "true"
        }
      }
    }
  }
}