{
    "display": {
        "icon": {
            "item": "minecraft:filled_map"
        },
        "title": {
            "translate": "advancements.tcc.quests.warrior.root.title"
        },
        "description": {
            "translate": "advancements.tcc.quests.warrior.root.description"
        },
        "background": "minecraft:textures/block/dark_oak_planks.png",
        "show_toast": false,
        "announce_to_chat": false
    },
    "criteria": {
        "criteria": {
            "trigger": "impossible"
        }
    }
}