{
  "type":"crafting_shapeless",
  "group":"dyeing",

  "ingredients":
  [
    {"tag":"glass_colors:not_magenta"},
    {"tag":"dyes:magenta"}

  ],
  "result": {"item": "minecraft:magenta_stained_glass"}
}
