{
  "type": "minecraft:crafting_shaped",
  "group": "stained_glass_pane",
  "pattern": [
    "###",
    "#$#",
    "###"
  ],
  "key": {
    "#": {
      "item": "minecraft:glass_pane"
    },
    "$": {
      "item": "minecraft:cyan_dye"
    }
  },
  "result": {
    "item": ""

  }
}