{
  "type": "minecraft:crafting_shapeless",
  "group": "wool",
  "ingredients": [
    {
      "item": "minecraft:light_blue_dye"
    },
    {
      "item": "minecraft:white_wool"
    }
  ],
  "result": {
    "item": ""
  }
}