{
    "parent": "block/cube_bottom_top",
    "textures": {
        "particle": "blocks/dirt_0",
        "bottom": "blocks/dirt_0",
        "top": "blocks/snow",
        "side": "blocks/grass_side_snowed_0"
    }
}
