{
"__comment": "Model by @Georg_Schmo",
"textures": {
    "particle": "blocks/rail_normal",
    "texture": "blocks/rail_normal"
},
"elements": [ 
{
    "from": [ 2, 0, -0.5 ],
    "to": [ 4, 2, 22 ],
    "rotation": { "origin": [ 2, 2, -0.5 ], "axis": "x", "angle": -45 },
    "faces": {
        "down":  { "uv": [ 2, 16, 4, 0 ], "texture": "#texture" },
        "up":    { "uv": [ 2, 0, 4, 16 ], "texture": "#texture" },
        "north": { "uv": [ 4, 0, 2, 2 ], "texture": "#texture" },
        "south": { "uv": [ 2, 14, 4, 16 ], "texture": "#texture" },
        "west":  { "uv": [ 3, 0, 2, 16 ], "texture": "#texture" },
        "east":  { "uv": [ 3, 0, 4, 16 ], "rotation": 90, "texture": "#texture" }
    }
},
{
    "from": [ 12, 0, -0.5 ],
    "to": [ 14, 2, 22 ],
    "rotation": { "origin": [ 12, 2, -0.5 ], "axis": "x", "angle": -45 },
    "faces": {
        "down":  { "uv": [ 12, 16, 14, 0 ], "texture": "#texture" },
        "up":    { "uv": [ 12, 0, 14, 16 ], "texture": "#texture" },
        "north": { "uv": [ 14, 0, 12, 2 ], "texture": "#texture" },
        "south": { "uv": [ 12, 14, 14, 16 ], "texture": "#texture" },
        "west":  { "uv": [ 13, 0, 12, 16 ], "texture": "#texture" },
        "east":  { "uv": [ 13, 0, 14, 16 ], "rotation": 90, "texture": "#texture" }
    }
},
{
    "from": [ 1, 2.5, 2.5 ],
    "to": [ 15, 3.5, 4.5 ],
    "rotation": { "origin": [ 1, 3.5, 2.5 ], "axis": "x", "angle": -45 },
    "faces": {
        "down":  { "uv": [ 15, 3, 1, 1 ], "texture": "#texture" },
        "up":    { "uv": [ 1, 1, 15, 3 ], "texture": "#texture" },
        "north": { "uv": [ 1, 1, 15, 2 ], "texture": "#texture" },
        "south": { "uv": [ 1, 2, 15, 3 ], "texture": "#texture" },
        "west":  { "uv": [ 1, 3, 2, 1 ], "rotation": 90, "texture": "#texture" },
        "east":  { "uv": [ 14, 1, 15, 3 ], "rotation": 90, "texture": "#texture" }
    }
},
{
    "from": [ 1, 6, 6 ],
    "to": [ 15, 7, 8 ],
    "rotation": { "origin": [ 1, 7, 6 ], "axis": "x", "angle": -45 },
    "faces": {
        "down":  { "uv": [ 15, 7, 1, 5 ], "texture": "#texture" },
        "up":    { "uv": [ 1, 5, 15, 7 ], "texture": "#texture" },
        "north": { "uv": [ 1, 5, 15, 6 ], "texture": "#texture" },
        "south": { "uv": [ 1, 6, 15, 7 ], "texture": "#texture" },
        "west":  { "uv": [ 1, 7, 2, 5 ], "rotation": 90, "texture": "#texture" },
        "east":  { "uv": [ 14, 5, 15, 7 ], "rotation": 90, "texture": "#texture" }
    }
},
{
    "from": [ 1, 13.5, 13.5 ],
    "to": [ 15, 14.5, 15.5 ],
    "rotation": { "origin": [ 1, 14.5, 13.5 ], "axis": "x", "angle": -45 },
    "faces": {
        "down":  { "uv": [ 15, 15, 1, 13 ], "texture": "#texture" },
        "up":    { "uv": [ 1, 13, 15, 15 ], "texture": "#texture" },
        "north": { "uv": [ 1, 13, 15, 14 ], "texture": "#texture" },
        "south": { "uv": [ 1, 14, 15, 15 ], "texture": "#texture" },
        "west":  { "uv": [ 1, 15, 2, 13 ], "rotation": 90, "texture": "#texture" },
        "east":  { "uv": [ 14, 13, 15, 15 ], "rotation": 90, "texture": "#texture" }
    }
},
{
    "from": [ 1, 9.5, 9.5 ],
    "to": [ 15, 10.5, 11.5 ],
    "rotation": { "origin": [ 1, 10.5, 9.5 ], "axis": "x", "angle": -45 },
    "faces": {
        "down":  { "uv": [ 15, 11, 1, 9 ], "texture": "#texture" },
        "up":    { "uv": [ 1, 9, 15, 11 ], "texture": "#texture" },
        "north": { "uv": [ 1, 9, 15, 10 ], "texture": "#texture" },
        "south": { "uv": [ 1, 10, 15, 11 ], "texture": "#texture" },
        "west":  { "uv": [ 1, 11, 2, 9 ], "rotation": 90, "texture": "#texture" },
        "east":  { "uv": [ 14, 9, 15, 11 ], "rotation": 90, "texture": "#texture" }
    }
}
]
}