{
"textures": {
    "particle": "blocks/reeds",
    "texture": "blocks/reeds",
    "reeds_leaves": "blocks/reeds_leaves"
},
"elements": [ 
{
    "from": [ 3, -4, 8 ],
    "to": [ 5, 12, 10 ],
    "faces": {
        "down":  { "uv": [ 1, 0, 3, 2 ], "texture": "#texture", "tintindex": 0 },
        "up":    { "uv": [ 1, 0, 3, 2 ], "texture": "#texture", "tintindex": 0 },
        "north": { "uv": [ 1, 0, 3, 16 ], "texture": "#texture", "tintindex": 0 },
        "south": { "uv": [ 1, 0, 3, 16 ], "texture": "#texture", "tintindex": 0 },
        "west":  { "uv": [ 1, 0, 3, 16 ], "texture": "#texture", "tintindex": 0 },
        "east":  { "uv": [ 1, 0, 3, 16 ], "texture": "#texture", "tintindex": 0 }
    }
},
{
    "from": [ 5, -1, 3 ],
    "to": [ 7, 15, 5 ],
    "faces": {
        "down":  { "uv": [ 5, 0, 7, 2 ], "texture": "#texture", "tintindex": 0 },
        "up":    { "uv": [ 5, 0, 7, 2 ], "texture": "#texture", "tintindex": 0 },
        "north": { "uv": [ 5, 0, 7, 16 ], "texture": "#texture", "tintindex": 0 },
        "south": { "uv": [ 5, 0, 7, 16 ], "texture": "#texture", "tintindex": 0 },
        "west":  { "uv": [ 5, 0, 7, 16 ], "texture": "#texture", "tintindex": 0 },
        "east":  { "uv": [ 5, 0, 7, 16 ], "texture": "#texture", "tintindex": 0 }
    }
},
{
    "from": [ 11, -3, 4 ],
    "to": [ 13, 13, 6 ],
    "faces": {
        "down":  { "uv": [ 9, 0, 11, 2 ], "texture": "#texture", "tintindex": 0 },
        "up":    { "uv": [ 9, 0, 11, 2 ], "texture": "#texture", "tintindex": 0 },
        "north": { "uv": [ 9, 0, 11, 16 ], "texture": "#texture", "tintindex": 0 },
        "south": { "uv": [ 9, 0, 11, 16 ], "texture": "#texture", "tintindex": 0 },
        "west":  { "uv": [ 9, 0, 11, 16 ], "texture": "#texture", "tintindex": 0 },
        "east":  { "uv": [ 9, 0, 11, 16 ], "texture": "#texture", "tintindex": 0 }
    }
},
{
    "from": [ 9, 0, 10 ],
    "to": [ 11, 16, 12 ],
    "faces": {
        "down":  { "uv": [ 13, 0, 15, 2 ], "texture": "#texture", "tintindex": 0 },
        "up":    { "uv": [ 13, 0, 15, 2 ], "texture": "#texture", "tintindex": 0 },
        "north": { "uv": [ 13, 0, 15, 16 ], "texture": "#texture", "tintindex": 0 },
        "south": { "uv": [ 13, 0, 15, 16 ], "texture": "#texture", "tintindex": 0 },
        "west":  { "uv": [ 13, 0, 15, 16 ], "texture": "#texture", "tintindex": 0 },
        "east":  { "uv": [ 13, 0, 15, 16 ], "texture": "#texture", "tintindex": 0 }
    }
},
{
    "from": [ 12, 1, 1 ],
    "to": [ 12.0625, 12.5, 13 ],
    "rotation": { "origin": [ 12, 1, 1 ], "axis": "y", "angle": -45 },
    "faces": {
        "west":  { "uv": [ 16, 0, 0, 16 ], "texture": "#reeds_leaves", "tintindex": 0 },
        "east":  { "uv": [ 0, 0, 16, 16 ], "texture": "#reeds_leaves", "tintindex": 0 }
    }
},
{
    "from": [ 0.8125, 0.5, 1.8125 ],
    "to": [ 13.8125, 14, 1.875 ],
    "rotation": { "origin": [ 0.8125, 0.5, 1.8125 ], "axis": "y", "angle": -45 },
    "faces": {
        "north": { "uv": [ 0, 0, 16, 16 ], "texture": "#reeds_leaves", "tintindex": 0 },
        "south": { "uv": [ 16, 0, 0, 16 ], "texture": "#reeds_leaves", "tintindex": 0 }
    }
}
],
"display": {
    "thirdperson_righthand": {
        "rotation": [ 0, -120, 0 ],
        "translation": [ 0, 3.5, 1 ],
        "scale": [ 1, 1, 1 ]
    },
    "thirdperson_lefthand": {
        "rotation": [ 0, -120, 0 ],
        "translation": [ 0, 4, 1 ],
        "scale": [ 1.1, 1.1, 1.1 ]
    },
    "head": {
        "rotation": [ 0, 0, 0 ],
        "translation": [ 0, 13, 0 ],
        "scale": [ 1, 1, 1 ]
    },
    "ground": {
        "rotation": [ -10, 0, 70 ],
        "translation": [ 0, 3, 0 ],
        "scale": [ 0.7, 0.7, 0.7 ]
    },
    "fixed": {
        "rotation": [ 0, 0, 0 ],
        "translation": [ 0, 0, 0 ],
        "scale": [ 0.5, 0.5, 0.5 ]
    },
    "firstperson_righthand": {
        "rotation": [ 0, 35, 6 ],
        "translation": [ 0, 3, 0 ],
        "scale": [ 0.8, 0.8, 0.8 ]
    },
    "firstperson_lefthand": {
        "rotation": [ 5, 35, 5 ],
        "translation": [ 0, 4, 0 ],
        "scale": [ 1, 1, 1 ]
    },
    "gui": {
        "rotation": [ 30, 130, 0 ],
        "translation": [ 0, 2.5, 0 ],
        "scale": [ 1.2, 1.2, 1.2 ]
    }
}
}