############################################################
# Description: Makes the timbering enchantment function
# Creator: CreeperMagnet_
############################################################
playsound minecraft:block.grass.break block @a[distance=..16]
playsound minecraft:block.grass.break block @a[distance=..16]
playsound minecraft:block.grass.break block @a[distance=..16]
playsound minecraft:block.grass.break block @a[distance=..16]
playsound minecraft:block.grass.break block @a[distance=..16]
playsound minecraft:block.grass.break block @a[distance=..16]
playsound minecraft:block.grass.break block @a[distance=..16]
data merge entity @s {Motion:[0.0,0.0,0.0]}
function tcc:charms/reaping/carrots/loop
scoreboard players reset @a tcc.minecarrots