{
  "rewards": {
    "function": "killfeed:shot/horses/mule"
  },
  "criteria": {
    "kill": {
      "trigger": "minecraft:player_killed_entity",
      "conditions": {
        "entity": {
          "type": "mule",
          "flags": {
            "is_baby": false
          }
        },
        "killing_blow": {
          "is_projectile": "true"
        }
      }
    }
  }
}