{
 "pools":[
		  {"rolls":1,
		   "entries":[
					  {"type":"minecraft:group",
					   "children":[
								   {
								    "type": "minecraft:loot_table",
								    "name": "decapitation:entities/horse",
								    "weight": 1
								   }
								  ]
					  }				  
					 ]
		  },
		  {"rolls":1,
		   "entries":[
					  {"type":"minecraft:alternatives",
					   "children":[
								   {
								    "type": "minecraft:loot_table",
								    "name": "decapitation:heads/horse/white",
								    "weight": 1,
									"conditions":[
												  {"condition":"minecraft:alternative",
												   "terms":[
														    {"condition":"minecraft:entity_properties",
															 "entity":"this",
														     "predicate":{
																		  "type":"minecraft:horse",
																		  "nbt":"{Variant:0}"
																	     }
												            },
															{"condition":"minecraft:entity_properties",
															 "entity":"this",
														     "predicate":{
														   			     "type":"minecraft:horse",
																		  "nbt":"{Variant:256}"
																	     }
												            },
															{"condition":"minecraft:entity_properties",
															 "entity":"this",
														     "predicate":{
																		  "type":"minecraft:horse",
																		  "nbt":"{Variant:512}"
																	     }
												            },
															{"condition":"minecraft:entity_properties",
															 "entity":"this",
														     "predicate":{
																		  "type":"minecraft:horse",
																		  "nbt":"{Variant:768}"
																	     }
												            },
															{"condition":"minecraft:entity_properties",
															 "entity":"this",
														     "predicate":{
																		  "type":"minecraft:horse",
																	      "nbt":"{Variant:1024}"
																	     }
												            }
														   ]
												  }
											     ]
								   },
								   {
								    "type": "minecraft:loot_table",
								    "name": "decapitation:heads/horse/creamy",
								    "weight": 1,
									"conditions":[
												  {"condition":"minecraft:alternative",
												   "terms":[
														    {"condition":"minecraft:entity_properties",
															 "entity":"this",
														     "predicate":{
																		  "type":"minecraft:horse",
																		  "nbt":"{Variant:1}"
																	     }
												            },
															{"condition":"minecraft:entity_properties",
															 "entity":"this",
														     "predicate":{
														   			     "type":"minecraft:horse",
																		  "nbt":"{Variant:257}"
																	     }
												            },
															{"condition":"minecraft:entity_properties",
															 "entity":"this",
														     "predicate":{
																		  "type":"minecraft:horse",
																		  "nbt":"{Variant:513}"
																	     }
												            },
															{"condition":"minecraft:entity_properties",
															 "entity":"this",
														     "predicate":{
																		  "type":"minecraft:horse",
																		  "nbt":"{Variant:769}"
																	     }
												            },
															{"condition":"minecraft:entity_properties",
															 "entity":"this",
														     "predicate":{
																		  "type":"minecraft:horse",
																	      "nbt":"{Variant:1025}"
																	     }
												            }
														   ]
												  }
											     ]
								   },
								   {
								    "type": "minecraft:loot_table",
								    "name": "decapitation:heads/horse/chestnut",
								    "weight": 1,
									"conditions":[
												  {"condition":"minecraft:alternative",
												   "terms":[
														    {"condition":"minecraft:entity_properties",
															 "entity":"this",
														     "predicate":{
																		  "type":"minecraft:horse",
																		  "nbt":"{Variant:2}"
																	     }
												            },
															{"condition":"minecraft:entity_properties",
															 "entity":"this",
														     "predicate":{
														   			     "type":"minecraft:horse",
																		  "nbt":"{Variant:258}"
																	     }
												            },
															{"condition":"minecraft:entity_properties",
															 "entity":"this",
														     "predicate":{
																		  "type":"minecraft:horse",
																		  "nbt":"{Variant:514}"
																	     }
												            },
															{"condition":"minecraft:entity_properties",
															 "entity":"this",
														     "predicate":{
																		  "type":"minecraft:horse",
																		  "nbt":"{Variant:770}"
																	     }
												            },
															{"condition":"minecraft:entity_properties",
															 "entity":"this",
														     "predicate":{
																		  "type":"minecraft:horse",
																	      "nbt":"{Variant:1026}"
																	     }
												            }
														   ]
												  }
											     ]
								   },
								   {
								    "type": "minecraft:loot_table",
								    "name": "decapitation:heads/horse/brown",
								    "weight": 1,
									"conditions":[
												  {"condition":"minecraft:alternative",
												   "terms":[
														    {"condition":"minecraft:entity_properties",
															 "entity":"this",
														     "predicate":{
																		  "type":"minecraft:horse",
																		  "nbt":"{Variant:3}"
																	     }
												            },
															{"condition":"minecraft:entity_properties",
															 "entity":"this",
														     "predicate":{
														   			     "type":"minecraft:horse",
																		  "nbt":"{Variant:259}"
																	     }
												            },
															{"condition":"minecraft:entity_properties",
															 "entity":"this",
														     "predicate":{
																		  "type":"minecraft:horse",
																		  "nbt":"{Variant:515}"
																	     }
												            },
															{"condition":"minecraft:entity_properties",
															 "entity":"this",
														     "predicate":{
																		  "type":"minecraft:horse",
																		  "nbt":"{Variant:771}"
																	     }
												            },
															{"condition":"minecraft:entity_properties",
															 "entity":"this",
														     "predicate":{
																		  "type":"minecraft:horse",
																	      "nbt":"{Variant:1027}"
																	     }
												            }
														   ]
												  }
											     ]
								   },
								   {
								    "type": "minecraft:loot_table",
								    "name": "decapitation:heads/horse/black",
								    "weight": 1,
									"conditions":[
												  {"condition":"minecraft:alternative",
												   "terms":[
														    {"condition":"minecraft:entity_properties",
															 "entity":"this",
														     "predicate":{
																		  "type":"minecraft:horse",
																		  "nbt":"{Variant:4}"
																	     }
												            },
															{"condition":"minecraft:entity_properties",
															 "entity":"this",
														     "predicate":{
														   			     "type":"minecraft:horse",
																		  "nbt":"{Variant:260}"
																	     }
												            },
															{"condition":"minecraft:entity_properties",
															 "entity":"this",
														     "predicate":{
																		  "type":"minecraft:horse",
																		  "nbt":"{Variant:516}"
																	     }
												            },
															{"condition":"minecraft:entity_properties",
															 "entity":"this",
														     "predicate":{
																		  "type":"minecraft:horse",
																		  "nbt":"{Variant:772}"
																	     }
												            },
															{"condition":"minecraft:entity_properties",
															 "entity":"this",
														     "predicate":{
																		  "type":"minecraft:horse",
																	      "nbt":"{Variant:1028}"
																	     }
												            }
														   ]
												  }
											     ]
								   },
								   {
								    "type": "minecraft:loot_table",
								    "name": "decapitation:heads/horse/gray",
								    "weight": 1,
									"conditions":[
												  {"condition":"minecraft:alternative",
												   "terms":[
														    {"condition":"minecraft:entity_properties",
															 "entity":"this",
														     "predicate":{
																		  "type":"minecraft:horse",
																		  "nbt":"{Variant:5}"
																	     }
												            },
															{"condition":"minecraft:entity_properties",
															 "entity":"this",
														     "predicate":{
														   			     "type":"minecraft:horse",
																		  "nbt":"{Variant:261}"
																	     }
												            },
															{"condition":"minecraft:entity_properties",
															 "entity":"this",
														     "predicate":{
																		  "type":"minecraft:horse",
																		  "nbt":"{Variant:517}"
																	     }
												            },
															{"condition":"minecraft:entity_properties",
															 "entity":"this",
														     "predicate":{
																		  "type":"minecraft:horse",
																		  "nbt":"{Variant:773}"
																	     }
												            },
															{"condition":"minecraft:entity_properties",
															 "entity":"this",
														     "predicate":{
																		  "type":"minecraft:horse",
																	      "nbt":"{Variant:1029}"
																	     }
												            }
														   ]
												  }
											     ]
								   },
								   {
								    "type": "minecraft:loot_table",
								    "name": "decapitation:heads/horse/dark_brown",
								    "weight": 1,
									"conditions":[
												  {"condition":"minecraft:alternative",
												   "terms":[
														    {"condition":"minecraft:entity_properties",
															 "entity":"this",
														     "predicate":{
																		  "type":"minecraft:horse",
																		  "nbt":"{Variant:6}"
																	     }
												            },
															{"condition":"minecraft:entity_properties",
															 "entity":"this",
														     "predicate":{
														   			     "type":"minecraft:horse",
																		  "nbt":"{Variant:262}"
																	     }
												            },
															{"condition":"minecraft:entity_properties",
															 "entity":"this",
														     "predicate":{
																		  "type":"minecraft:horse",
																		  "nbt":"{Variant:518}"
																	     }
												            },
															{"condition":"minecraft:entity_properties",
															 "entity":"this",
														     "predicate":{
																		  "type":"minecraft:horse",
																		  "nbt":"{Variant:774}"
																	     }
												            },
															{"condition":"minecraft:entity_properties",
															 "entity":"this",
														     "predicate":{
																		  "type":"minecraft:horse",
																	      "nbt":"{Variant:1030}"
																	     }
												            }
														   ]
												  }
											     ]
								   }
								  ]
					  }				  
					 ]
		  }
		 ]
}
