{
 "pools":[
		  {"rolls":1,
		   "entries":[
					  {"type":"minecraft:group",
					   "children":[
								   {
								    "type": "minecraft:loot_table",
								    "name": "decapitation:entities/cat",
								    "weight": 1
								   }
								  ]
					  }				  
					 ]
		  },
		  {"rolls":1,
		   "entries":[
					  {"type":"minecraft:alternatives",
					   "children":[
								   {
								    "type": "minecraft:loot_table",
								    "name": "decapitation:heads/parrot/red",
								    "weight": 1,
									"conditions":[
												  {"condition":"minecraft:entity_properties",
												   "entity":"this",
												   "predicate":{
															    "type":"minecraft:parrot",
															    "nbt":"{Variant:0}"
															   }
												  } 
											     ]
								   },
								   {
								    "type": "minecraft:loot_table",
								    "name": "decapitation:heads/parrot/blue",
								    "weight": 1,
									"conditions":[
												  {"condition":"minecraft:entity_properties",
												   "entity":"this",
												   "predicate":{
															    "type":"minecraft:parrot",
															    "nbt":"{Variant:1}"
															   }
												  } 
											     ]
								   },
								   {
								    "type": "minecraft:loot_table",
								    "name": "decapitation:heads/parrot/green",
								    "weight": 1,
									"conditions":[
												  {"condition":"minecraft:entity_properties",
												   "entity":"this",
												   "predicate":{
															    "type":"minecraft:parrot",
															    "nbt":"{Variant:2}"
															   }
												  } 
											     ]
								   },
								   {
								    "type": "minecraft:loot_table",
								    "name": "decapitation:heads/parrot/cyan",
								    "weight": 1,
									"conditions":[
												  {"condition":"minecraft:entity_properties",
												   "entity":"this",
												   "predicate":{
															    "type":"minecraft:parrot",
															    "nbt":"{Variant:3}"
															   }
												  } 
											     ]
								   },
								   {
								    "type": "minecraft:loot_table",
								    "name": "decapitation:heads/parrot/gray",
								    "weight": 1,
									"conditions":[
												  {"condition":"minecraft:entity_properties",
												   "entity":"this",
												   "predicate":{
															    "type":"minecraft:parrot",
															    "nbt":"{Variant:4}"
															   }
												  } 
											     ]
								   }
								  ]
					  }				  
					 ]
		  }
		 ]
}
