{
 "pools":[
		  {"rolls":1,
		   "entries":[
					  {"type":"minecraft:group",
					   "children":[
								   {
								    "type": "minecraft:loot_table",
								    "name": "decapitation:entities/wolf",
								    "weight": 1
								   }
								  ]
					  }				  
					 ]
		  },
		  {"rolls":1,
		   "entries":[
					  {"type":"minecraft:alternatives",
					   "children":[
								   {
								    "type": "minecraft:loot_table",
								    "name": "decapitation:heads/wolf/demon_dog",
								    "weight": 1,
									"conditions":[
												  {"condition":"minecraft:entity_properties",
												   "entity":"this",
												   "predicate":{
															    "type":"minecraft:wolf",
															    "nbt":"{Angry:1b}"
															   }
												  }
											     ]
								   },
								   {
								    "type": "minecraft:loot_table",
								    "name": "decapitation:heads/wolf/original",
								    "weight": 1
								   }
								  ]
						 
					    
					  }				  
					 ]
		  }
		 ]
}
