scoreboard players operation @s bccm_tpD = @s bccm_deathD
scoreboard players operation @s bccm_tpX = @s bccm_deathX
scoreboard players operation @s bccm_tpY = @s bccm_deathY
scoreboard players operation @s bccm_tpZ = @s bccm_deathZ
function bertiecrafter:tp/internal/cm_startprocess