scoreboard players operation @s bccm_tpD = @s bccm_inputD
scoreboard players operation @s bccm_tpX = @s bccm_inputX
scoreboard players operation @s bccm_tpY = @s bccm_inputY
scoreboard players operation @s bccm_tpZ = @s bccm_inputZ
function bertiecrafter:tp/internal/cm_startprocess