{
    "parent": "item/handheld",
    "textures": {
        "layer0": "item/golden_shovel"
    },
    "overrides": [
        {
            "predicate": {
                "damaged": 1,
                "damage": 0.5
            },
            "model": "item/golden_shovel/golden_shovel_1"
        },
        {
            "predicate": {
                "damaged": 1,
                "damage": 0.75
            },
            "model": "item/golden_shovel/golden_shovel_2"
        },
        {
            "predicate": {
                "damaged": 1,
                "damage": 1
            },
            "model": "item/golden_shovel/golden_shovel_3"
        }
    ]
}