{
    "parent": "item/handheld",
    "textures": {
        "layer0": "item/stone_hoe"
    },
    "overrides": [
        {
            "predicate": {
                "damaged": 1,
                "damage": 0.503
            },
            "model": "item/stone_hoe/stone_hoe_1"
        },
        {
            "predicate": {
                "damaged": 1,
                "damage": 0.755
            },
            "model": "item/stone_hoe/stone_hoe_2"
        },
        {
            "predicate": {
                "damaged": 1,
                "damage": 0.877
            },
            "model": "item/stone_hoe/stone_hoe_3"
        },
        {
            "predicate": {
                "damaged": 1,
                "damage": 0.938
            },
            "model": "item/stone_hoe/stone_hoe_3"

        }
    ]
}