{
	"credit": "Made with Blockbench",
	"textures": {
		"0": "item/ender_eye",
		"particle": "item/ender_eye"
	},
	"elements": [
		{
			"from": [10, 11, 10],
			"to": [12, 12, 12],
			"faces": {
				"north": {"uv": [0, 0, 1, 1], "texture": "#0"},
				"east": {"uv": [11, 10, 12, 12], "texture": "#0", "rotation": 90},
				"south": {"uv": [10, 11, 12, 12], "texture": "#0"},
				"west": {"uv": [0, 0, 1, 1], "texture": "#0"},
				"up": {"uv": [10, 10, 12, 12], "texture": "#0"},
				"down": {"uv": [0, 0, 1, 1], "texture": "#0"}
			}
		},
		{
			"from": [10, 12, 7],
			"to": [12, 13, 10],
			"faces": {
				"north": {"uv": [10, 7, 12, 8], "texture": "#0", "rotation": 180},
				"east": {"uv": [11, 7, 12, 10], "texture": "#0", "rotation": 90},
				"south": {"uv": [10, 9, 12, 10], "texture": "#0"},
				"west": {"uv": [0, 0, 1, 1], "texture": "#0"},
				"up": {"uv": [10, 7, 12, 10], "texture": "#0"},
				"down": {"uv": [0, 0, 1, 1], "texture": "#0"}
			}
		},
		{
			"from": [10, 11, 5],
			"to": [12, 12, 7],
			"faces": {
				"north": {"uv": [10, 5, 12, 6], "texture": "#0", "rotation": 180},
				"east": {"uv": [11, 5, 12, 7], "texture": "#0", "rotation": 90},
				"south": {"uv": [0, 0, 1, 1], "texture": "#0"},
				"west": {"uv": [0, 0, 1, 1], "texture": "#0"},
				"up": {"uv": [10, 5, 12, 7], "texture": "#0"},
				"down": {"uv": [0, 0, 1, 1], "texture": "#0"}
			}
		},
		{
			"from": [7, 12, 5],
			"to": [10, 13, 7],
			"faces": {
				"north": {"uv": [7, 5, 10, 6], "texture": "#0", "rotation": 180},
				"east": {"uv": [9, 5, 10, 7], "texture": "#0", "rotation": 90},
				"south": {"uv": [0, 0, 1, 1], "texture": "#0"},
				"west": {"uv": [5, 6, 6, 8], "texture": "#0", "rotation": 270},
				"up": {"uv": [7, 5, 10, 7], "texture": "#0"},
				"down": {"uv": [0, 0, 1, 1], "texture": "#0"}
			}
		},
		{
			"from": [7, 13, 7],
			"to": [10, 14, 10],
			"faces": {
				"north": {"uv": [7, 7, 10, 8], "texture": "#0", "rotation": 180},
				"east": {"uv": [9, 7, 10, 10], "texture": "#0", "rotation": 90},
				"south": {"uv": [7, 9, 10, 10], "texture": "#0"},
				"west": {"uv": [7, 7, 8, 10], "texture": "#0", "rotation": 270},
				"up": {"uv": [7, 7, 10, 10], "texture": "#0"},
				"down": {"uv": [0, 0, 1, 1], "texture": "#0"}
			}
		},
		{
			"from": [7, 12, 10],
			"to": [10, 13, 12],
			"faces": {
				"north": {"uv": [0, 0, 1, 1], "texture": "#0"},
				"east": {"uv": [9, 10, 10, 12], "texture": "#0", "rotation": 90},
				"south": {"uv": [7, 11, 10, 12], "texture": "#0"},
				"west": {"uv": [7, 10, 8, 12], "texture": "#0", "rotation": 270},
				"up": {"uv": [7, 10, 10, 12], "texture": "#0"},
				"down": {"uv": [0, 0, 1, 1], "texture": "#0"}
			}
		},
		{
			"from": [5, 11, 10],
			"to": [7, 12, 12],
			"faces": {
				"north": {"uv": [0, 0, 1, 1], "texture": "#0"},
				"east": {"uv": [0, 0, 1, 1], "texture": "#0"},
				"south": {"uv": [5, 11, 7, 12], "texture": "#0"},
				"west": {"uv": [5, 10, 6, 12], "texture": "#0", "rotation": 270},
				"up": {"uv": [5, 10, 7, 12], "texture": "#0"},
				"down": {"uv": [0, 0, 1, 1], "texture": "#0"}
			}
		},
		{
			"from": [5, 12, 7],
			"to": [7, 13, 10],
			"faces": {
				"north": {"uv": [5, 7, 7, 8], "texture": "#0", "rotation": 180},
				"east": {"uv": [0, 0, 1, 1], "texture": "#0"},
				"south": {"uv": [5, 9, 7, 10], "texture": "#0"},
				"west": {"uv": [5, 7, 6, 10], "texture": "#0", "rotation": 270},
				"up": {"uv": [5, 7, 7, 10], "texture": "#0"},
				"down": {"uv": [0, 0, 1, 1], "texture": "#0"}
			}
		},
		{
			"from": [5, 11, 5],
			"to": [7, 12, 7],
			"faces": {
				"north": {"uv": [5, 5, 7, 6], "texture": "#0", "rotation": 180},
				"east": {"uv": [0, 0, 1, 1], "texture": "#0"},
				"south": {"uv": [0, 0, 1, 1], "texture": "#0"},
				"west": {"uv": [5, 5, 6, 7], "texture": "#0", "rotation": 270},
				"up": {"uv": [5, 5, 7, 7], "texture": "#0"},
				"down": {"uv": [0, 0, 1, 1], "texture": "#0"}
			}
		},
		{
			"from": [5, 4, 4],
			"to": [7, 6, 5],
			"faces": {
				"north": {"uv": [10, 10, 12, 12], "texture": "#0"},
				"east": {"uv": [0, 0, 1, 1], "texture": "#0", "rotation": 90},
				"south": {"uv": [0, 0, 1, 1], "texture": "#0", "rotation": 180},
				"west": {"uv": [11, 10, 12, 12], "texture": "#0"},
				"up": {"uv": [0, 0, 1, 1], "texture": "#0"},
				"down": {"uv": [10, 11, 12, 12], "texture": "#0", "rotation": 180}
			}
		},
		{
			"from": [5, 6, 3],
			"to": [7, 9, 4],
			"faces": {
				"north": {"uv": [10, 7, 12, 10], "texture": "#0"},
				"east": {"uv": [0, 0, 1, 1], "texture": "#0", "rotation": 90},
				"south": {"uv": [0, 0, 1, 1], "texture": "#0", "rotation": 180},
				"west": {"uv": [11, 7, 12, 10], "texture": "#0"},
				"up": {"uv": [10, 7, 12, 8], "texture": "#0", "rotation": 180},
				"down": {"uv": [10, 9, 12, 10], "texture": "#0", "rotation": 180}
			}
		},
		{
			"from": [5, 9, 4],
			"to": [7, 11, 5],
			"faces": {
				"north": {"uv": [10, 5, 12, 7], "texture": "#0"},
				"east": {"uv": [0, 0, 1, 1], "texture": "#0", "rotation": 90},
				"south": {"uv": [0, 0, 1, 1], "texture": "#0", "rotation": 180},
				"west": {"uv": [11, 5, 12, 7], "texture": "#0"},
				"up": {"uv": [10, 5, 12, 6], "texture": "#0", "rotation": 180},
				"down": {"uv": [0, 0, 1, 1], "texture": "#0", "rotation": 180}
			}
		},
		{
			"from": [7, 9, 3],
			"to": [10, 11, 4],
			"faces": {
				"north": {"uv": [7, 5, 10, 7], "texture": "#0"},
				"east": {"uv": [5, 6, 6, 8], "texture": "#0"},
				"south": {"uv": [0, 0, 1, 1], "texture": "#0", "rotation": 180},
				"west": {"uv": [9, 5, 10, 7], "texture": "#0"},
				"up": {"uv": [7, 5, 10, 6], "texture": "#0", "rotation": 180},
				"down": {"uv": [0, 0, 1, 1], "texture": "#0", "rotation": 180}
			}
		},
		{
			"from": [7, 6, 2],
			"to": [10, 9, 3],
			"faces": {
				"north": {"uv": [7, 7, 10, 10], "texture": "#0"},
				"east": {"uv": [7, 7, 8, 10], "texture": "#0"},
				"south": {"uv": [0, 0, 1, 1], "texture": "#0", "rotation": 180},
				"west": {"uv": [9, 7, 10, 10], "texture": "#0"},
				"up": {"uv": [7, 7, 10, 8], "texture": "#0", "rotation": 180},
				"down": {"uv": [7, 9, 10, 10], "texture": "#0", "rotation": 180}
			}
		},
		{
			"from": [7, 4, 3],
			"to": [10, 6, 4],
			"faces": {
				"north": {"uv": [7, 10, 10, 12], "texture": "#0"},
				"east": {"uv": [7, 10, 8, 12], "texture": "#0"},
				"south": {"uv": [0, 0, 1, 1], "texture": "#0", "rotation": 180},
				"west": {"uv": [9, 10, 10, 12], "texture": "#0"},
				"up": {"uv": [0, 0, 1, 1], "texture": "#0"},
				"down": {"uv": [7, 11, 10, 12], "texture": "#0", "rotation": 180}
			}
		},
		{
			"from": [10, 4, 4],
			"to": [12, 6, 5],
			"faces": {
				"north": {"uv": [5, 10, 7, 12], "texture": "#0"},
				"east": {"uv": [5, 10, 6, 12], "texture": "#0"},
				"south": {"uv": [0, 0, 1, 1], "texture": "#0", "rotation": 180},
				"west": {"uv": [0, 0, 1, 1], "texture": "#0", "rotation": 270},
				"up": {"uv": [0, 0, 1, 1], "texture": "#0"},
				"down": {"uv": [5, 11, 7, 12], "texture": "#0", "rotation": 180}
			}
		},
		{
			"from": [10, 6, 3],
			"to": [12, 9, 4],
			"faces": {
				"north": {"uv": [5, 7, 7, 10], "texture": "#0"},
				"east": {"uv": [5, 7, 6, 10], "texture": "#0"},
				"south": {"uv": [0, 0, 1, 1], "texture": "#0", "rotation": 180},
				"west": {"uv": [0, 0, 1, 1], "texture": "#0", "rotation": 270},
				"up": {"uv": [5, 7, 7, 8], "texture": "#0", "rotation": 180},
				"down": {"uv": [5, 9, 7, 10], "texture": "#0", "rotation": 180}
			}
		},
		{
			"from": [10, 9, 4],
			"to": [12, 11, 5],
			"faces": {
				"north": {"uv": [5, 5, 7, 7], "texture": "#0"},
				"east": {"uv": [5, 5, 6, 7], "texture": "#0"},
				"south": {"uv": [0, 0, 1, 1], "texture": "#0", "rotation": 180},
				"west": {"uv": [0, 0, 1, 1], "texture": "#0", "rotation": 270},
				"up": {"uv": [5, 5, 7, 6], "texture": "#0", "rotation": 180},
				"down": {"uv": [0, 0, 1, 1], "texture": "#0", "rotation": 180}
			}
		},
		{
			"from": [12, 4, 5],
			"to": [13, 6, 7],
			"faces": {
				"north": {"uv": [11, 10, 12, 12], "texture": "#0"},
				"east": {"uv": [10, 10, 12, 12], "texture": "#0"},
				"south": {"uv": [0, 0, 1, 1], "texture": "#0", "rotation": 90},
				"west": {"uv": [0, 0, 1, 1], "texture": "#0", "rotation": 180},
				"up": {"uv": [0, 0, 1, 1], "texture": "#0", "rotation": 90},
				"down": {"uv": [10, 11, 12, 12], "texture": "#0", "rotation": 90}
			}
		},
		{
			"from": [13, 6, 5],
			"to": [14, 9, 7],
			"faces": {
				"north": {"uv": [11, 7, 12, 10], "texture": "#0"},
				"east": {"uv": [10, 7, 12, 10], "texture": "#0"},
				"south": {"uv": [0, 0, 1, 1], "texture": "#0", "rotation": 90},
				"west": {"uv": [0, 0, 1, 1], "texture": "#0", "rotation": 180},
				"up": {"uv": [10, 7, 12, 8], "texture": "#0", "rotation": 270},
				"down": {"uv": [10, 9, 12, 10], "texture": "#0", "rotation": 90}
			}
		},
		{
			"from": [12, 9, 5],
			"to": [13, 11, 7],
			"faces": {
				"north": {"uv": [11, 5, 12, 7], "texture": "#0"},
				"east": {"uv": [10, 5, 12, 7], "texture": "#0"},
				"south": {"uv": [0, 0, 1, 1], "texture": "#0", "rotation": 90},
				"west": {"uv": [0, 0, 1, 1], "texture": "#0", "rotation": 180},
				"up": {"uv": [10, 5, 12, 6], "texture": "#0", "rotation": 270},
				"down": {"uv": [0, 0, 1, 1], "texture": "#0", "rotation": 90}
			}
		},
		{
			"from": [13, 9, 7],
			"to": [14, 11, 10],
			"faces": {
				"north": {"uv": [9, 5, 10, 7], "texture": "#0"},
				"east": {"uv": [7, 5, 10, 7], "texture": "#0"},
				"south": {"uv": [5, 6, 6, 8], "texture": "#0"},
				"west": {"uv": [0, 0, 1, 1], "texture": "#0", "rotation": 180},
				"up": {"uv": [7, 5, 10, 6], "texture": "#0", "rotation": 270},
				"down": {"uv": [0, 0, 1, 1], "texture": "#0", "rotation": 90}
			}
		},
		{
			"from": [14, 6, 7],
			"to": [15, 9, 10],
			"faces": {
				"north": {"uv": [9, 7, 10, 10], "texture": "#0"},
				"east": {"uv": [7, 7, 10, 10], "texture": "#0"},
				"south": {"uv": [7, 7, 8, 10], "texture": "#0"},
				"west": {"uv": [0, 0, 1, 1], "texture": "#0", "rotation": 180},
				"up": {"uv": [7, 7, 10, 8], "texture": "#0", "rotation": 270},
				"down": {"uv": [7, 9, 10, 10], "texture": "#0", "rotation": 90}
			}
		},
		{
			"from": [13, 4, 7],
			"to": [14, 6, 10],
			"faces": {
				"north": {"uv": [9, 10, 10, 12], "texture": "#0"},
				"east": {"uv": [7, 10, 10, 12], "texture": "#0"},
				"south": {"uv": [7, 10, 8, 12], "texture": "#0"},
				"west": {"uv": [0, 0, 1, 1], "texture": "#0", "rotation": 180},
				"up": {"uv": [0, 0, 1, 1], "texture": "#0", "rotation": 90},
				"down": {"uv": [7, 11, 10, 12], "texture": "#0", "rotation": 90}
			}
		},
		{
			"from": [12, 4, 10],
			"to": [13, 6, 12],
			"faces": {
				"north": {"uv": [0, 0, 1, 1], "texture": "#0", "rotation": 270},
				"east": {"uv": [5, 10, 7, 12], "texture": "#0"},
				"south": {"uv": [5, 10, 6, 12], "texture": "#0"},
				"west": {"uv": [0, 0, 1, 1], "texture": "#0", "rotation": 180},
				"up": {"uv": [0, 0, 1, 1], "texture": "#0", "rotation": 90},
				"down": {"uv": [5, 11, 7, 12], "texture": "#0", "rotation": 90}
			}
		},
		{
			"from": [13, 6, 10],
			"to": [14, 9, 12],
			"faces": {
				"north": {"uv": [0, 0, 1, 1], "texture": "#0", "rotation": 270},
				"east": {"uv": [5, 7, 7, 10], "texture": "#0"},
				"south": {"uv": [5, 7, 6, 10], "texture": "#0"},
				"west": {"uv": [0, 0, 1, 1], "texture": "#0", "rotation": 180},
				"up": {"uv": [5, 7, 7, 8], "texture": "#0", "rotation": 270},
				"down": {"uv": [5, 9, 7, 10], "texture": "#0", "rotation": 90}
			}
		},
		{
			"from": [12, 9, 10],
			"to": [13, 11, 12],
			"faces": {
				"north": {"uv": [0, 0, 1, 1], "texture": "#0", "rotation": 270},
				"east": {"uv": [5, 5, 7, 7], "texture": "#0"},
				"south": {"uv": [5, 5, 6, 7], "texture": "#0"},
				"west": {"uv": [0, 0, 1, 1], "texture": "#0", "rotation": 180},
				"up": {"uv": [5, 5, 7, 6], "texture": "#0", "rotation": 270},
				"down": {"uv": [0, 0, 1, 1], "texture": "#0", "rotation": 90}
			}
		},
		{
			"from": [10, 4, 12],
			"to": [12, 6, 13],
			"faces": {
				"north": {"uv": [0, 0, 1, 1], "texture": "#0", "rotation": 180},
				"east": {"uv": [11, 10, 12, 12], "texture": "#0"},
				"south": {"uv": [10, 10, 12, 12], "texture": "#0"},
				"west": {"uv": [0, 0, 1, 1], "texture": "#0", "rotation": 90},
				"up": {"uv": [0, 0, 1, 1], "texture": "#0", "rotation": 180},
				"down": {"uv": [10, 11, 12, 12], "texture": "#0"}
			}
		},
		{
			"from": [10, 6, 13],
			"to": [12, 9, 14],
			"faces": {
				"north": {"uv": [0, 0, 1, 1], "texture": "#0", "rotation": 180},
				"east": {"uv": [11, 7, 12, 10], "texture": "#0"},
				"south": {"uv": [10, 7, 12, 10], "texture": "#0"},
				"west": {"uv": [0, 0, 1, 1], "texture": "#0", "rotation": 90},
				"up": {"uv": [10, 7, 12, 8], "texture": "#0"},
				"down": {"uv": [10, 9, 12, 10], "texture": "#0"}
			}
		},
		{
			"from": [10, 9, 12],
			"to": [12, 11, 13],
			"faces": {
				"north": {"uv": [0, 0, 1, 1], "texture": "#0", "rotation": 180},
				"east": {"uv": [11, 5, 12, 7], "texture": "#0"},
				"south": {"uv": [10, 5, 12, 7], "texture": "#0"},
				"west": {"uv": [0, 0, 1, 1], "texture": "#0", "rotation": 90},
				"up": {"uv": [10, 5, 12, 6], "texture": "#0"},
				"down": {"uv": [0, 0, 1, 1], "texture": "#0"}
			}
		},
		{
			"from": [7, 9, 13],
			"to": [10, 11, 14],
			"faces": {
				"north": {"uv": [0, 0, 1, 1], "texture": "#0", "rotation": 180},
				"east": {"uv": [9, 5, 10, 7], "texture": "#0"},
				"south": {"uv": [7, 5, 10, 7], "texture": "#0"},
				"west": {"uv": [5, 6, 6, 8], "texture": "#0"},
				"up": {"uv": [7, 5, 10, 6], "texture": "#0"},
				"down": {"uv": [0, 0, 1, 1], "texture": "#0"}
			}
		},
		{
			"from": [7, 6, 14],
			"to": [10, 9, 15],
			"faces": {
				"north": {"uv": [0, 0, 1, 1], "texture": "#0", "rotation": 180},
				"east": {"uv": [9, 7, 10, 10], "texture": "#0"},
				"south": {"uv": [7, 7, 10, 10], "texture": "#0"},
				"west": {"uv": [7, 7, 8, 10], "texture": "#0"},
				"up": {"uv": [7, 7, 10, 8], "texture": "#0"},
				"down": {"uv": [7, 9, 10, 10], "texture": "#0"}
			}
		},
		{
			"from": [7, 4, 13],
			"to": [10, 6, 14],
			"faces": {
				"north": {"uv": [0, 0, 1, 1], "texture": "#0", "rotation": 180},
				"east": {"uv": [9, 10, 10, 12], "texture": "#0"},
				"south": {"uv": [7, 10, 10, 12], "texture": "#0"},
				"west": {"uv": [7, 10, 8, 12], "texture": "#0"},
				"up": {"uv": [0, 0, 1, 1], "texture": "#0", "rotation": 180},
				"down": {"uv": [7, 11, 10, 12], "texture": "#0"}
			}
		},
		{
			"from": [5, 4, 12],
			"to": [7, 6, 13],
			"faces": {
				"north": {"uv": [0, 0, 1, 1], "texture": "#0", "rotation": 180},
				"east": {"uv": [0, 0, 1, 1], "texture": "#0", "rotation": 270},
				"south": {"uv": [5, 10, 7, 12], "texture": "#0"},
				"west": {"uv": [5, 10, 6, 12], "texture": "#0"},
				"up": {"uv": [0, 0, 1, 1], "texture": "#0", "rotation": 180},
				"down": {"uv": [5, 11, 7, 12], "texture": "#0"}
			}
		},
		{
			"from": [5, 6, 13],
			"to": [7, 9, 14],
			"faces": {
				"north": {"uv": [0, 0, 1, 1], "texture": "#0", "rotation": 180},
				"east": {"uv": [0, 0, 1, 1], "texture": "#0", "rotation": 270},
				"south": {"uv": [5, 7, 7, 10], "texture": "#0"},
				"west": {"uv": [5, 7, 6, 10], "texture": "#0"},
				"up": {"uv": [5, 7, 7, 8], "texture": "#0"},
				"down": {"uv": [5, 9, 7, 10], "texture": "#0"}
			}
		},
		{
			"from": [5, 9, 12],
			"to": [7, 11, 13],
			"faces": {
				"north": {"uv": [0, 0, 1, 1], "texture": "#0", "rotation": 180},
				"east": {"uv": [0, 0, 1, 1], "texture": "#0", "rotation": 270},
				"south": {"uv": [5, 5, 7, 7], "texture": "#0"},
				"west": {"uv": [5, 5, 6, 7], "texture": "#0"},
				"up": {"uv": [5, 5, 7, 6], "texture": "#0"},
				"down": {"uv": [0, 0, 1, 1], "texture": "#0"}
			}
		},
		{
			"from": [4, 4, 10],
			"to": [5, 6, 12],
			"faces": {
				"north": {"uv": [0, 0, 1, 1], "texture": "#0", "rotation": 90},
				"east": {"uv": [0, 0, 1, 1], "texture": "#0", "rotation": 180},
				"south": {"uv": [11, 10, 12, 12], "texture": "#0"},
				"west": {"uv": [10, 10, 12, 12], "texture": "#0"},
				"up": {"uv": [0, 0, 1, 1], "texture": "#0", "rotation": 270},
				"down": {"uv": [10, 11, 12, 12], "texture": "#0", "rotation": 270}
			}
		},
		{
			"from": [3, 6, 10],
			"to": [4, 9, 12],
			"faces": {
				"north": {"uv": [0, 0, 1, 1], "texture": "#0", "rotation": 90},
				"east": {"uv": [0, 0, 1, 1], "texture": "#0", "rotation": 180},
				"south": {"uv": [11, 7, 12, 10], "texture": "#0"},
				"west": {"uv": [10, 7, 12, 10], "texture": "#0"},
				"up": {"uv": [10, 7, 12, 8], "texture": "#0", "rotation": 90},
				"down": {"uv": [10, 9, 12, 10], "texture": "#0", "rotation": 270}
			}
		},
		{
			"from": [4, 9, 10],
			"to": [5, 11, 12],
			"faces": {
				"north": {"uv": [0, 0, 1, 1], "texture": "#0", "rotation": 90},
				"east": {"uv": [0, 0, 1, 1], "texture": "#0", "rotation": 180},
				"south": {"uv": [11, 5, 12, 7], "texture": "#0"},
				"west": {"uv": [10, 5, 12, 7], "texture": "#0"},
				"up": {"uv": [10, 5, 12, 6], "texture": "#0", "rotation": 90},
				"down": {"uv": [0, 0, 1, 1], "texture": "#0", "rotation": 270}
			}
		},
		{
			"from": [3, 9, 7],
			"to": [4, 11, 10],
			"faces": {
				"north": {"uv": [5, 6, 6, 8], "texture": "#0"},
				"east": {"uv": [0, 0, 1, 1], "texture": "#0", "rotation": 180},
				"south": {"uv": [9, 5, 10, 7], "texture": "#0"},
				"west": {"uv": [7, 5, 10, 7], "texture": "#0"},
				"up": {"uv": [7, 5, 10, 6], "texture": "#0", "rotation": 90},
				"down": {"uv": [0, 0, 1, 1], "texture": "#0", "rotation": 270}
			}
		},
		{
			"from": [2, 6, 7],
			"to": [3, 9, 10],
			"faces": {
				"north": {"uv": [7, 7, 8, 10], "texture": "#0"},
				"east": {"uv": [0, 0, 1, 1], "texture": "#0", "rotation": 180},
				"south": {"uv": [9, 7, 10, 10], "texture": "#0"},
				"west": {"uv": [7, 7, 10, 10], "texture": "#0"},
				"up": {"uv": [7, 7, 10, 8], "texture": "#0", "rotation": 90},
				"down": {"uv": [7, 9, 10, 10], "texture": "#0", "rotation": 270}
			}
		},
		{
			"from": [3, 4, 7],
			"to": [4, 6, 10],
			"faces": {
				"north": {"uv": [7, 10, 8, 12], "texture": "#0"},
				"east": {"uv": [0, 0, 1, 1], "texture": "#0", "rotation": 180},
				"south": {"uv": [9, 10, 10, 12], "texture": "#0"},
				"west": {"uv": [7, 10, 10, 12], "texture": "#0"},
				"up": {"uv": [0, 0, 1, 1], "texture": "#0", "rotation": 270},
				"down": {"uv": [7, 11, 10, 12], "texture": "#0", "rotation": 270}
			}
		},
		{
			"from": [4, 4, 5],
			"to": [5, 6, 7],
			"faces": {
				"north": {"uv": [5, 10, 6, 12], "texture": "#0"},
				"east": {"uv": [0, 0, 1, 1], "texture": "#0", "rotation": 180},
				"south": {"uv": [0, 0, 1, 1], "texture": "#0", "rotation": 270},
				"west": {"uv": [5, 10, 7, 12], "texture": "#0"},
				"up": {"uv": [0, 0, 1, 1], "texture": "#0", "rotation": 270},
				"down": {"uv": [5, 11, 7, 12], "texture": "#0", "rotation": 270}
			}
		},
		{
			"from": [3, 6, 5],
			"to": [4, 9, 7],
			"faces": {
				"north": {"uv": [5, 7, 6, 10], "texture": "#0"},
				"east": {"uv": [0, 0, 1, 1], "texture": "#0", "rotation": 180},
				"south": {"uv": [0, 0, 1, 1], "texture": "#0", "rotation": 270},
				"west": {"uv": [5, 7, 7, 10], "texture": "#0"},
				"up": {"uv": [5, 7, 7, 8], "texture": "#0", "rotation": 90},
				"down": {"uv": [5, 9, 7, 10], "texture": "#0", "rotation": 270}
			}
		},
		{
			"from": [4, 9, 5],
			"to": [5, 11, 7],
			"faces": {
				"north": {"uv": [5, 5, 6, 7], "texture": "#0"},
				"east": {"uv": [0, 0, 1, 1], "texture": "#0", "rotation": 180},
				"south": {"uv": [0, 0, 1, 1], "texture": "#0", "rotation": 270},
				"west": {"uv": [5, 5, 7, 7], "texture": "#0"},
				"up": {"uv": [5, 5, 7, 6], "texture": "#0", "rotation": 90},
				"down": {"uv": [0, 0, 1, 1], "texture": "#0", "rotation": 270}
			}
		},
		{
			"from": [10, 3, 5],
			"to": [12, 4, 7],
			"faces": {
				"north": {"uv": [10, 11, 12, 12], "texture": "#0", "rotation": 180},
				"east": {"uv": [11, 10, 12, 12], "texture": "#0", "rotation": 270},
				"south": {"uv": [0, 0, 1, 1], "texture": "#0", "rotation": 180},
				"west": {"uv": [0, 0, 1, 1], "texture": "#0", "rotation": 180},
				"up": {"uv": [0, 0, 1, 1], "texture": "#0"},
				"down": {"uv": [10, 10, 12, 12], "texture": "#0"}
			}
		},
		{
			"from": [10, 2, 7],
			"to": [12, 3, 10],
			"faces": {
				"north": {"uv": [10, 9, 12, 10], "texture": "#0", "rotation": 180},
				"east": {"uv": [11, 7, 12, 10], "texture": "#0", "rotation": 270},
				"south": {"uv": [10, 7, 12, 8], "texture": "#0"},
				"west": {"uv": [0, 0, 1, 1], "texture": "#0", "rotation": 180},
				"up": {"uv": [0, 0, 1, 1], "texture": "#0"},
				"down": {"uv": [10, 7, 12, 10], "texture": "#0"}
			}
		},
		{
			"from": [10, 3, 10],
			"to": [12, 4, 12],
			"faces": {
				"north": {"uv": [0, 0, 1, 1], "texture": "#0", "rotation": 180},
				"east": {"uv": [11, 5, 12, 7], "texture": "#0", "rotation": 270},
				"south": {"uv": [10, 5, 12, 6], "texture": "#0"},
				"west": {"uv": [0, 0, 1, 1], "texture": "#0", "rotation": 180},
				"up": {"uv": [0, 0, 1, 1], "texture": "#0"},
				"down": {"uv": [10, 5, 12, 7], "texture": "#0"}
			}
		},
		{
			"from": [7, 2, 10],
			"to": [10, 3, 12],
			"faces": {
				"north": {"uv": [0, 0, 1, 1], "texture": "#0", "rotation": 180},
				"east": {"uv": [9, 5, 10, 7], "texture": "#0", "rotation": 270},
				"south": {"uv": [7, 5, 10, 6], "texture": "#0"},
				"west": {"uv": [5, 6, 6, 8], "texture": "#0", "rotation": 90},
				"up": {"uv": [0, 0, 1, 1], "texture": "#0"},
				"down": {"uv": [7, 5, 10, 7], "texture": "#0"}
			}
		},
		{
			"from": [7, 1, 7],
			"to": [10, 2, 10],
			"faces": {
				"north": {"uv": [7, 9, 10, 10], "texture": "#0", "rotation": 180},
				"east": {"uv": [9, 7, 10, 10], "texture": "#0", "rotation": 270},
				"south": {"uv": [7, 7, 10, 8], "texture": "#0"},
				"west": {"uv": [7, 7, 8, 10], "texture": "#0", "rotation": 90},
				"up": {"uv": [0, 0, 1, 1], "texture": "#0"},
				"down": {"uv": [7, 7, 10, 10], "texture": "#0"}
			}
		},
		{
			"from": [7, 2, 5],
			"to": [10, 3, 7],
			"faces": {
				"north": {"uv": [7, 11, 10, 12], "texture": "#0", "rotation": 180},
				"east": {"uv": [9, 10, 10, 12], "texture": "#0", "rotation": 270},
				"south": {"uv": [0, 0, 1, 1], "texture": "#0", "rotation": 180},
				"west": {"uv": [7, 10, 8, 12], "texture": "#0", "rotation": 90},
				"up": {"uv": [0, 0, 1, 1], "texture": "#0"},
				"down": {"uv": [7, 10, 10, 12], "texture": "#0"}
			}
		},
		{
			"from": [5, 3, 5],
			"to": [7, 4, 7],
			"faces": {
				"north": {"uv": [5, 11, 7, 12], "texture": "#0", "rotation": 180},
				"east": {"uv": [0, 0, 1, 1], "texture": "#0", "rotation": 180},
				"south": {"uv": [0, 0, 1, 1], "texture": "#0", "rotation": 180},
				"west": {"uv": [5, 10, 6, 12], "texture": "#0", "rotation": 90},
				"up": {"uv": [0, 0, 1, 1], "texture": "#0"},
				"down": {"uv": [5, 10, 7, 12], "texture": "#0"}
			}
		},
		{
			"from": [5, 2, 7],
			"to": [7, 3, 10],
			"faces": {
				"north": {"uv": [5, 9, 7, 10], "texture": "#0", "rotation": 180},
				"east": {"uv": [0, 0, 1, 1], "texture": "#0", "rotation": 180},
				"south": {"uv": [5, 7, 7, 8], "texture": "#0"},
				"west": {"uv": [5, 7, 6, 10], "texture": "#0", "rotation": 90},
				"up": {"uv": [0, 0, 1, 1], "texture": "#0"},
				"down": {"uv": [5, 7, 7, 10], "texture": "#0"}
			}
		},
		{
			"from": [5, 3, 10],
			"to": [7, 4, 12],
			"faces": {
				"north": {"uv": [0, 0, 1, 1], "texture": "#0", "rotation": 180},
				"east": {"uv": [0, 0, 1, 1], "texture": "#0", "rotation": 180},
				"south": {"uv": [5, 5, 7, 6], "texture": "#0"},
				"west": {"uv": [5, 5, 6, 7], "texture": "#0", "rotation": 90},
				"up": {"uv": [0, 0, 1, 1], "texture": "#0"},
				"down": {"uv": [5, 5, 7, 7], "texture": "#0"}
			}
		},
		{
			"from": [7, 3, 12],
			"to": [10, 4, 13],
			"faces": {
				"north": {"uv": [7, 12, 10, 13], "texture": "#0", "rotation": 180},
				"east": {"uv": [9, 12, 10, 13], "texture": "#0"},
				"south": {"uv": [7, 12, 10, 13], "texture": "#0"},
				"west": {"uv": [7, 12, 8, 13], "texture": "#0"},
				"up": {"uv": [7, 12, 10, 13], "texture": "#0"},
				"down": {"uv": [7, 12, 10, 13], "texture": "#0"}
			}
		},
		{
			"from": [7, 3, 4],
			"to": [10, 4, 5],
			"faces": {
				"north": {"uv": [7, 12, 10, 13], "texture": "#0", "rotation": 180},
				"east": {"uv": [9, 12, 10, 13], "texture": "#0"},
				"south": {"uv": [7, 12, 10, 13], "texture": "#0"},
				"west": {"uv": [7, 12, 8, 13], "texture": "#0"},
				"up": {"uv": [7, 12, 10, 13], "texture": "#0"},
				"down": {"uv": [7, 12, 10, 13], "texture": "#0"}
			}
		},
		{
			"from": [7, 11, 4],
			"to": [10, 12, 5],
			"faces": {
				"north": {"uv": [7, 12, 10, 13], "texture": "#0", "rotation": 180},
				"east": {"uv": [9, 12, 10, 13], "texture": "#0"},
				"south": {"uv": [7, 12, 10, 13], "texture": "#0"},
				"west": {"uv": [7, 12, 8, 13], "texture": "#0"},
				"up": {"uv": [7, 12, 10, 13], "texture": "#0"},
				"down": {"uv": [7, 12, 10, 13], "texture": "#0"}
			}
		},
		{
			"from": [7, 11, 12],
			"to": [10, 12, 13],
			"faces": {
				"north": {"uv": [7, 12, 10, 13], "texture": "#0", "rotation": 180},
				"east": {"uv": [9, 12, 10, 13], "texture": "#0"},
				"south": {"uv": [7, 12, 10, 13], "texture": "#0"},
				"west": {"uv": [7, 12, 8, 13], "texture": "#0"},
				"up": {"uv": [7, 12, 10, 13], "texture": "#0"},
				"down": {"uv": [7, 12, 10, 13], "texture": "#0"}
			}
		},
		{
			"from": [4, 6, 4],
			"to": [5, 9, 5],
			"faces": {
				"north": {"uv": [12, 7, 13, 10], "texture": "#0", "rotation": 180},
				"east": {"uv": [12, 7, 13, 10], "texture": "#0"},
				"south": {"uv": [12, 7, 13, 10], "texture": "#0"},
				"west": {"uv": [12, 7, 13, 10], "texture": "#0"},
				"up": {"uv": [12, 7, 13, 8], "texture": "#0"},
				"down": {"uv": [12, 9, 13, 10], "texture": "#0"}
			}
		},
		{
			"from": [12, 6, 4],
			"to": [13, 9, 5],
			"faces": {
				"north": {"uv": [12, 7, 13, 10], "texture": "#0", "rotation": 180},
				"east": {"uv": [12, 7, 13, 10], "texture": "#0"},
				"south": {"uv": [12, 7, 13, 10], "texture": "#0"},
				"west": {"uv": [12, 7, 13, 10], "texture": "#0"},
				"up": {"uv": [12, 7, 13, 8], "texture": "#0"},
				"down": {"uv": [12, 9, 13, 10], "texture": "#0"}
			}
		},
		{
			"from": [12, 6, 12],
			"to": [13, 9, 13],
			"faces": {
				"north": {"uv": [12, 7, 13, 10], "texture": "#0", "rotation": 180},
				"east": {"uv": [12, 7, 13, 10], "texture": "#0"},
				"south": {"uv": [12, 7, 13, 10], "texture": "#0"},
				"west": {"uv": [12, 7, 13, 10], "texture": "#0"},
				"up": {"uv": [12, 7, 13, 8], "texture": "#0"},
				"down": {"uv": [12, 9, 13, 10], "texture": "#0"}
			}
		},
		{
			"from": [4, 6, 12],
			"to": [5, 9, 13],
			"faces": {
				"north": {"uv": [12, 7, 13, 10], "texture": "#0", "rotation": 180},
				"east": {"uv": [12, 7, 13, 10], "texture": "#0"},
				"south": {"uv": [12, 7, 13, 10], "texture": "#0"},
				"west": {"uv": [12, 7, 13, 10], "texture": "#0"},
				"up": {"uv": [12, 7, 13, 8], "texture": "#0"},
				"down": {"uv": [12, 9, 13, 10], "texture": "#0"}
			}
		},
		{
			"from": [12, 11, 7],
			"to": [13, 12, 10],
			"faces": {
				"north": {"uv": [7, 4, 8, 5], "texture": "#0"},
				"east": {"uv": [7, 4, 10, 5], "texture": "#0", "rotation": 180},
				"south": {"uv": [9, 4, 10, 5], "texture": "#0"},
				"west": {"uv": [7, 4, 10, 5], "texture": "#0"},
				"up": {"uv": [7, 4, 10, 5], "texture": "#0", "rotation": 90},
				"down": {"uv": [7, 4, 10, 5], "texture": "#0", "rotation": 270}
			}
		},
		{
			"from": [12, 3, 7],
			"to": [13, 4, 10],
			"faces": {
				"north": {"uv": [7, 4, 8, 5], "texture": "#0"},
				"east": {"uv": [7, 4, 10, 5], "texture": "#0", "rotation": 180},
				"south": {"uv": [9, 4, 10, 5], "texture": "#0"},
				"west": {"uv": [7, 4, 10, 5], "texture": "#0"},
				"up": {"uv": [7, 4, 10, 5], "texture": "#0", "rotation": 90},
				"down": {"uv": [7, 4, 10, 5], "texture": "#0", "rotation": 270}
			}
		},
		{
			"from": [4, 3, 7],
			"to": [5, 4, 10],
			"faces": {
				"north": {"uv": [7, 4, 8, 5], "texture": "#0"},
				"east": {"uv": [7, 4, 10, 5], "texture": "#0", "rotation": 180},
				"south": {"uv": [9, 4, 10, 5], "texture": "#0"},
				"west": {"uv": [7, 4, 10, 5], "texture": "#0"},
				"up": {"uv": [7, 4, 10, 5], "texture": "#0", "rotation": 90},
				"down": {"uv": [7, 4, 10, 5], "texture": "#0", "rotation": 270}
			}
		},
		{
			"from": [4, 11, 7],
			"to": [5, 12, 10],
			"faces": {
				"north": {"uv": [7, 4, 8, 5], "texture": "#0"},
				"east": {"uv": [7, 4, 10, 5], "texture": "#0", "rotation": 180},
				"south": {"uv": [9, 4, 10, 5], "texture": "#0"},
				"west": {"uv": [7, 4, 10, 5], "texture": "#0"},
				"up": {"uv": [7, 4, 10, 5], "texture": "#0", "rotation": 90},
				"down": {"uv": [7, 4, 10, 5], "texture": "#0", "rotation": 270}
			}
		}
	],
	"groups": [
		{
			"name": "T",
			"isOpen": false,
			"shade": true,
			"display": {
				"visibility": true,
				"autouv": true
			},
			"children": [0, 1, 2, 3, 4, 5, 6, 7, 8]
		},
		{
			"name": "N",
			"shade": true,
			"display": {
				"visibility": true,
				"autouv": true
			},
			"children": [9, 10, 11, 12, 13, 14, 15, 16, 17]
		},
		{
			"name": "E",
			"shade": true,
			"display": {
				"visibility": true,
				"autouv": true
			},
			"children": [18, 19, 20, 21, 22, 23, 24, 25, 26]
		},
		{
			"name": "S",
			"isOpen": false,
			"shade": true,
			"display": {
				"visibility": true,
				"autouv": true
			},
			"children": [27, 28, 29, 30, 31, 32, 33, 34, 35]
		},
		{
			"name": "W",
			"isOpen": false,
			"shade": true,
			"display": {
				"visibility": true,
				"autouv": true
			},
			"children": [36, 37, 38, 39, 40, 41, 42, 43, 44]
		},
		{
			"name": "B",
			"isOpen": false,
			"shade": true,
			"display": {
				"visibility": true,
				"autouv": true
			},
			"children": [45, 46, 47, 48, 49, 50, 51, 52, 53]
		},
		{
			"name": "X",
			"isOpen": false,
			"shade": true,
			"display": {
				"visibility": true,
				"autouv": true
			},
			"children": [54, 55, 56, 57]
		},
		{
			"name": "Y",
			"isOpen": false,
			"shade": true,
			"display": {
				"visibility": true,
				"autouv": true
			},
			"children": [58, 59, 60, 61]
		},
		{
			"name": "Z",
			"isOpen": true,
			"shade": true,
			"display": {
				"visibility": true,
				"autouv": true
			},
			"children": [62, 63, 64, 65]
		}
	]
}