{
  "type":"crafting_shapeless",
  "group":"dyeing",

  "ingredients":
  [
    {"tag":"glass_pane_colors:not_lime"},
    {"tag":"dyes:lime"}

  ],
  "result": {"item": "minecraft:lime_stained_glass_pane"}
}
