{
    "type": "crafting_shaped",
	"group": "arrow",
    "pattern": [
        " ^ ",
        " / ",
        " f "
    ],
    "key": {
		"^": {
            "item": "minecraft:flint"
        },
		"/": {
            "item": "minecraft:stick"
        },
		"f": {
            "item": "minecraft:feather"
        }
    },
    "result": {
        "item": "minecraft:arrow",
        "count": 4
    }
}