{
    "type": "crafting_shaped",
	"group": "bucket",
    "pattern": [
        "   ",
        "B B",
        " B "
    ],
    "key": {
	"B": {
            "item": "minecraft:iron_block"
        }
    },
    "result": {
        "item": "minecraft:bucket",
        "count": 9
    }
}