{
    "type": "crafting_shaped",
    "pattern": [
        "BBB",
        "s0s",
        "www"
    ],
    "key": {
		"B": {
            "item": "minecraft:milk_bucket"
        },
        "s": {
            "tag": "paint:sugar_and_sugar_cane"
        },
		"0": {
            "item": "minecraft:egg"
        },
		"w": {
            "item": "minecraft:wheat"
        }
    },
    "result": {
        "item": "minecraft:cake",
        "count": 1
    }
}