{
    "type": "crafting_shaped",
	"group": "composter",
    "pattern": [
        "S S",
        "S S",
        "SSS"
    ],
    "key": {
        "S": {
            "tag": "minecraft:wooden_slabs"
        }
    },
    "result": {
        "item": "minecraft:composter",
        "count": 1
    }
}