{
    "type": "crafting_shaped",
	"group": "dark_prismarine_slab",
    "pattern": [
        "PPP",
        "ddd",
        "PPP"
    ],
    "key": {
        "P": {
            "item": "minecraft:prismarine"
        },
		"d": {
            "tag": "paint:subs_for_black_dye"
        }
    },
    "result": {
        "item": "minecraft:dark_prismarine_slab",
        "count": 6
    }
}