{
    "type": "crafting_shapeless",
	"group": "fire_charge",
    "ingredients": [
        {
            "item": "minecraft:gunpowder"
        },
		{
            "item": "minecraft:gunpowder"
        },
		{
            "tag": "minecraft:coals"
        },
		{
            "tag": "minecraft:coals"
        },
		{
            "item": "blaze_rod"
        }
    ],
    "result": {
        "item": "minecraft:fire_charge",
        "count": 2
    }
}