{
    "type": "crafting_shapeless",
	"group": "gray_dye",
    "ingredients": [
        {
            "item": "minecraft:bone"
        },
        {
            "tag": "paint:subs_for_black_dye"
        },
	{
            "tag": "paint:subs_for_black_dye"
        },
	{
            "tag": "paint:subs_for_black_dye"
        }
    ],
    "result": {
        "item": "minecraft:gray_dye",
        "count": 6
    }
}