{
    "type": "crafting_shaped",
	"group": "shulker_box",
    "pattern": [
        " s ",
        " C ",
        " sd"
    ],
    "key": {
        "s": {
            "item": "minecraft:shulker_shell"
        },
		"C": {
            "tag": "paint:wooden_chests"
        },
		"d": {
            "tag": "paint:subs_for_green_dye"
        }
    },
    "result": {
        "item": "minecraft:green_shulker_box",
        "count": 1
    }
}