{
    "type": "crafting_shaped",
	"group": "iron_trapdoor",
    "pattern": [
        "II ",
        "II ",
        "   "
    ],
    "key": {
		"I": {
            "item": "minecraft:iron_block"
        }
    },
    "result": {
        "item": "minecraft:iron_trapdoor",
        "count": 9
    }
}