{
    "type": "crafting_shaped",
	"group": "iron_pickaxe",
    "pattern": [
        "iii",
        " P ",
        "   "
    ],
    "key": {
		"i": {
            "item": "minecraft:iron_ingot"
        },
		"P": {
            "tag": "minecraft:planks"
        }
    },
    "result": {
        "item": "minecraft:iron_pickaxe",
        "count": 1
    }
}