{
    "type": "crafting_shaped",
	"group": "lectern",
    "pattern": [
        "sss",
        " B ",
        " s "
    ],
    "key": {
        "s": {
            "tag": "minecraft:wooden_slabs"
        },
		"B": {
            "item": "minecraft:bookshelf"
        }
    },
    "result": {
        "item": "minecraft:lectern",
        "count": 1
    }
}