{
    "type": "crafting_shapeless",
	"group": "beds",
    "ingredients": [
        {
            "tag": "paint:beds_except_lime"
        },
        {
            "tag": "paint:subs_for_lime_dye"
        }
    ],
    "result": {
        "item": "minecraft:lime_bed",
        "count": 1
    }
}