{
    "type": "crafting_shaped",
	"group": "mossy_cobblestone_stairs",
    "pattern": [
        "B  ",
        "BB ",
        "BBB"
    ],
    "key": {
		"B": {
            "item": "minecraft:mossy_cobblestone"
        }
    },
    "result": {
        "item": "minecraft:mossy_cobblestone_stairs",
        "count": 4
    }
}