{
    "type": "crafting_shaped",
	"group": "polished_diorite_slab",
    "pattern": [
        "   ",
        "   ",
        "BBB"
    ],
    "key": {
		"B": {
            "item": "minecraft:polished_diorite"
        }
    },
    "result": {
        "item": "minecraft:polished_diorite_slab",
        "count": 6
    }
}