{
    "type": "stonecutting",
	"group": "prismarine_slab",
    "ingredient":
        {
            "item": "minecraft:prismarine_stairs"
        },
    "result": "minecraft:prismarine_slab",
	"count": 1
}