{
    "type": "crafting_shapeless",
	"group": "concrete_powder",
    "ingredients": [
        {
            "item": "minecraft:gravel"
        },
		{
            "item": "minecraft:gravel"
        },
		{
            "item": "minecraft:gravel"
        },
		{
            "item": "minecraft:gravel"
        },
		{
            "tag": "minecraft:sand"
        },
		{
            "tag": "minecraft:sand"
        },
		{
            "tag": "minecraft:sand"
        },
		{
            "tag": "minecraft:sand"
        },
        {
            "tag": "paint:subs_for_purple_dye"
        }
    ],
    "result": {
        "item": "minecraft:purple_concrete_powder",
        "count": 8
    }
}