{
    "type": "crafting_shapeless",
	"group": "rabbit_stew",
    "ingredients": [
        {
            "item": "minecraft:bowl"
        },
		{
            "item": "minecraft:cooked_rabbit"
        },
		{
            "item": "minecraft:baked_potato"
        },
		{
            "item": "minecraft:carrot"
        },
		{
            "tag": "paint:mushrooms"
        }
    ],
    "result": {
        "item": "minecraft:rabbit_stew",
		"count": 1
    }
}