{
    "type": "stonecutting",
	"group": "red_sandstone_slab",
    "ingredient":
        {
            "item": "minecraft:red_sandstone_stairs"
        },
    "result": "minecraft:red_sandstone_slab",
	"count": 1
}