{
    "type": "crafting_shapeless",
	"group": "redstone_torch",
    "ingredients": [
        {
            "item": "minecraft:redstone"
        },
		{
            "item": "minecraft:bamboo"
        },
		{
            "item": "minecraft:bamboo"
        }
    ],
    "result": {
        "item": "minecraft:redstone_torch",
        "count": 1
    }
}