{
    "type": "crafting_shaped",
	"group": "repeater",
    "pattern": [
        "r r",
        " rP",
        "SSS"
    ],
    "key": {
		"P": {
            "tag": "minecraft:planks"
        },
		"r": {
            "item": "minecraft:redstone"
        },
		"S": {
            "item": "minecraft:stone"
        }
    },
    "result": {
        "item": "minecraft:repeater",
        "count": 1
    }
}