{
    "type": "crafting_shaped",
	"group": "wooden_trapdoor",
    "pattern": [
        "   ",
        "LLL",
        "LLL"
    ],
    "key": {
		"L": {
            "tag": "minecraft:spruce_logs"
        }
    },
    "result": {
        "item": "minecraft:spruce_trapdoor",
        "count": 8
    }
}