{
    "type": "crafting_shaped",
	"group": "wood",
    "pattern": [
        " L ",
        "L L",
        " L "
    ],
    "key": {
        "L": {
            "item": "minecraft:stripped_jungle_log"
        }
    },
    "result": {
        "item": "minecraft:stripped_jungle_wood",
        "count": 3
    }
}