{
    "type": "crafting_shaped",
	"group": "trapped_chest",
    "pattern": [
        "PPP",
        "PJP",
        "PPP"
    ],
    "key": {
		"J": {
            "item": "minecraft:tripwire_hook"
        },
        "P": {
            "tag": "minecraft:planks"
        }
    },
    "result": {
        "item": "minecraft:trapped_chest",
        "count": 1
    }
}