{
    "type": "crafting_shaped",
	"group": "tripwire_hook",
    "pattern": [
        " I ",
        "///",
        "LLL"
    ],
    "key": {
		"/": {
            "item": "minecraft:stick"
        },
		"I": {
            "item": "minecraft:iron_block"
        },
        "L": {
            "tag": "minecraft:logs"
        }
    },
    "result": {
        "item": "minecraft:tripwire_hook",
        "count": 18
    }
}