{
  "type": "minecraft:crafting_shaped",
  "group": "pressure_plate",
  "pattern":
  [
    "##"
  ],
  "key": {
    "#": {"item": "acacia_slab"}
  },
  "result": {
    "item": "minecraft:acacia_pressure_plate"

  }
}
