{
    "pools": [
        {
            "rolls": 1,
            "entries": [
                {
                    "type": "item",
                    "weight": 1,
                    "name": "minecraft:carrot_on_a_stick",
                    "functions": [
                      {
                         "function":"set_lore",
                         "lore": [
                           {"translate":"tcc.lore.tipping_durability","with":[{"nbt":"Inventory[{Slot:-106b}].tag.tcc.Durability","entity":"@s"},"50"]}
                         ],
                         "entity": "this"
                      },
                      {
                         "function": "copy_nbt",
                         "source": "this",
                         "ops": [
                             {
                                 "source": "Inventory[{Slot:-106b}].tag.Enchantments",
                                 "target": "Enchantments",
                                 "op": "replace"
                             },
                             {
                                 "source": "Inventory[{Slot:-106b}].tag.tcc",
                                 "target": "tcc",
                                 "op": "replace"
                             },
                             {
                                 "source": "Inventory[{Slot:-106b}].tag.display.Name",
                                 "target": "display.Name",
                                 "op": "replace"
                             },
                             {
                                 "source": "Inventory[{Slot:-106b}].tag.Damage",
                                 "target": "Damage",
                                 "op": "replace"
                             },
                             {
                                 "source": "Inventory[{Slot:-106b}].tag.Unbreakable",
                                 "target": "Unbreakable",
                                 "op": "replace"
                             },
                             {
                                 "source": "Inventory[{Slot:-106b}].tag.HideFlags",
                                 "target": "HideFlags",
                                 "op": "replace"
                             },
                             {
                                 "source": "Inventory[{Slot:-106b}].tag.AttributeModifiers",
                                 "target": "AttributeModifiers",
                                 "op": "replace"
                             },
                             {
                                 "source": "Inventory[{Slot:-106b}].tag.CustomModelData",
                                 "target": "CustomModelData",
                                 "op": "replace"
                             },
                             {
                                 "source": "Inventory[{Slot:-106b}].tag.display.Lore",
                                 "target": "tcc_storage.Lore",
                                 "op": "replace"
                             }
                         ]
                      }
                  ]
              }
          ]
      }
   ]
}
