{
    "parent": "item/generated",
    "textures": {
        "layer0": "item/trident"
    },
    "overrides": [
        {
            "predicate": {
                "damaged": 1,
                "damage": 0.5
            },
            "model": "item/trident/trident_1"
        },
        {
            "predicate": {
                "damaged": 1,
                "damage": 0.7
            },
            "model": "item/trident/trident_2"
        },
        {
            "predicate": {
                "damaged": 1,
                "damage": 0.84
            },
            "model": "item/trident/trident_3"
        },
        {
            "predicate": {
                "damaged": 1,
                "damage": 0.96
            },
            "model": "item/trident/trident_3"

        }
    ]
}