{
	"parent": "block/block", 
	"credit": "Made with Blockbench",
	"ambientocclusion": false,
	"textures": {
		"4": "block/oak_leaves/leaves_oak_05",
		"5": "block/oak_leaves/leaves_oak_06",
		"main": "block/oak_leaves/leaves_oak_01",
		"particle": "block/oak_leaves/leaves_oak_01"
	},
	"elements": [
		{
			"from": [2, 8, 0],
			"to": [24, 8, 22],
			"shade": false,
			"rotation": {"angle": -45, "axis": "z", "origin": [8, 6, 8]},
			"faces": {
				"north": {"uv": [0, 0, 0, 0], "texture": "null"},
				"east": {"uv": [0, 0, 0, 0], "rotation": 180, "texture": "null"},
				"south": {"uv": [0, 0, 0, 0], "texture": "null"},
				"west": {"uv": [0, 0, 0, 0], "rotation": 180, "texture": "null"},
				"up": {"uv": [0, 0, 16, 16], "rotation": 90, "texture": "#4", "tintindex": -1},
				"down": {"uv": [0, 16, 16, 0], "rotation": 270, "texture": "#4", "tintindex": -1}
			}
		},
		{
			"from": [-8, 8, -6],
			"to": [14, 8, 16],
			"shade": false,
			"rotation": {"angle": 45, "axis": "z", "origin": [8, 6, 8]},
			"faces": {
				"north": {"uv": [0, 0, 0, 0], "texture": "null"},
				"east": {"uv": [0, 0, 0, 0], "rotation": 180, "texture": "null"},
				"south": {"uv": [0, 0, 0, 0], "texture": "null"},
				"west": {"uv": [0, 0, 0, 0], "rotation": 180, "texture": "null"},
				"up": {"uv": [0, 0, 16, 16], "rotation": 270, "texture": "#4", "tintindex": -1},
				"down": {"uv": [0, 16, 16, 0], "rotation": 90, "texture": "#4", "tintindex": -1}
			}
		},
		{
			"from": [-6, 8, 2],
			"to": [16, 8, 24],
			"shade": false,
			"rotation": {"angle": 45, "axis": "x", "origin": [8, 6, 8]},
			"faces": {
				"north": {"uv": [0, 0, 0, 0], "rotation": 180, "texture": "null"},
				"east": {"uv": [0, 0, 0, 0], "texture": "null"},
				"south": {"uv": [0, 0, 0, 0], "rotation": 180, "texture": "null"},
				"west": {"uv": [0, 0, 0, 0], "texture": "null"},
				"up": {"uv": [0, 0, 16, 16], "rotation": 180, "texture": "#4", "tintindex": -1},
				"down": {"uv": [0, 16, 16, 0], "rotation": 180, "texture": "#4", "tintindex": -1}
			}
		},
		{
			"from": [0, 8, -8],
			"to": [22, 8, 14],
			"shade": false,
			"rotation": {"angle": -45, "axis": "x", "origin": [8, 6, 8]},
			"faces": {
				"north": {"uv": [0, 0, 0, 0], "rotation": 180, "texture": "null"},
				"east": {"uv": [0, 0, 0, 0], "texture": "null"},
				"south": {"uv": [0, 0, 0, 0], "rotation": 180, "texture": "null"},
				"west": {"uv": [0, 0, 0, 0], "texture": "null"},
				"up": {"uv": [0, 0, 16, 16], "texture": "#4", "tintindex": -1},
				"down": {"uv": [0, 16, 16, 0], "texture": "#4", "tintindex": -1}
			}
		},
		{
			"from": [-12, 18, -3],
			"to": [10, 18, 19],
			"shade": false,
			"rotation": {"angle": 45, "axis": "z", "origin": [8, 16, 8]},
			"faces": {
				"north": {"uv": [0, 0, 0, 0], "texture": "null"},
				"east": {"uv": [0, 0, 0, 0], "rotation": 180, "texture": "null"},
				"south": {"uv": [0, 0, 0, 0], "texture": "null"},
				"west": {"uv": [0, 0, 0, 0], "rotation": 180, "texture": "null"},
				"up": {"uv": [0, 0, 16, 16], "rotation": 270, "texture": "#5", "tintindex": -1},
				"down": {"uv": [0, 16, 16, 0], "rotation": 90, "texture": "#5", "tintindex": -1}
			}
		},
		{
			"from": [-3, -4, 6],
			"to": [19, 18, 6],
			"shade": false,
			"rotation": {"angle": 45, "axis": "x", "origin": [8, 16, 8]},
			"faces": {
				"north": {"uv": [0, 0, 16, 16], "rotation": 180, "texture": "#5", "tintindex": -1},
				"east": {"uv": [0, 0, 0, 0], "rotation": 90, "texture": "null"},
				"south": {"uv": [0, 16, 16, 0], "texture": "#5", "tintindex": -1},
				"west": {"uv": [0, 0, 0, 0], "rotation": 270, "texture": "null"},
				"up": {"uv": [0, 0, 0, 0], "rotation": 180, "texture": "null"},
				"down": {"uv": [0, 0, 0, 0], "texture": "null"}
			}
		},
		{
			"from": [6, 18, -3],
			"to": [28, 18, 19],
			"shade": false,
			"rotation": {"angle": -45, "axis": "z", "origin": [8, 16, 8]},
			"faces": {
				"north": {"uv": [0, 0, 0, 0], "texture": "null"},
				"east": {"uv": [0, 0, 0, 0], "texture": "null"},
				"south": {"uv": [0, 0, 0, 0], "texture": "null"},
				"west": {"uv": [0, 0, 0, 0], "texture": "null"},
				"up": {"uv": [0, 0, 16, 16], "rotation": 90, "texture": "#5", "tintindex": -1},
				"down": {"uv": [0, 16, 16, 0], "rotation": 270, "texture": "#5", "tintindex": -1}
			}
		},
		{
			"from": [-3, 18, 6],
			"to": [19, 18, 28],
			"shade": false,
			"rotation": {"angle": 45, "axis": "x", "origin": [8, 16, 8]},
			"faces": {
				"north": {"uv": [0, 0, 0, 0], "rotation": 180, "texture": "null"},
				"east": {"uv": [0, 0, 0, 0], "texture": "null"},
				"south": {"uv": [0, 0, 0, 0], "rotation": 180, "texture": "null"},
				"west": {"uv": [0, 0, 0, 0], "texture": "null"},
				"up": {"uv": [0, 0, 16, 16], "rotation": 180, "texture": "#5", "tintindex": -1},
				"down": {"uv": [0, 16, 16, 0], "rotation": 180, "texture": "#5", "tintindex": -1}
			}
		},
		{
			"from": [2, 9, -6],
			"to": [24, 9, 16],
			"shade": false,
			"rotation": {"angle": 45, "axis": "z", "origin": [8, 8, 8]},
			"faces": {
				"north": {"uv": [0, 0, 0, 0], "rotation": 180, "texture": "null"},
				"east": {"uv": [0, 0, 0, 0], "texture": "null"},
				"south": {"uv": [0, 0, 0, 0], "rotation": 180, "texture": "null"},
				"west": {"uv": [0, 0, 0, 0], "texture": "null"},
				"up": {"uv": [0, 0, 16, 16], "texture": "#main", "tintindex": -1},
				"down": {"uv": [0, 16, 16, 0], "texture": "#main", "tintindex": -1}
			}
		},
		{
			"from": [-6, 9, -8],
			"to": [16, 9, 14],
			"shade": false,
			"rotation": {"angle": 45, "axis": "x", "origin": [8, 8, 8]},
			"faces": {
				"north": {"uv": [0, 0, 0, 0], "texture": "null"},
				"east": {"uv": [0, 0, 0, 0], "rotation": 180, "texture": "null"},
				"south": {"uv": [0, 0, 0, 0], "texture": "null"},
				"west": {"uv": [0, 0, 0, 0], "rotation": 180, "texture": "null"},
				"up": {"uv": [0, 0, 16, 16], "rotation": 270, "texture": "#main", "tintindex": -1},
				"down": {"uv": [0, 16, 16, 0], "rotation": 90, "texture": "#main", "tintindex": -1}
			}
		},
		{
			"from": [-8, 9, 0],
			"to": [14, 9, 22],
			"shade": false,
			"rotation": {"angle": -45, "axis": "z", "origin": [8, 8, 8]},
			"faces": {
				"north": {"uv": [0, 0, 0, 0], "rotation": 180, "texture": "null"},
				"east": {"uv": [0, 0, 0, 0], "texture": "null"},
				"south": {"uv": [0, 0, 0, 0], "rotation": 180, "texture": "null"},
				"west": {"uv": [0, 0, 0, 0], "texture": "null"},
				"up": {"uv": [0, 0, 16, 16], "rotation": 180, "texture": "#main", "tintindex": -1},
				"down": {"uv": [0, 16, 16, 0], "rotation": 180, "texture": "#main", "tintindex": -1}
			}
		},
		{
			"from": [0, 9, 2],
			"to": [22, 9, 24],
			"shade": false,
			"rotation": {"angle": -45, "axis": "x", "origin": [8, 8, 8]},
			"faces": {
				"north": {"uv": [0, 0, 0, 0], "texture": "null"},
				"east": {"uv": [0, 0, 0, 0], "texture": "null"},
				"south": {"uv": [0, 0, 0, 0], "texture": "null"},
				"west": {"uv": [0, 0, 0, 0], "texture": "null"},
				"up": {"uv": [0, 0, 16, 16], "rotation": 90, "texture": "#main", "tintindex": -1},
				"down": {"uv": [0, 16, 16, 0], "rotation": 270, "texture": "#main", "tintindex": -1}
			}
		}
	]
}