{
	"parent": "block/block", 
	"ambientocclusion": false,
	"credit": "Made with Blockbench, a free, modern block model editor by JannisX11",
	"textures": {
		"main": "block/spruce_leaves/leaves_spruce_01",
		"particle": "block/spruce_leaves/leaves_spruce_01"
	},
	"elements": [
		{
			"name": "cube",
			"from": [-4, 12, -4],
			"to": [20, 12, 20],
			"shade": false,
			"faces": {
				"up": {
					"uv": [0, 0, 16, 16],
					"texture": "#main",
					"rotation": 90,
					"tintindex": -1
				},
				"down": {
					"uv": [16, 0, 0, 16],
					"texture": "#main",
					"rotation": 90,
					"tintindex": -1
				}
			},
			"rotation": {
				"origin": [8, 1, 8],
				"axis": "z",
				"angle": 22.5,
				"rescale": true
			},
			"type": "cube"
		},
		{
			"name": "cube",
			"from": [-4, 12, -4],
			"to": [20, 12, 20],
			"shade": false,
			"faces": {
				"up": {
					"uv": [0, 0, 16, 16],
					"texture": "#main",
					"rotation": 270,
					"tintindex": -1
				},
				"down": {
					"uv": [16, 0, 0, 16],
					"texture": "#main",
					"rotation": 270,
					"tintindex": -1
				}
			},
			"rotation": {
				"origin": [8, 0, 8],
				"axis": "z",
				"angle": -22.5,
				"rescale": true
			},
			"type": "cube"
		},
		{
			"name": "cube",
			"from": [-4, 12, -4],
			"to": [20, 12, 20],
			"shade": false,
			"faces": {
				"north": {
					"uv": [0, 0, 16, 16],
					"texture": "#main",
					"rotation": 90,
					"tintindex": -1
				},
				"east": {
					"uv": [0, 0, 16, 16],
					"texture": "#main",
					"rotation": 90,
					"tintindex": -1
				},
				"south": {
					"uv": [0, 0, 16, 16],
					"texture": "#main",
					"rotation": 90,
					"tintindex": -1
				},
				"west": {
					"uv": [0, 0, 16, 16],
					"texture": "#main",
					"rotation": 90,
					"tintindex": -1
				},
				"up": {
					"uv": [0, 0, 16, 16],
					"texture": "#main",
					"rotation": 90,
					"tintindex": -1
				},
				"down": {
					"uv": [0, 16, 16, 0],
					"texture": "#main",
					"rotation": 270,
					"tintindex": -1
				}
			},
			"rotation": {
				"origin": [8, 1, 8],
				"axis": "x",
				"angle": 22.5,
				"rescale": true
			},
			"type": "cube"
		},
		{
			"name": "cube",
			"from": [-4, 12, -4],
			"to": [20, 12, 20],
			"shade": false,
			"faces": {
				"up": {
					"uv": [0, 0, 16, 16],
					"texture": "#main",
					"rotation": 90,
					"tintindex": -1
				},
				"down": {
					"uv": [0, 16, 16, 0],
					"texture": "#main",
					"rotation": 270,
					"tintindex": -1
				}
			},
			"rotation": {
				"origin": [8, 2, 8],
				"axis": "x",
				"angle": -22.5,
				"rescale": true
			},
			"type": "cube"
		},
		{
			"name": "cube",
			"from": [-5, 7, -4],
			"to": [13, 7, 20],
			"shade": false,
			"faces": {
				"up": {
					"uv": [0, 0, 16, 16],
					"texture": "#main",
					"tintindex": -1
				},
				"down": {
					"uv": [0, 16, 16, 0],
					"texture": "#main",
					"tintindex": -1
				}
			},
			"rotation": {
				"origin": [7, 5, 8],
				"axis": "z",
				"angle": 45,
				"rescale": true
			},
			"type": "cube"
		},
		{
			"name": "cube",
			"from": [0, 1, -4],
			"to": [18, 1, 20],
			"shade": false,
			"faces": {
				"up": {
					"uv": [0, 0, 16, 16],
					"texture": "#main",
					"tintindex": -1
				},
				"down": {
					"uv": [0, 16, 16, 0],
					"texture": "#main",
					"tintindex": -1
				}
			},
			"rotation": {
				"origin": [12, -4, 8],
				"axis": "z",
				"angle": -45,
				"rescale": true
			},
			"type": "cube"
		},
		{
			"name": "cube",
			"from": [-4, 7, -2],
			"to": [20, 7, 16],
			"shade": false,
			"faces": {
				"up": {
					"uv": [0, 0, 16, 16],
					"texture": "#main",
					"tintindex": -1
				},
				"down": {
					"uv": [16, 0, 0, 16],
					"texture": "#main",
					"rotation": 180,
					"tintindex": -1
				}
			},
			"rotation": {
				"origin": [8, 2, 10],
				"axis": "x",
				"angle": -45,
				"rescale": true
			},
			"type": "cube"
		},
		{
			"name": "cube",
			"from": [-4, 1, 1],
			"to": [20, 1, 19],
			"shade": false,
			"faces": {
				"up": {
					"uv": [0, 0, 16, 16],
					"texture": "#main",
					"rotation": 270,
					"tintindex": -1
				},
				"down": {
					"uv": [16, 0, 0, 16],
					"texture": "#main",
					"rotation": 270,
					"tintindex": -1
				}
			},
			"rotation": {
				"origin": [8, -3, 13],
				"axis": "x",
				"angle": 45,
				"rescale": true
			},
			"type": "cube"
		},
		{
			"name": "cube",
			"from": [3, -1, -4],
			"to": [3, 17, 20],
			"shade": false,
			"faces": {
				"east": {
					"uv": [0, 16, 16, 0],
					"texture": "#main",
					"rotation": 90,
					"tintindex": -1
				},
				"west": {
					"uv": [0, 0, 16, 16],
					"texture": "#main",
					"rotation": 90,
					"tintindex": -1
				}
			},
			"rotation": {
				"origin": [5, 11, 8],
				"axis": "z",
				"angle": -45,
				"rescale": true
			},
			"type": "cube"
		},
		{
			"name": "cube",
			"from": [-4, -1, 3],
			"to": [20, 17, 3],
			"shade": false,
			"faces": {
				"north": {
					"uv": [0, 0, 16, 16],
					"texture": "#main",
					"rotation": 90,
					"tintindex": -1
				},
				"south": {
					"uv": [0, 16, 16, 0],
					"texture": "#main",
					"rotation": 90,
					"tintindex": -1
				}
			},
			"rotation": {
				"origin": [8, 11, 5],
				"axis": "x",
				"angle": 45,
				"rescale": true
			},
			"type": "cube"
		},
		{
			"name": "cube",
			"from": [13, -1, -4],
			"to": [13, 17, 20],
			"shade": false,
			"faces": {
				"east": {
					"uv": [0, 0, 16, 16],
					"texture": "#main",
					"rotation": 180,
					"tintindex": -1
				},
				"west": {
					"uv": [0, 16, 16, 0],
					"texture": "#main",
					"tintindex": -1
				}
			},
			"rotation": {
				"origin": [11, 11, 8],
				"axis": "z",
				"angle": 45,
				"rescale": true
			},
			"type": "cube"
		},
		{
			"name": "cube",
			"from": [-4, -1, 13],
			"to": [20, 17, 13],
			"shade": false,
			"faces": {
				"north": {
					"uv": [0, 16, 16, 0],
					"texture": "#main",
					"tintindex": -1
				},
				"south": {
					"uv": [0, 0, 16, 16],
					"texture": "#main",
					"rotation": 180,
					"tintindex": -1
				}
			},
			"rotation": {
				"origin": [8, 11, 11],
				"axis": "x",
				"angle": -45,
				"rescale": true
			},
			"type": "cube"
		}
	]
}