{
    "__comment": "Model generated using MrCrayfish's Model Creator (https://mrcrayfish.com/tools?id=mc)",
    "textures": {
        "sapling_oak": "minecraft:blocks/sapling_birch"
    },
    "display": {
        "gui": {
            "rotation": [ 30, 45, 0 ],
            "translation": [ 0, 0, 0 ],
            "scale": [ 0.625, 0.625, 0.625 ]
        },
        "ground": {
            "rotation": [ 0, 0, 0 ],
            "translation": [ 0, 3, 0 ],
            "scale": [ 0.25, 0.25, 0.25 ]
        },
        "fixed": {
            "rotation": [ 0, 180, 0 ],
            "translation": [ 0, 0, 0 ],
            "scale": [ 1, 1, 1 ]
        },
        "head": {
            "rotation": [ 0, 180, 0 ],
            "translation": [ 0, 0, 0 ],
            "scale": [ 1, 1, 1 ]
        },
        "firstperson_righthand": {
            "rotation": [ 0, 315, 0 ],
            "translation": [ 0, 2.5, 0 ],
            "scale": [ 0.4, 0.4, 0.4 ]
        },
        "thirdperson_righthand": {
            "rotation": [ 75, 315, 0 ],
            "translation": [ 0, 2.5, 0 ],
            "scale": [ 0.375, 0.375, 0.375 ]
        }
    },
    "elements": [
        {
            "name": "Cube",
            "from": [ 7, 0, 7 ], 
            "to": [ 9, 6, 9 ], 
            "faces": {
                "north": { "texture": "#sapling_oak", "uv": [ 7, 10, 9, 16 ] },
                "east": { "texture": "#sapling_oak", "uv": [ 7, 10, 9, 16 ] },
                "south": { "texture": "#sapling_oak", "uv": [ 7, 10, 9, 16 ] },
                "west": { "texture": "#sapling_oak", "uv": [ 7, 10, 9, 16 ] }
            }
        },
        {
            "name": "Cube",
            "from": [ 3, 6, 3 ], 
            "to": [ 13, 9, 13 ], 
            "faces": {
                "north": { "texture": "#sapling_oak", "uv": [ 3, 7, 13, 10 ] },
                "east": { "texture": "#sapling_oak", "uv": [ 3, 7, 13, 10 ] },
                "south": { "texture": "#sapling_oak", "uv": [ 3, 7, 13, 10 ] },
                "west": { "texture": "#sapling_oak", "uv": [ 3, 7, 13, 10 ] },
                "up": { "texture": "#sapling_oak", "uv": [ 9, 7, 13, 9 ] },
                "down": { "texture": "#sapling_oak", "uv": [ 5, 10, 7, 9 ] }
            }
        },
        {
            "name": "Cube",
            "from": [ 4, 9, 4 ], 
            "to": [ 12, 12, 12 ], 
            "faces": {
                "north": { "texture": "#sapling_oak", "uv": [ 4, 4, 12, 7 ] },
                "east": { "texture": "#sapling_oak", "uv": [ 4, 4, 12, 7 ] },
                "south": { "texture": "#sapling_oak", "uv": [ 4, 4, 12, 7 ] },
                "west": { "texture": "#sapling_oak", "uv": [ 4, 4, 12, 7 ] },
                "up": { "texture": "#sapling_oak", "uv": [ 6, 6, 9, 4 ] }
            }
        },
        {
            "name": "Cube",
            "from": [ 6, 12, 6 ], 
            "to": [ 10, 15, 10 ], 
            "faces": {
                "north": { "texture": "#sapling_oak", "uv": [ 6, 1, 10, 4 ] },
                "east": { "texture": "#sapling_oak", "uv": [ 6, 1, 10, 4 ] },
                "south": { "texture": "#sapling_oak", "uv": [ 6, 1, 10, 4 ] },
                "west": { "texture": "#sapling_oak", "uv": [ 6, 1, 10, 4 ] },
                "up": { "texture": "#sapling_oak", "uv": [ 6, 3, 10, 1 ] }
            }
        }
    ]
}