{
"textures": {
    "particle": "blocks/door_dark_oak_upper",
    "texture": "blocks/door_dark_oak_upper"
},
"elements": [ 
{
    "from": [ 0, 0, 14 ],
    "to": [ 3, 16, 16 ],
    "faces": {
        "down":  { "uv": [ 3, 16, 0, 14 ], "rotation": 180, "texture": "#texture" },
        "up":    { "uv": [ 0, 0, 3, 2 ], "rotation": 180, "texture": "#texture" },
        "north": { "uv": [ 13, 0, 16, 16 ], "texture": "#texture" },
        "south": { "uv": [ 0, 0, 3, 16 ], "texture": "#texture" },
        "west":  { "uv": [ 2, 0, 0, 16 ], "texture": "#texture" },
        "east":  { "uv": [ 0, 0, 2, 16 ], "texture": "#texture" }
    }
},
{
    "from": [ 0, 0, 7 ],
    "to": [ 3, 16, 9 ],
    "faces": {
        "down":  { "uv": [ 9.5, 16, 6.5, 14 ], "rotation": 180, "texture": "#texture" },
        "up":    { "uv": [ 6, 0, 9, 2 ], "rotation": 180, "texture": "#texture" },
        "north": { "uv": [ 7, 0, 10, 16 ], "texture": "#texture" },
        "south": { "uv": [ 9, 0, 6, 16 ], "texture": "#texture" },
        "west":  { "uv": [ 9, 0, 7, 16 ], "texture": "#texture" },
        "east":  { "uv": [ 7, 0, 9, 16 ], "texture": "#texture" }
    }
},
{
    "from": [ 0, 0, 0 ],
    "to": [ 3, 16, 2 ],
    "faces": {
        "down":  { "uv": [ 9.5, 16, 6.5, 14 ], "rotation": 180, "texture": "#texture" },
        "up":    { "uv": [ 6, 0, 9, 2 ], "rotation": 180, "texture": "#texture" },
        "north": { "uv": [ 6, 0, 9, 16 ], "texture": "#texture" },
        "south": { "uv": [ 9, 0, 6, 16 ], "texture": "#texture" },
        "west":  { "uv": [ 16, 0, 14, 16 ], "texture": "#texture" },
        "east":  { "uv": [ 14, 0, 16, 16 ], "texture": "#texture" }
    }
},
{
    "from": [ 0, 14, 9 ],
    "to": [ 3, 16, 14 ],
    "faces": {
        "down":  { "uv": [ 7, 3, 2, 0 ], "rotation": 180, "texture": "#texture" },
        "up":    { "uv": [ 2, 0, 7, 3 ], "rotation": 270, "texture": "#texture" },
        "west":  { "uv": [ 7, 0, 2, 2 ], "texture": "#texture" },
        "east":  { "uv": [ 2, 0, 7, 2 ], "texture": "#texture" }
    }
},
{
    "from": [ 0, 0, 9 ],
    "to": [ 3, 1, 14 ],
    "faces": {
        "down":  { "uv": [ 7, 3, 2, 0 ], "rotation": 180, "texture": "#texture" },
        "up":    { "uv": [ 2, 0, 7, 3 ], "rotation": 270, "texture": "#texture" },
        "west":  { "uv": [ 7, 15, 2, 16 ], "texture": "#texture" },
        "east":  { "uv": [ 2, 15, 7, 16 ], "texture": "#texture" }
    }
},
{
    "from": [ 1, 1, 9 ],
    "to": [ 2, 14, 14 ],
    "faces": {
        "west":  { "uv": [ 7, 2, 2, 15 ], "texture": "#texture" },
        "east":  { "uv": [ 2, 2, 7, 15 ], "texture": "#texture" }
    }
},
{
    "from": [ 1, 1, 2 ],
    "to": [ 2, 14, 7 ],
    "faces": {
        "west":  { "uv": [ 14, 2, 9, 15 ], "texture": "#texture" },
        "east":  { "uv": [ 9, 2, 14, 15 ], "texture": "#texture" }
    }
},
{
    "from": [ 3, 0, 2 ],
    "to": [ 4, 1, 5 ],
    "faces": {
        "down":  { "uv": [ 11, 16, 14, 15 ], "rotation": 270, "texture": "#texture" },
        "up":    { "uv": [ 11, 15, 14, 16 ], "rotation": 270, "texture": "#texture" },
        "north": { "uv": [ 13, 16, 14, 15 ], "texture": "#texture" },
        "south": { "uv": [ 11, 15, 12, 16 ], "texture": "#texture" },
        "east":  { "uv": [ 11, 15, 14, 16 ], "texture": "#texture" }
    }
},
{
    "from": [ -1, 0, 2 ],
    "to": [ 0, 1, 5 ],
    "faces": {
        "down":  { "uv": [ 11, 16, 14, 15 ], "rotation": 270, "texture": "#texture" },
        "up":    { "uv": [ 11, 15, 14, 16 ], "rotation": 270, "texture": "#texture" },
        "north": { "uv": [ 13, 16, 14, 15 ], "texture": "#texture" },
        "south": { "uv": [ 11, 15, 12, 16 ], "texture": "#texture" },
        "west":  { "uv": [ 14, 15, 11, 16 ], "texture": "#texture" }
    }
},
{
    "from": [ 0, 14, 9 ],
    "to": [ 3, 16, 14 ],
    "faces": {
        "down":  { "uv": [ 7, 3, 2, 0 ], "rotation": 180, "texture": "#texture" },
        "up":    { "uv": [ 2, 0, 7, 3 ], "rotation": 270, "texture": "#texture" },
        "west":  { "uv": [ 7, 0, 2, 2 ], "texture": "#texture" },
        "east":  { "uv": [ 2, 0, 7, 2 ], "texture": "#texture" }
    }
},
{
    "from": [ 0, 14, 2 ],
    "to": [ 3, 16, 7 ],
    "faces": {
        "down":  { "uv": [ 14, 3, 9, 0 ], "rotation": 180, "texture": "#texture" },
        "up":    { "uv": [ 9, 0, 14, 3 ], "rotation": 270, "texture": "#texture" },
        "west":  { "uv": [ 14, 0, 9, 2 ], "texture": "#texture" },
        "east":  { "uv": [ 9.5, 0, 14.5, 2 ], "texture": "#texture" }
    }
},
{
    "from": [ 0, 0, 2 ],
    "to": [ 3, 1, 7 ],
    "faces": {
        "down":  { "uv": [ 14, 3, 9, 0 ], "rotation": 180, "texture": "#texture" },
        "up":    { "uv": [ 9, 0, 14, 3 ], "rotation": 270, "texture": "#texture" },
        "west":  { "uv": [ 14, 15, 9, 16 ], "texture": "#texture" },
        "east":  { "uv": [ 9, 15, 14, 16 ], "texture": "#texture" }
    }
}
]
}