{
    "parent": "block/grass",
    "textures": {
        "particle": "blocks/dirt_0",
        "bottom": "blocks/dirt_0",
        "top": "blocks/grass_top_0",
        "side": "blocks/grass_side_0",
        "overlay": "blocks/grass_side_overlay_0"
    }
}
