{
"textures": {
    "particle": "blocks/ladder",
    "texture": "blocks/ladder"
},
"elements": [ 
{
    "__comment": "ladder x16",
    "from": [ 1, 13, 15 ],
    "to": [ 15, 15, 16 ],
    "faces": {
        "down":  { "uv": [ 1, 3, 15, 2 ], "texture": "#texture" },
        "up":    { "uv": [ 15, 1, 1, 2 ], "rotation": 180, "texture": "#texture" },
        "north": { "uv": [ 1, 3, 15, 1 ], "rotation": 180, "texture": "#texture" },
        "south": { "uv": [ 1, 1, 15, 3 ], "texture": "#texture" },
        "west":  { "uv": [ 1, 1, 2, 3 ], "texture": "#texture" },
        "east":  { "uv": [ 15, 1, 14, 3 ], "texture": "#texture" }
    }
},
{
    "__comment": "ladder x16",
    "from": [ 1, 9, 15 ],
    "to": [ 15, 11, 16 ],
    "faces": {
        "down":  { "uv": [ 1, 7, 15, 6 ], "texture": "#texture" },
        "up":    { "uv": [ 15, 5, 1, 6 ], "rotation": 180, "texture": "#texture" },
        "north": { "uv": [ 1, 7, 15, 5 ], "rotation": 180, "texture": "#texture" },
        "south": { "uv": [ 1, 5, 15, 7 ], "texture": "#texture" },
        "west":  { "uv": [ 1, 5, 2, 7 ], "texture": "#texture" },
        "east":  { "uv": [ 15, 5, 14, 7 ], "texture": "#texture" }
    }
},
{
    "__comment": "ladder x16",
    "from": [ 1, 5, 15 ],
    "to": [ 15, 7, 16 ],
    "faces": {
        "down":  { "uv": [ 1, 11, 15, 10 ], "texture": "#texture" },
        "up":    { "uv": [ 15, 9, 1, 10 ], "rotation": 180, "texture": "#texture" },
        "north": { "uv": [ 1, 11, 15, 9 ], "rotation": 180, "texture": "#texture" },
        "south": { "uv": [ 1, 9, 15, 11 ], "texture": "#texture" },
        "west":  { "uv": [ 1, 9, 2, 11 ], "texture": "#texture" },
        "east":  { "uv": [ 15, 9, 14, 11 ], "texture": "#texture" }
    }
},
{
    "__comment": "ladder x16",
    "from": [ 1, 1, 15 ],
    "to": [ 15, 3, 16 ],
    "faces": {
        "down":  { "uv": [ 1, 15, 15, 14 ], "texture": "#texture" },
        "up":    { "uv": [ 15, 13, 1, 14 ], "rotation": 180, "texture": "#texture" },
        "north": { "uv": [ 1, 15, 15, 13 ], "rotation": 180, "texture": "#texture" },
        "south": { "uv": [ 1, 13, 15, 15 ], "texture": "#texture" },
        "west":  { "uv": [ 1, 13, 2, 15 ], "texture": "#texture" },
        "east":  { "uv": [ 15, 13, 14, 15 ], "texture": "#texture" }
    }
},
{
    "__comment": "ladder x16",
    "from": [ 2, 15, 15 ],
    "to": [ 4, 16, 16 ],
    "faces": {
        "down":  { "uv": [ 2, 1, 4, 0 ], "texture": "#texture" },
        "up":    { "uv": [ 4, 0, 2, 1 ], "rotation": 180, "texture": "#texture" },
        "north": { "uv": [ 2, 1, 4, 0 ], "rotation": 180, "texture": "#texture" },
        "south": { "uv": [ 2, 0, 4, 1 ], "texture": "#texture" },
        "west":  { "uv": [ 2, 0, 3, 1 ], "texture": "#texture" },
        "east":  { "uv": [ 4, 0, 3, 1 ], "texture": "#texture" }
    }
},
{
    "__comment": "ladder x16",
    "from": [ 2, 11, 15 ],
    "to": [ 4, 13, 16 ],
    "faces": {
        "down":  { "uv": [ 2, 5, 4, 4 ], "texture": "#texture" },
        "up":    { "uv": [ 4, 3, 2, 4 ], "rotation": 180, "texture": "#texture" },
        "north": { "uv": [ 2, 5, 4, 3 ], "rotation": 180, "texture": "#texture" },
        "south": { "uv": [ 2, 3, 4, 5 ], "texture": "#texture" },
        "west":  { "uv": [ 2, 3, 3, 5 ], "texture": "#texture" },
        "east":  { "uv": [ 4, 3, 3, 5 ], "texture": "#texture" }
    }
},
{
    "__comment": "ladder x16",
    "from": [ 2, 7, 15 ],
    "to": [ 4, 9, 16 ],
    "faces": {
        "down":  { "uv": [ 2, 9, 4, 8 ], "texture": "#texture" },
        "up":    { "uv": [ 4, 7, 2, 8 ], "rotation": 180, "texture": "#texture" },
        "north": { "uv": [ 2, 9, 4, 7 ], "rotation": 180, "texture": "#texture" },
        "south": { "uv": [ 2, 7, 4, 9 ], "texture": "#texture" },
        "west":  { "uv": [ 2, 7, 3, 9 ], "texture": "#texture" },
        "east":  { "uv": [ 4, 7, 3, 9 ], "texture": "#texture" }
    }
},
{
    "__comment": "ladder x16",
    "from": [ 2, 3, 15 ],
    "to": [ 4, 5, 16 ],
    "faces": {
        "down":  { "uv": [ 2, 13, 4, 12 ], "texture": "#texture" },
        "up":    { "uv": [ 4, 11, 2, 12 ], "rotation": 180, "texture": "#texture" },
        "north": { "uv": [ 2, 13, 4, 11 ], "rotation": 180, "texture": "#texture" },
        "south": { "uv": [ 2, 11, 4, 13 ], "texture": "#texture" },
        "west":  { "uv": [ 2, 11, 3, 13 ], "texture": "#texture" },
        "east":  { "uv": [ 4, 11, 3, 13 ], "texture": "#texture" }
    }
},
{
    "__comment": "ladder x16",
    "from": [ 2, 1.11022e-016, 15 ],
    "to": [ 4, 1, 16 ],
    "faces": {
        "down":  { "uv": [ 2, 16, 4, 15 ], "texture": "#texture" },
        "up":    { "uv": [ 4, 15, 2, 16 ], "rotation": 180, "texture": "#texture" },
        "north": { "uv": [ 2, 16, 4, 15 ], "rotation": 180, "texture": "#texture" },
        "south": { "uv": [ 2, 15, 4, 16 ], "texture": "#texture" },
        "west":  { "uv": [ 2, 15, 3, 16 ], "texture": "#texture" },
        "east":  { "uv": [ 4, 15, 3, 16 ], "texture": "#texture" }
    }
},
{
    "__comment": "ladder x16",
    "from": [ 12, 15, 15 ],
    "to": [ 14, 16, 16 ],
    "faces": {
        "down":  { "uv": [ 12, 1, 14, 0 ], "texture": "#texture" },
        "up":    { "uv": [ 14, 0, 12, 1 ], "rotation": 180, "texture": "#texture" },
        "north": { "uv": [ 12, 1, 14, 0 ], "rotation": 180, "texture": "#texture" },
        "south": { "uv": [ 12, 0, 14, 1 ], "texture": "#texture" },
        "west":  { "uv": [ 12, 0, 13, 1 ], "texture": "#texture" },
        "east":  { "uv": [ 14, 0, 13, 1 ], "texture": "#texture" }
    }
},
{
    "__comment": "ladder x16",
    "from": [ 12, 11, 15 ],
    "to": [ 14, 13, 16 ],
    "faces": {
        "down":  { "uv": [ 12, 5, 14, 4 ], "texture": "#texture" },
        "up":    { "uv": [ 14, 3, 12, 4 ], "rotation": 180, "texture": "#texture" },
        "north": { "uv": [ 12, 5, 14, 3 ], "rotation": 180, "texture": "#texture" },
        "south": { "uv": [ 12, 3, 14, 5 ], "texture": "#texture" },
        "west":  { "uv": [ 12, 3, 13, 5 ], "texture": "#texture" },
        "east":  { "uv": [ 14, 3, 13, 5 ], "texture": "#texture" }
    }
},
{
    "__comment": "ladder x16",
    "from": [ 12, 7, 15 ],
    "to": [ 14, 9, 16 ],
    "faces": {
        "down":  { "uv": [ 12, 9, 14, 8 ], "texture": "#texture" },
        "up":    { "uv": [ 14, 7, 12, 8 ], "rotation": 180, "texture": "#texture" },
        "north": { "uv": [ 12, 9, 14, 7 ], "rotation": 180, "texture": "#texture" },
        "south": { "uv": [ 12, 7, 14, 9 ], "texture": "#texture" },
        "west":  { "uv": [ 12, 7, 13, 9 ], "texture": "#texture" },
        "east":  { "uv": [ 14, 7, 13, 9 ], "texture": "#texture" }
    }
},
{
    "__comment": "ladder x16",
    "from": [ 12, 3, 15 ],
    "to": [ 14, 5, 16 ],
    "faces": {
        "down":  { "uv": [ 12, 13, 14, 12 ], "texture": "#texture" },
        "up":    { "uv": [ 14, 11, 12, 12 ], "rotation": 180, "texture": "#texture" },
        "north": { "uv": [ 12, 13, 14, 11 ], "rotation": 180, "texture": "#texture" },
        "south": { "uv": [ 12, 11, 14, 13 ], "texture": "#texture" },
        "west":  { "uv": [ 12, 11, 13, 13 ], "texture": "#texture" },
        "east":  { "uv": [ 14, 11, 13, 13 ], "texture": "#texture" }
    }
},
{
    "__comment": "ladder x16",
    "from": [ 12, 1.11022e-016, 15 ],
    "to": [ 14, 1, 16 ],
    "faces": {
        "down":  { "uv": [ 12, 16, 14, 15 ], "texture": "#texture" },
        "up":    { "uv": [ 14, 15, 12, 16 ], "rotation": 180, "texture": "#texture" },
        "north": { "uv": [ 12, 16, 14, 15 ], "rotation": 180, "texture": "#texture" },
        "south": { "uv": [ 12, 15, 14, 16 ], "texture": "#texture" },
        "west":  { "uv": [ 12, 15, 13, 16 ], "texture": "#texture" },
        "east":  { "uv": [ 14, 15, 13, 16 ], "texture": "#texture" }
    }
}
],
"display": {
    "thirdperson_righthand": {
        "rotation": [ 75, 45, 0 ],
        "translation": [ 0, 3, 2 ],
        "scale": [ 0.37, 0.37, 0.37 ]
    },
    "thirdperson_lefthand": {
        "rotation": [ 75, 45, 0 ],
        "translation": [ 0, 3, 2 ],
        "scale": [ 0.37, 0.37, 0.37 ]
    },
    "head": {
        "rotation": [ 0, 0, 0 ],
        "translation": [ 0, 0, 0 ],
        "scale": [ 1, 1, 1 ]
    },
    "ground": {
        "rotation": [ 0, 0, 0 ],
        "translation": [ 0, 3, 0 ],
        "scale": [ 0.25, 0.25, 0.25 ]
    },
    "fixed": {
        "rotation": [ 0, 0, 0 ],
        "translation": [ 0, 0, 0 ],
        "scale": [ 0.5, 0.5, 0.5 ]
    },
    "firstperson_righthand": {
        "rotation": [ 0, 45, 0 ],
        "translation": [ 0, 4, 0 ],
        "scale": [ 0.4, 0.4, 0.4 ]
    },
    "firstperson_lefthand": {
        "rotation": [ 0, 45, 0 ],
        "translation": [ 0, 4, 0 ],
        "scale": [ 0.4, 0.4, 0.4 ]
    },
    "gui": {
        "rotation": [ 30, 225, 0 ],
        "translation": [ 0, 0, 0 ],
        "scale": [ 0.625, 0.625, 0.625 ]
    }
}
}