{
"__comment": "3D Mesh designed with BDcraft Cubik - Version PRO 0.65 Beta",
"ambientocclusion": true,
"randomOffsetX": true,
"randomOffsetZ": true,
"textures": {
    "down": "blocks/waterlily",
    "up": "blocks/waterlily",
    "north": "blocks/waterlily_extra",
    "south": "blocks/waterlily_extra",
    "west": "blocks/waterlily_extra",
    "east": "blocks/waterlily_extra",
    "particle": "blocks/waterlily"
},
"elements": [ 
{
    "from": [ 0, -0.5, 0 ],
    "to": [ 16, 0, 16 ],
    "__comment": "Lily",
    "faces": {
        "down":  { "uv": [ 0, 0, 16, 16 ], "rotation": 270, "texture": "#down", "tintindex": 0 },
        "up":    { "uv": [ 0, 0, 16, 16 ], "rotation": 270, "texture": "#up", "tintindex": 0 }
    }
},
{
    "from": [ 13.5, -16, 2.25 ],
    "to": [ 14, 16, 18.25 ],
    "rotation": { "origin": [ 13.5, -16, 2.25 ], "axis": "y", "angle": -45 },
    "__comment": "Extra",
    "faces": {
        "west":  { "uv": [ 0, 0, 8, 16 ], "texture": "#west" },
        "east":  { "uv": [ 0, 0, 8, 16 ], "texture": "#east" }
    }
},
{
    "from": [ 2.25, -16, 2.625 ],
    "to": [ 2.75, 16, 18.625 ],
    "rotation": { "origin": [ 2.25, -16, 2.625 ], "axis": "y", "angle": 45 },
    "__comment": "Extra",
    "faces": {
        "west":  { "uv": [ 0, 0, 8, 16 ], "texture": "#west" },
        "east":  { "uv": [ 0, 0, 8, 16 ], "texture": "#east" }
    }
}
]
}