{
  "type":"crafting_shapeless",
  "group":"dyeing",

  "ingredients":
  [
    {"tag":"shulker_box_colors:not_brown"},
    {"tag":"dyes:brown"}

  ],
  "result": {"item": "minecraft:brown_shulker_box"}
}
