{
  "textures": {
    "aa": "entity/boat/acacia/aa",
    "bb": "entity/boat/acacia/bb",
    "cc": "entity/boat/acacia/cc",
    "dd": "entity/boat/acacia/dd",
    "particle": "entity/boat/acacia/dd",
    "ee": "entity/boat/acacia/ee",
    "ff": "entity/boat/acacia/ff",
    "gg": "entity/boat/acacia/gg",
    "hh": "entity/boat/acacia/hh"
  },
  "elements": [
  {
    "from": [ 10, -2, -3 ],
    "to": [ 12, 14, -1 ],
    "rotation": { "origin": [ 8, 8, 0 ], "axis": "x", "angle": 45, "rescale": false },
    "faces": {
      "up": {"uv":		[ 2.01, 12.01, 3.99, 13.99 ], "texture": "#ee", "cullface": "none"},
      "north": {"uv":	[ 0.01, 0.01, 1.99, 15.99 ], "texture": "#ee", "cullface": "none"},
      "south": {"uv":	[ 0.01, 0.01, 1.99, 15.99 ], "texture": "#ee", "cullface": "none"},
      "west": {"uv":	[ 1.99, 0.01, 0.01, 15.99 ], "texture": "#ee", "cullface": "none"},
      "east": {"uv":	[ 1.99, 0.01, 0.01, 15.99 ], "texture": "#ee", "cullface": "none"}
    }
  },
  {
    "from": [ 10, -4, -3 ],
    "to": [ 12, -2, -1 ],
    "rotation": { "origin": [ 8, 8, 0 ], "axis": "x", "angle": 45, "rescale": false },
    "faces": {
      "down": {"uv":	[ 2.01, 14.01, 3.99, 15.99 ], "texture": "#ee", "cullface": "none"},
      "north": {"uv":	[ 0.01, 12.01, 1.99, 13.99 ], "texture": "#ee", "cullface": "none"},
      "south": {"uv":	[ 0.01, 12.01, 1.99, 13.99 ], "texture": "#ee", "cullface": "none"},
      "west": {"uv":	[ 1.99, 12.01, 0.01, 13.99 ], "texture": "#ee", "cullface": "none"},
      "east": {"uv":	[ 1.99, 12.01, 0.01, 13.99 ], "texture": "#ee", "cullface": "none"}
    }
  },
  {
    "from": [ 9, -6, -6 ],
    "to": [ 10, 1, 0 ],
    "rotation": { "origin": [ 8, 8, 0 ], "axis": "x", "angle": 45, "rescale": false },
    "faces": {
      "down": {"uv":	[ 2.01, 6.01, 7.99, 6.99 ], "texture": "#ee", "cullface": "none", "rotation": 90},
      "up": {"uv":		[ 2.01, 0.01, 7.99, 0.99 ], "texture": "#ee", "cullface": "none", "rotation": 270},
      "north": {"uv":	[ 7.01, 0.01, 7.99, 6.99 ], "texture": "#ee", "cullface": "none"},
      "south": {"uv":	[ 2.01, 0.01, 2.99, 6.99 ], "texture": "#ee", "cullface": "none"},
      "west": {"uv":	[ 7.99, 0.01, 2.01, 6.99 ], "texture": "#ee", "cullface": "none"},
      "east": {"uv":	[ 2.01, 0.01, 7.99, 6.99 ], "texture": "#ee", "cullface": "none"}
    }
  },
  {
    "from": [ 10, -2, 17 ],
    "to": [ 12, 14, 19 ],
    "rotation": { "origin": [ 8, 8, 16 ], "axis": "x", "angle": -45, "rescale": false },
    "faces": {
      "up": {"uv":		[ 2.01, 12.01, 3.99, 13.99 ], "texture": "#ee", "cullface": "none"},
      "north": {"uv":	[ 0.01, 0.01, 1.99, 15.99 ], "texture": "#ee", "cullface": "none"},
      "south": {"uv":	[ 0.01, 0.01, 1.99, 15.99 ], "texture": "#ee", "cullface": "none"},
      "west": {"uv":	[ 1.99, 0.01, 0.01, 15.99 ], "texture": "#ee", "cullface": "none"},
      "east": {"uv":	[ 1.99, 0.01, 0.01, 15.99 ], "texture": "#ee", "cullface": "none"}
    }
  },
  {
    "from": [ 10, -4, 17 ],
    "to": [ 12, -2, 19 ],
    "rotation": { "origin": [ 8, 8, 16 ], "axis": "x", "angle": -45, "rescale": false },
    "faces": {
      "down": {"uv":	[ 2.01, 14.01, 3.99, 15.99 ], "texture": "#ee", "cullface": "none"},
      "north": {"uv":	[ 0.01, 12.01, 1.99, 13.99 ], "texture": "#ee", "cullface": "none"},
      "south": {"uv":	[ 0.01, 12.01, 1.99, 13.99 ], "texture": "#ee", "cullface": "none"},
      "west": {"uv":	[ 1.99, 12.01, 0.01, 13.99 ], "texture": "#ee", "cullface": "none"},
      "east": {"uv":	[ 1.99, 12.01, 0.01, 13.99 ], "texture": "#ee", "cullface": "none"}
    }
  },
  {
    "from": [ 9, -6, 16 ],
    "to": [ 10, 1, 22 ],
    "rotation": { "origin": [ 8, 8, 16 ], "axis": "x", "angle": -45, "rescale": false },
    "faces": {
      "down": {"uv":	[ 2.01, 6.01, 7.99, 6.99 ], "texture": "#ee", "cullface": "none", "rotation": 270},
      "up": {"uv":		[ 2.01, 0.01, 7.99, 0.99 ], "texture": "#ee", "cullface": "none", "rotation": 90},
      "north": {"uv":	[ 2.01, 0.01, 2.99, 6.99 ], "texture": "#ee", "cullface": "none"},
      "south": {"uv":	[ 7.01, 0.01, 7.99, 6.99 ], "texture": "#ee", "cullface": "none"},
      "west": {"uv":	[ 2.01, 0.01, 7.99, 6.99 ], "texture": "#ee", "cullface": "none"},
      "east": {"uv":	[ 7.99, 0.01, 2.01, 6.99 ], "texture": "#ee", "cullface": "none"}
    }
  },
  {
    "from": [ -8, 3, 0 ],
    "to": [ -6, 9, 16 ],
    "faces": {
      "down": {"uv":	[ 0.01, 6.99, 15.99, 5.01 ], "texture": "#gg", "cullface": "none", "rotation": 270},
      "up": {"uv":		[ 0.01, 0.01, 15.99, 1.99 ], "texture": "#gg", "cullface": "none", "rotation": 90},
      "north": {"uv":	[ 1.99, 1.01, 0.01, 6.99 ], "texture": "#gg", "cullface": "none"},
      "south": {"uv":	[ 15.99, 1.01, 14.01, 6.99 ], "texture": "#gg", "cullface": "none"},
      "west": {"uv":	[ 0.01, 1.01, 15.99, 6.99 ], "texture": "#gg", "cullface": "none"},
      "east": {"uv":	[ 0.01, 7.01, 15.99, 12.99 ], "texture": "#gg", "cullface": "none"}
    }
  },
  {
    "from": [ -6, 0, 1 ],
    "to": [ 8, 3, 15 ],
    "faces": {
      "down": {"uv":	[ 0.01, 1.01, 13.99, 14.99 ], "texture": "#aa", "cullface": "none", "rotation": 180},
      "up": {"uv":		[ 0.01, 1.01, 13.99, 14.99 ], "texture": "#cc", "cullface": "none"},
      "west": {"uv":	[ 11.01, 1.01, 13.99, 14.99 ], "texture": "#aa", "cullface": "none", "rotation": 270}
    }
  },
  {
    "from": [ -6, 0, -0.02 ],
    "to": [ 8, 3, 1 ],
    "faces": {
      "down": {"uv":	[ 13.99, 0.01, 0.01, 0.99 ], "texture": "#aa", "cullface": "none"},
      "up": {"uv":		[ 0.01, 0.01, 13.99, 0.99 ], "texture": "#cc", "cullface": "none"},
      "north": {"uv":	[ 0.01, 2.99, 13.99, 0.01 ], "texture": "#aa", "cullface": "none"},
      "west": {"uv":	[ 13.01, 2.99, 13.99, 0.01 ], "texture": "#aa", "cullface": "none"}
    }
  },
  {
    "from": [ -6, 3, -2 ],
    "to": [ 8, 9, 0 ],
    "faces": {
      "down": {"uv":	[ 0.01, 6.99, 13.99, 5.01 ], "texture": "#ff", "cullface": "none", "rotation": 180},
      "up": {"uv":		[ 0.01, 0.01, 13.99, 1.99 ], "texture": "#ff", "cullface": "none", "rotation": 180},
      "north": {"uv":	[ 0.01, 1.01, 13.99, 6.99 ], "texture": "#ff", "cullface": "none"},
      "south": {"uv":	[ 0.01, 7.01, 13.99, 12.99 ], "texture": "#ff", "cullface": "none"},
      "west": {"uv":	[ 13.99, 1.01, 12.01, 6.99 ], "texture": "#ff", "cullface": "none"}
    }
  },
  {
    "from": [ -6, 0, 15 ],
    "to": [ 8, 3, 16.02 ],
    "faces": {
      "down": {"uv":	[ 13.99, 13.01, 0.01, 13.99 ], "texture": "#aa", "cullface": "none"},
      "up": {"uv":		[ 0.01, 15.01, 13.99, 15.99 ], "texture": "#cc", "cullface": "none"},
      "south": {"uv":	[ 13.99, 15.99, 0.01, 13.01 ], "texture": "#aa", "cullface": "none"},
      "west": {"uv":	[ 13.01, 15.99, 13.99, 13.01 ], "texture": "#aa", "cullface": "none"}
    }
  },
  {
    "from": [ -6, 3, 16 ],
    "to": [ 8, 9, 18 ],
    "faces": {
      "down": {"uv":	[ 0.01, 6.99, 13.99, 5.01 ], "texture": "#ff", "cullface": "none"},
      "up": {"uv":		[ 0.01, 0.01, 13.99, 1.99 ], "texture": "#ff", "cullface": "none"},
      "north": {"uv":	[ 0.01, 7.01, 13.99, 12.99 ], "texture": "#ff", "cullface": "none"},
      "south": {"uv":	[ 0.01, 1.01, 13.99, 6.99 ], "texture": "#ff", "cullface": "none"},
      "west": {"uv":	[ 0.01, 1.01, 1.99, 6.99 ], "texture": "#ff", "cullface": "none"}
    }
  },
  {
    "from": [ 22, 3, 0 ],
    "to": [ 24, 9, 16 ],
    "faces": {
      "down": {"uv":	[ 0.01, 6.99, 15.99, 5.01 ], "texture": "#gg", "cullface": "none", "rotation": 90},
      "up": {"uv":		[ 0.01, 0.01, 15.99, 1.99 ], "texture": "#gg", "cullface": "none", "rotation": 270},
      "north": {"uv":	[ 15.99, 1.01, 14.01, 6.99 ], "texture": "#gg", "cullface": "none"},
      "south": {"uv":	[ 1.99, 1.01, 0.01, 6.99 ], "texture": "#gg", "cullface": "none"},
      "west": {"uv":	[ 0.01, 7.01, 15.99, 12.99 ], "texture": "#gg", "cullface": "none"},
      "east": {"uv":	[ 0.01, 1.01, 15.99, 6.99 ], "texture": "#gg", "cullface": "none"}
    }
  },
  {
    "from": [ 8, 0, 1 ],
    "to": [ 22, 3, 15 ],
    "faces": {
      "down": {"uv":	[ 0.01, 1.01, 13.99, 14.99 ], "texture": "#bb", "cullface": "none", "rotation": 180},
      "up": {"uv":		[ 0.01, 1.01, 13.99, 14.99 ], "texture": "#dd", "cullface": "none"},
      "east": {"uv":	[ 2.99, 1.01, 0.01, 14.99 ], "texture": "#bb", "cullface": "none", "rotation": 90}
    }
  },
  {
    "from": [ 8, 0, -0.02 ],
    "to": [ 22, 3, 1 ],
    "faces": {
      "down": {"uv":	[ 13.99, 0.01, 0.01, 0.99 ], "texture": "#bb", "cullface": "none"},
      "up": {"uv":		[ 0.01, 0.01, 13.99, 0.99 ], "texture": "#dd", "cullface": "none"},
      "north": {"uv":	[ 0.01, 2.99, 13.99, 0.01 ], "texture": "#bb", "cullface": "none"},
      "east": {"uv":	[ 0.01, 2.99, 0.99, 0.01 ], "texture": "#bb", "cullface": "none"}
    }
  },
  {
    "from": [ 8, 3, -2 ],
    "to": [ 22, 9, 0 ],
    "faces": {
      "down": {"uv":	[ 0.01, 6.99, 13.99, 5.01 ], "texture": "#hh", "cullface": "none", "rotation": 180},
      "up": {"uv":		[ 0.01, 0.01, 13.99, 1.99 ], "texture": "#hh", "cullface": "none", "rotation": 180},
      "north": {"uv":	[ 0.01, 1.01, 13.99, 6.99 ], "texture": "#hh", "cullface": "none"},
      "south": {"uv":	[ 0.01, 7.01, 13.99, 12.99 ], "texture": "#hh", "cullface": "none"},
      "east": {"uv":	[ 1.99, 1.01, 0.01, 6.99 ], "texture": "#hh", "cullface": "none"}
    }
  },
  {
    "from": [ 8, 0, 15 ],
    "to": [ 22, 3, 16.02 ],
    "faces": {
      "down": {"uv":	[ 13.99, 13.01, 0.01, 13.99 ], "texture": "#bb", "cullface": "none"},
      "up": {"uv":		[ 0.01, 15.01, 13.99, 15.99 ], "texture": "#dd", "cullface": "none"},
      "south": {"uv":	[ 13.99, 15.99, 0.01, 13.01 ], "texture": "#bb", "cullface": "none"},
      "east": {"uv":	[ 0.01, 15.99, 0.99, 13.01 ], "texture": "#bb", "cullface": "none"}
    }
  },
  {
    "from": [ 8, 3, 16 ],
    "to": [ 22, 9, 18 ],
    "faces": {
      "down": {"uv":	[ 0.01, 6.99, 13.99, 5.01 ], "texture": "#hh", "cullface": "none"},
      "up": {"uv":		[ 0.01, 0.01, 13.99, 1.99 ], "texture": "#hh", "cullface": "none"},
      "north": {"uv":	[ 0.01, 7.01, 13.99, 12.99 ], "texture": "#hh", "cullface": "none"},
      "south": {"uv":	[ 0.01, 1.01, 13.99, 6.99 ], "texture": "#hh", "cullface": "none"},
      "east": {"uv":	[ 13.99, 1.01, 12.01, 6.99 ], "texture": "#hh", "cullface": "none"}
    }
  }
  ],
  "parent": "item/boat"
}