{
  "parent": "item/generated",
  "display":{
    "gui":{
      "rotation":[ -60, 0, -45 ],
      "scale" :[ 0.75, 0.75, 0.75 ]
    },
    "ground":{
      "translation": [ 0, 3, 0 ],
      "rotation": [ 90, 0, 0 ],
      "scale": [ 0.5, 0.5, 0.5 ]
    }	
  },
  "textures": {
    "layer0": "block/activator_rail"
  }
}
