{
  "display": {
    "gui": {
      "rotation": 	[ 30, 45, 0 ],
      "translation": 	[ -0.25, 0, 0],
      "scale":		[ 0.425, 0.425, 0.425 ]
    },
    "ground": {
      "rotation": 	[ 0, 0, 0 ],
      "translation": 	[ 0, 3, 0],
      "scale":		[ 0.2, 0.2, 0.2 ]
    },
    "fixed": {
      "rotation": 	[ 0, 90, 0 ],
      "translation": 	[ 0, -0.5, -3],
      "scale":		[ 0.5, 0.5, 0.5 ]
    },
    "thirdperson_righthand": {
      "rotation": 	[ 75, 45, 0 ],
      "translation": 	[ 0.5, 4, 0],
      "scale": 		[ 0.3, 0.3, 0.3 ]
    },
    "thirdperson_lefthand": {
      "rotation": 	[ 75, 225, 0 ],
      "translation": 	[ 0.5, 4, 0],
      "scale": 		[ 0.3, 0.3, 0.3 ]
    },
    "firstperson_righthand": {
      "rotation": 	[ 0, 90, 0 ],
      "translation":	[ 1, 0, 0 ],
      "scale": 		[ 0.40, 0.40, 0.40 ]
    },
    "firstperson_lefthand": {
      "rotation": 	[ 0, 270, 0 ],
      "translation": 	[ 1, 0, 0 ],
      "scale": 		[ 0.40, 0.40, 0.40 ]
    }
  }
}