{
  "elements": [
  {
    "from": [ 0, 16, 0 ],
    "to": [ 3, 32, 16 ],
    "faces": {
      "north": {"uv": [ 3, 0, 0, 16 ], "texture": "#top", "cullface": "north"},
      "east": {"uv": [ 16, 0, 0, 16 ], "texture": "#top"},
      "south": {"uv": [ 0, 0, 3, 16 ], "texture": "#top", "cullface": "south"},
      "west": {"uv": [ 0, 0, 16, 16 ], "texture": "#top", "cullface": "west"},
      "up": {"uv": [ 13, 0, 16, 16 ], "texture": "#bottom", "cullface": "up"}
    }
  },
  {
    "from": [ 0, 0, 0 ],
    "to": [ 3, 16, 16 ],
    "faces": {
      "north": {"uv": [ 3, 0, 0, 16 ], "texture": "#bottom", "cullface": "north"},
      "east": {"uv": [ 16, 0, 0, 16 ], "texture": "#bottom"},
      "south": {"uv": [ 0, 0, 3, 16 ], "texture": "#bottom", "cullface": "south"},
      "west": {"uv": [ 0, 0, 16, 16 ], "texture": "#bottom", "cullface": "west"},
      "down": {"uv": [ 13, 0, 16, 16 ], "texture": "#bottom", "cullface": "down"}
    }
  }
  ],
  "display": {
    "gui": {
      "rotation": 	[ 30, 135, 0 ],
      "translation": 	[ -1.75, -2.25, -2.5 ],
      "scale":		[ 0.425, 0.425, 0.425 ]
    },
    "ground": {
      "rotation": 	[ 0, 0, 0 ],
      "translation": 	[ 2, 3, 0 ],
      "scale":		[ 0.25, 0.25, 0.25 ]
    },
    "fixed": {
      "rotation": 	[ 0, -90, 0 ],
      "translation": 	[ 0, -4, 4 ],
      "scale":		[ 0.5, 0.5, 0.5 ]
    },
    "head": {
      "rotation": 	[ 0, 0, 0 ],
      "translation": 	[ 0, 0, 0 ],
      "scale":		[ 0, 0, 0 ]
    },
    "thirdperson_righthand": {
      "rotation": 	[ 0, 180, 0 ],
      "translation": 	[ -2.5, -4, -1.5 ],
      "scale": 		[ 0.375, 0.375, 0.375 ]
    },
    "thirdperson_lefthand": {
      "rotation": 	[ 0, 180, 0 ],
      "translation": 	[ 2.5, -4, -1.5 ],
      "scale": 		[ 0.375, 0.375, 0.375 ]
    },
    "firstperson_righthand": {
      "rotation": [ 0, 45, 0 ],
      "translation": [ 0, 0, 0 ],
      "scale": [ 0.40, 0.40, 0.40 ]
    },
    "firstperson_lefthand": {
      "rotation": [ 0, 225, 0 ],
      "translation": [ 0, 0, 0 ],
      "scale": [ 0.40, 0.40, 0.40 ]
    }
  }
}