{
    "type": "minecraft:crafting_shapeless",
    "ingredients": [
        {
            "item": "minecraft:bamboo"
        },
        {
            "item": "minecraft:bamboo"
        },
        {
            "item": "minecraft:bamboo"
        },
        {
            "item": "minecraft:bamboo"
        },
        {
            "item": "minecraft:bamboo"
        },
        {
            "item": "minecraft:bamboo"
        },
        {
            "item": "minecraft:bamboo"
        },
        {
            "item": "minecraft:bamboo"
        }
    ],
    "result": {
        "item": "minecraft:stick",
        "count": 4
    },
    "group": "skippy"
}