{
    "type": "minecraft:crafting_shaped",
    "pattern": [
        "###",
        "# #"
    ],
    "key": {
        "#": {
            "item": "minecraft:birch_log"
        }
    },
    "result": {
        "item": "minecraft:birch_fence",
        "count": 12
    },
    "group": "skippy"
}