{
    "type": "minecraft:crafting_shaped",
    "pattern": [
        "# #",
        "# #"
    ],
    "key": {
        "#": {
            "item": "minecraft:jungle_log"
        }
    },
    "result": {
        "item": "minecraft:jungle_fence_gate",
        "count": 4
    },
    "group": "skippy"
}