{
    "type": "minecraft:crafting_shapeless",
    "ingredients": [
        {
            "item": "minecraft:sugar_cane"
        },
        {
            "item": "minecraft:sugar_cane"
        },
        {
            "item": "minecraft:sugar_cane"
        },
        {
            "item": "minecraft:sugar_cane"
        },
        {
            "item": "minecraft:sugar_cane"
        },
        {
            "item": "minecraft:sugar_cane"
        },
        {
            "item": "minecraft:sugar_cane"
        },
        {
            "item": "minecraft:sugar_cane"
        },
        {
            "item": "minecraft:sugar_cane"
        }
    ],
    "result": {
        "item": "minecraft:paper",
        "count": 9
    },
    "group": "skippy"
}