{
	"textures": {
		"ff": "block/hopper_top",
		"gg": "block/hopper_outside",
		"hh": "block/hopper_inside",
		"aa": "entity/minecart/aa",
		"bb": "entity/minecart/bb",
		"cc": "entity/minecart/cc",
		"dd": "entity/minecart/dd",
		"particle": "entity/minecart/dd",
		"ee": "entity/minecart/ee"
	},
	"elements": [
		{
			"from": [ 2, 8.5, 2 ],
			"to": [ 14, 9.25, 14 ],
			"faces": {
				"north": {"uv": [ 0, 5, 16, 6 ], "texture": "#gg"},
				"east": {"uv": [ 0, 5, 16, 6 ], "texture": "#gg"},
				"south": {"uv": [ 0, 5, 16, 6 ], "texture": "#gg"},
				"west": {"uv": [ 0, 5, 16, 6 ], "texture": "#gg"},
				"up": {"uv": [ 0, 0, 16, 16 ], "texture": "#hh"},
				"down": {"uv": [ 0, 0, 16, 16 ], "texture": "#gg"}
			}
		},
		{
			"from": [ 2, 9.25, 2 ],
			"to": [ 3.5, 13, 14 ],
			"faces": {
				"north": {"uv": [ 14, 0, 16, 5 ], "texture": "#gg"},
				"east": {"uv": [ 0, 0, 16, 5 ], "texture": "#gg"},
				"south": {"uv": [ 0, 0, 2, 5 ], "texture": "#gg"},
				"west": {"uv": [ 0, 0, 16, 5 ], "texture": "#gg"},
				"up": {"uv": [ 0, 0, 2, 16 ], "texture": "#ff"},
				"down": {"uv": [ 0, 0, 2, 16 ], "texture": "#gg"}
			}
		},
		{
			"from": [ 12.5, 9.25, 2 ],
			"to": [ 14, 13, 14 ],
			"faces": {
				"north": {"uv": [ 0, 0, 2, 5 ], "texture": "#gg"},
				"east": {"uv": [ 0, 0, 16, 5 ], "texture": "#gg"},
				"south": {"uv": [ 14, 0, 16, 5 ], "texture": "#gg"},
				"west": {"uv": [ 0, 0, 16, 5 ], "texture": "#gg"},
				"up": {"uv": [ 14, 0, 16, 16 ], "texture": "#ff"},
				"down": {"uv": [ 14, 0, 16, 16 ], "texture": "#gg"}
			}
		},
		{
			"from": [ 3.5, 9.25, 2 ],
			"to": [ 12.5, 13, 3.5 ],
			"faces": {
				"north": {"uv": [ 2, 0, 14, 5 ], "texture": "#gg"},
				"east": {"uv": [ 14, 0, 16, 5 ], "texture": "#gg"},
				"south": {"uv": [ 2, 0, 14, 5 ], "texture": "#gg"},
				"west": {"uv": [ 0, 0, 2, 5 ], "texture": "#gg"},
				"up": {"uv": [ 2, 0, 14, 2 ], "texture": "#ff"},
				"down": {"uv": [ 2, 14, 14, 16 ], "texture": "#gg"}
			}
		},
		{
			"from": [ 3.5, 9.25, 12.5 ],
			"to": [ 12.5, 13, 14 ],
			"faces": {
				"north": {"uv": [ 2, 0, 14, 5 ], "texture": "#gg"},
				"east": {"uv": [ 0, 0, 2, 5 ], "texture": "#gg"},
				"south": {"uv": [ 2, 0, 14, 5 ], "texture": "#gg"},
				"west": {"uv": [ 14, 0, 16, 5 ], "texture": "#gg"},
				"up": {"uv": [ 2, 14, 14, 16 ], "texture": "#ff"},
				"down": {"uv": [ 2, 0, 14, 2 ], "texture": "#gg"}
			}
		},
		{
			"from": [ 5, 4, 5 ],
			"to": [ 11, 8.5, 11 ],
			"faces": {
				"north": {"uv": [ 4, 6, 12, 12 ], "texture": "#gg"},
				"east": {"uv": [ 4, 6, 12, 12 ], "texture": "#gg"},
				"south": {"uv": [ 4, 6, 12, 12 ], "texture": "#gg"},
				"west": {"uv": [ 4, 6, 12, 12 ], "texture": "#gg"},
				"up": {"uv": [ 4, 4, 12, 12 ], "texture": "#gg"},
				"down": {"uv": [ 4, 4, 12, 12 ], "texture": "#gg"}
			}
		},
		{
			"from": [ 6.5, 1, 6.5 ],
			"to": [ 9.5, 4, 9.5 ],
			"faces": {
				"north": {"uv": [ 6, 12, 10, 16 ], "texture": "#gg"},
				"east": {"uv": [ 6, 12, 10, 16 ], "texture": "#gg"},
				"south": {"uv": [ 6, 12, 10, 16 ], "texture": "#gg"},
				"west": {"uv": [ 6, 12, 10, 16 ], "texture": "#gg"},
				"up": {"uv": [ 6, 6, 10, 10 ], "texture": "#gg"},
				"down": {"uv": [ 6, 6, 10, 10 ], "texture": "#gg"}
			}
		},
		{
			"from": [ 16, 3, 2 ],
			"to": [ 0, 11, 14 ],
			"faces": {
				"north": {"uv": [ 0.01, 0.01, 15.99, 6.99 ], "texture": "#cc", "cullface": "none"},
				"east": {"uv": [ 2.01, 7.01, 13.99, 13.99 ], "texture": "#cc", "cullface": "none"},
				"south": {"uv": [ 15.99, 0.01, 0.01, 6.99 ], "texture": "#cc", "cullface": "none"},
				"west": {"uv": [ 2.01, 7.01, 13.99, 13.99 ], "texture": "#cc", "cullface": "none"},
				"down": {"uv": [ 0.01, 0.01, 15.99, 11.99 ], "texture": "#ee", "cullface": "none"}
			}
		},
		{
			"from": [ 0, 1, 0 ],
			"to": [ 16, 11, 2 ],
			"faces": {
				"north": {"uv": [ 15.98906, 0.00938, 0.00938, 9.98906 ], "texture": "#dd", "cullface": "none"},
				"up": {"uv": [ 15.97969, 11, 0, 12.97969 ], "texture": "#dd", "rotation": 180, "cullface": "none"},
				"down": {"uv": [ 0, 10, 15.97969, 10.97969 ], "texture": "#dd", "cullface": "none"}
			}
		},
		{
			"from": [ 16, 1, 0 ],
			"to": [ 18, 11, 16 ],
			"faces": {
				"north": {"uv": [ 9.97969, 14, 0, 15.97969 ], "texture": "#bb", "rotation": 90, "cullface": "none"},
				"east": {"uv": [ 0.00938, 0.00938, 15.98906, 9.98906 ], "texture": "#bb", "cullface": "none"},
				"south": {"uv": [ 9.97969, 14, 0, 15.97969 ], "texture": "#bb", "rotation": 270, "cullface": "none"},
				"up": {"uv": [ 0, 12, 15.97969, 13.97969 ], "texture": "#bb", "rotation": 270, "cullface": "none"},
				"down": {"uv": [ 0, 8, 15.97969, 9.97969 ], "texture": "#bb", "rotation": 270, "cullface": "none"}
			}
		},
		{
			"from": [ 0, 1, 14 ],
			"to": [ 16, 11, 16 ],
			"faces": {
				"south": {"uv": [ 0.01, 0.01, 15.99, 9.99 ], "texture": "#dd", "cullface": "none"},
				"up": {"uv": [ 0, 11, 15.97969, 12.97969 ], "texture": "#dd", "cullface": "none"},
				"down": {"uv": [ 0, 10, 15.97969, 10.97969 ], "texture": "#dd", "cullface": "none"}
			}
		},
		{
			"from": [-2, 1, 0 ],
			"to": [ 0, 11, 16 ],
			"faces": {
				"north": {"uv": [ 9.97969, 14, 0, 15.97969 ], "texture": "#bb", "rotation": 270, "cullface": "none"},
				"south": {"uv": [ 9.97969, 14, 0, 15.97969 ], "texture": "#bb", "rotation": 90, "cullface": "none"},
				"west": {"uv": [ 0.00938, 0.00938, 15.98906, 9.98906 ], "texture": "#bb", "cullface": "none"},
				"up": {"uv": [ 0, 12, 15.97969, 13.97969 ], "texture": "#bb", "rotation": 90, "cullface": "none"},
				"down": {"uv": [ 0, 8, 15.97969, 9.97969 ], "texture": "#bb", "rotation": 90, "cullface": "none"}
			}
		},
		{
			"from": [ 0, 0.99, 2 ],
			"to": [ 16, 0.99, 14 ],
			"faces": {
				"down": {"uv": [ 0.01, 0.01, 15.99, 11.99 ], "texture": "#aa", "cullface": "none"}
			}
		}
	],
	"parent": "item/minecart_template"
}