{
  "type": "minecraft:crafting_shaped",
  "pattern": [
    "##"
  ],
  "key": {
    "#": {
      "item": "minecraft:red_nether_brick_stairs
    }
  },
  "result": {
    "item": "minecraft:red_nether_brick_slab",
    "count": 3
  }
}