{
  "type": "crafting_shaped",
  "pattern": [
    "##",
    "##"
  ],
  "key": {
    "#": {
      "item": "minecraft:sand"
    }
  },
  "result": {
    "item": "minecraft:sandstone",
    "count": 4
  }
}