{
  "type": "crafting_shaped",
  "pattern": [
    "X",
    "#",
    "#"
  ],
  "key": {
    "#": {
      "item": "minecraft:stick"
    },
    "X": [
      {
        "item": "minecraft:stone"
      },
      {
        "item": "minecraft:cobblestone"
      },
      {
        "item": "minecraft:andesite"
      },
      {
        "item": "minecraft:diorite"
      },
      {
        "item": "minecraft:granite"
      }
    ]
  },
  "result": {
    "item": "minecraft:stone_shovel"
  }
}