{
    "criteria": {
        "run": {
          "trigger": "minecraft:player_hurt_entity",
          "conditions": {
            "damage": {
              "source_entity": {
                "nbt":"{SelectedItem:{tag:{tcc:{Item:\"obsidian_scythe\",Charms:[\"leeching\"]}}}}"
              },
              "dealt": {
                "min": 4
              },
              "type": {
                "is_projectile": "false"
              }
            }
          }
        }
      },
      "rewards": {
        "function": "tcc:charms/leeching"
      },
      "parent": "tcc:technical/root"
}
