{
    "parent": "block/template_farmland",
    "textures": {
        "particle": "block/dirt",
        "dirt": "block/dirt",
        "bottom": "block/farmland_moist_bottom"
        "top": "block/farmland_moist"
        "side": "block/farmland_moist_side"
    }
}
