{
    "variants": {
        "half=lower": { "model": "double_sunflower_bottom" },
        "half=upper":   [ { "model": "double_sunflower_top" },
			{ "model": "double_sunflower_top_0" },
			{ "model": "double_sunflower_top_1" },
			{ "model": "double_sunflower_top_2" },
			{ "model": "double_sunflower_top_3" },
			{ "model": "double_sunflower_top_6" },
                  { "model": "double_sunflower_top_7" },
			{ "model": "double_sunflower_top_8" },
			{ "model": "double_sunflower_top_11" },
			{ "model": "double_sunflower_top_12" },
			{ "model": "double_sunflower_top_13" },
			{ "model": "double_sunflower_top_14" },
			{ "model": "double_sunflower_top_15" },
			{ "model": "double_sunflower_top_16" },
			{ "model": "double_sunflower_top_19" },
			{ "model": "double_sunflower_top_20" },
			{ "model": "double_sunflower_top_21" },
			{ "model": "double_sunflower_top_22" } ]
    }
}
