{
  "pack": {
    "pack_format": 4,
    "description": " - Adds a HUD with various toggleable modules\n    - Session play time\n    - Position (X Y Z Coordinates)\n    - Hostile mob count (128 block radius)\n    - Pitch (vertical rotation)\n    - Time of day (24-hour digital clock)\n    - Direction (facing direction)\n - Has a configuration options to\n    - Allow modules to be toggled freely\n    - Disallow modules and force them off\n    - Force modules on\n    - Require item to display modules\n    - Remove access to the tigger command\n    - Force the HUD off\n - Made by VeilStar"
  }
}