{
    "pools": [
        {
            "rolls": 1,
            "bonus_rolls": 1,
            "entries": [
                {
                    "type": "loot_table",
                    "weight": 1,
                    "name": "tcc:items/rotten_porkchop",
                    "functions": [
                        {
                            "function": "set_count",
                            "count": {
                                "min": 0,
                                "max": 1
                            }
                        },
                        {
                            "function": "looting_enchant",
                            "count": {
                                "min": 0,
                                "max": 1
                            }
                        }
                    ]
                }
            ]
        },
        {
            "rolls": 1,
            "bonus_rolls": 1,
            "entries": [
                {
                    "type": "item",
                    "weight": 1,
                    "name": "minecraft:gold_nugget",
                    "functions": [
                        {
                            "function": "set_count",
                            "count": {
                                "min": 0,
                                "max": 1
                            }
                        },
                        {
                            "function": "looting_enchant",
                            "count": {
                                "min": 0,
                                "max": 1
                            }
                        }
                    ]
                }
            ]
        },
        {
            "rolls": 1,
            "bonus_rolls": 1,
            "conditions": [
                {
                    "condition": "killed_by_player"
                },
                {
                    "condition": "random_chance_with_looting",
                    "chance": 0.025,
                    "looting_multiplier": 0.01
                }
            ],
            "entries": [
                {
                    "type": "item",
                    "weight": 2,
                    "name": "minecraft:gold_ingot"
                },
                {
                    "type": "loot_table",
                    "weight": 1,
                    "name": "tcc:items/charmed_golden_rings"
                }
            ]
        },
        {
            "rolls": 1,
            "entries": [
                {
                    "type": "loot_table",
                    "weight": 1,
                    "name": "tcc:misc/universal_loot"
                }
            ]
        },
        {
            "rolls": 1,
            "conditions": [
                {
                    "condition": "entity_properties",
            	    "entity": "killer",
                    "predicate": {
                        "nbt": "{powered:1b}"
                    }
                }
            ],
            "entries": [
                {
                    "type": "loot_table",
                    "weight": 1,
                    "name": "tcc:items/heads/zombie_pigman_head"
                }
            ]
        }
    ]
}
