{
    "parent": "item/handheld",
    "textures": {
        "layer0": "item/diamond_sword"
    },
    "overrides": [
        {
            "predicate": {
                "damaged": 1,
                "damage": 0.4869
            },
            "model": "item/diamond_sword/diamond_sword_1"
        },
        {
            "predicate": {
                "damaged": 1,
                "damage": 0.615
            },
            "model": "item/diamond_sword/diamond_sword_2"
        },
        {
            "predicate": {
                "damaged": 1,
                "damage": 0.7435
            },
            "model": "item/diamond_sword/diamond_sword_3"
        },
        {
            "predicate": {
                "damaged": 1,
                "damage": 0.9039
            },
            "model": "item/diamond_sword/diamond_sword_3"

        }
    ]
}