{
    "parent": "item/handheld",
    "textures": {
        "layer0": "item/diamond_shovel"
    },
    "overrides": [
        {
            "predicate": {
                "damaged": 1,
                "damage": 0.4869
            },
            "model": "item/diamond_shovel/diamond_shovel_1"
        },
        {
            "predicate": {
                "damaged": 1,
                "damage": 0.615
            },
            "model": "item/diamond_shovel/diamond_shovel_2"
        },
        {
            "predicate": {
                "damaged": 1,
                "damage": 0.7435
            },
            "model": "item/diamond_axe/diamond_shovel_3"
        },
        {
            "predicate": {
                "damaged": 1,
                "damage": 0.9039
            },
            "model": "item/diamond_shovel/diamond_shovel_3"

        }
    ]
}