{
  "type": "minecraft:crafting_shaped",
  "pattern": [
    "#",
    "#"

  ],
  "key": {
    "#": {
      "item": "minecraft:end_stone_brick_slab"
    }
  },
  "result": {
    "item": "minecraft:end_stone_bricks"

  }
}