{
  "rewards": {
    "function": "killfeed:shot/villagers/4/farmer"
  },
  "criteria": {
    "kill": {
      "trigger": "minecraft:player_killed_entity",
      "conditions": {
        "entity": {
          "type": "villager",
          "nbt": "{VillagerData:{profession: 'minecraft:farmer',level: 4}}"
      },
      "killing_blow": {
        "is_projectile": "true"
      }
    }
  }
}
}