{
    "criteria": {
        "run": {
            "trigger": "minecraft:consume_item",
            "conditions": {
                "item": {
                   "item" : "minecraft:tropical_fish",
                   "nbt": "{tcc:{Item:\"apple_pie_slice\"}}"
                }
            }
        }
    },
    "rewards": {
        "function": "tcc:items/apple_pie/slice_eat"
    },
    "parent": "tcc:technical/root"
}
