{
    "criteria": {
        "run": {
            "trigger": "minecraft:player_hurt_entity",
            "conditions": {
            	"damage": {
                "source_entity": {
                  "nbt":"{SelectedItem:{tag:{tcc:{Item:\"tipped_sword\"}}}}"
                },
            		"type": {
            			"is_projectile": "false"
            		}
            	}
            }
        }
    },
    "rewards": {
        "function": "tcc:items/potion_items/tipped_swords/hurt_entity"
    },
    "parent": "tcc:technical/root"
}
