{
    "pools": [
        {
            "rolls": 1,
            "entries": [
                {
                    "type": "item",
                    "weight": 9,
                    "name": "minecraft:egg",
                    "functions": [
                        {
                            "function": "set_nbt",
                            "tag": "{display:{Lore:[\"{\\\"translate\\\":\\\"tcc.lore.egg\\\",\\\"italic\\\":\\\"false\\\"}\"]}}" 
                        }
                    ]
                },
                {
                    "type": "loot_table",
                    "weight": 1,
                    "name": "tcc:items/peculiar_berries/spawn_eggs/nether"
                }
            ]
        }
    ]
}