############################################################
# Description: Commands for the boomerang running out of momentum
# Creator: CreeperMagnet_
############################################################

scoreboard players set @s tcc.boomerang 121
function tcc:items/boomerang/item/catch/item
kill @s