{
    "parent": "item/handheld",
    "textures": {
        "layer0": "item/iron_shovel"
    },
    "overrides": [
        {
            "predicate": {
                "damaged": 1,
                "damage": 0.5
            },
            "model": "item/iron_shovel/iron_shovel_1"
        },
        {
            "predicate": {
                "damaged": 1,
                "damage": 0.7
            },
            "model": "item/iron_shovel/iron_shovel_2"
        },
        {
            "predicate": {
                "damaged": 1,
                "damage": 0.84
            },
            "model": "item/iron_shovel/iron_shovel_3"
        },
        {
            "predicate": {
                "damaged": 1,
                "damage": 0.96
            },
            "model": "item/iron_shovel/iron_shovel_3"

        }
    ]
}