{
    "__comment": "Model generated using MrCrayfish's Model Creator (https://mrcrayfish.com/tools?id=mc)",
    "textures": {
        "sapling_jungle": "minecraft:blocks/sapling_jungle"
    },
    "display": {
        "gui": {
            "rotation": [ 30, 45, 0 ],
            "translation": [ 0, 0, 0 ],
            "scale": [ 0.625, 0.625, 0.625 ]
        },
        "ground": {
            "rotation": [ 0, 0, 0 ],
            "translation": [ 0, 3, 0 ],
            "scale": [ 0.25, 0.25, 0.25 ]
        },
        "fixed": {
            "rotation": [ 0, 180, 0 ],
            "translation": [ 0, 0, 0 ],
            "scale": [ 1, 1, 1 ]
        },
        "head": {
            "rotation": [ 0, 180, 0 ],
            "translation": [ 0, 0, 0 ],
            "scale": [ 1, 1, 1 ]
        },
        "firstperson_righthand": {
            "rotation": [ 0, 315, 0 ],
            "translation": [ 0, 2.5, 0 ],
            "scale": [ 0.4, 0.4, 0.4 ]
        },
        "thirdperson_righthand": {
            "rotation": [ 75, 315, 0 ],
            "translation": [ 0, 2.5, 0 ],
            "scale": [ 0.375, 0.375, 0.375 ]
        }
    },
    "elements": [
        {
            "name": "Cube",
            "from": [ 7, 0, 7 ], 
            "to": [ 9, 15, 9 ], 
            "faces": {
                "north": { "texture": "#sapling_jungle", "uv": [ 7, 1, 9, 16 ] },
                "east": { "texture": "#sapling_jungle", "uv": [ 7, 1, 9, 16 ] },
                "south": { "texture": "#sapling_jungle", "uv": [ 7, 1, 9, 16 ] },
                "west": { "texture": "#sapling_jungle", "uv": [ 7, 1, 9, 16 ] }
            }
        },
        {
            "name": "Cube",
            "from": [ 6, 5, 7.5 ], 
            "to": [ 7, 6, 8.5 ], 
            "faces": {
                "north": { "texture": "#sapling_jungle", "uv": [ 9, 10, 10, 11 ] },
                "south": { "texture": "#sapling_jungle", "uv": [ 9, 10, 10, 11 ] },
                "up": { "texture": "#sapling_jungle", "uv": [ 9, 10, 10, 11 ] },
                "down": { "texture": "#sapling_jungle", "uv": [ 9, 10, 10, 11 ] }
            }
        },
        {
            "name": "Cube",
            "from": [ 7.5, 8, 6 ], 
            "to": [ 8.5, 9, 7 ], 
            "faces": {
                "east": { "texture": "#sapling_jungle", "uv": [ 6, 7, 7, 8 ] },
                "west": { "texture": "#sapling_jungle", "uv": [ 6, 7, 7, 8 ] },
                "up": { "texture": "#sapling_jungle", "uv": [ 6, 7, 7, 8 ] },
                "down": { "texture": "#sapling_jungle", "uv": [ 6, 7, 7, 8 ] }
            }
        },
        {
            "name": "Cube",
            "from": [ 10, 4, 6 ], 
            "to": [ 14, 7, 10 ], 
            "faces": {
                "north": { "texture": "#sapling_jungle", "uv": [ 10, 9, 14, 12 ] },
                "east": { "texture": "#sapling_jungle", "uv": [ 10, 9, 14, 12 ] },
                "south": { "texture": "#sapling_jungle", "uv": [ 10, 9, 14, 12 ] },
                "west": { "texture": "#sapling_jungle", "uv": [ 10, 9, 14, 12 ] },
                "up": { "texture": "#sapling_jungle", "uv": [ 10, 9, 14, 11 ] },
                "down": { "texture": "#sapling_jungle", "uv": [ 10, 11, 14, 12 ] }
            }
        },
        {
            "name": "Cube",
            "from": [ 6, 7, 2 ], 
            "to": [ 10, 10, 6 ], 
            "faces": {
                "north": { "texture": "#sapling_jungle", "uv": [ 2, 6, 6, 9 ] },
                "east": { "texture": "#sapling_jungle", "uv": [ 2, 6, 6, 9 ] },
                "south": { "texture": "#sapling_jungle", "uv": [ 2, 6, 6, 9 ] },
                "west": { "texture": "#sapling_jungle", "uv": [ 2, 6, 6, 9 ] },
                "up": { "texture": "#sapling_jungle", "uv": [ 2, 6, 6, 8 ] },
                "down": { "texture": "#sapling_jungle", "uv": [ 2, 8, 6, 9 ] }
            }
        },
        {
            "name": "Cube",
            "from": [ 3, 12, 3 ], 
            "to": [ 13, 15, 13 ], 
            "faces": {
                "north": { "texture": "#sapling_jungle", "uv": [ 3, 1, 13, 4 ] },
                "east": { "texture": "#sapling_jungle", "uv": [ 3, 1, 13, 4 ] },
                "south": { "texture": "#sapling_jungle", "uv": [ 3, 1, 13, 4 ] },
                "west": { "texture": "#sapling_jungle", "uv": [ 3, 1, 13, 4 ] },
                "up": { "texture": "#sapling_jungle", "uv": [ 3, 1, 13, 3 ] },
                "down": { "texture": "#sapling_jungle", "uv": [ 3, 3, 13, 4 ] }
            }
        },
        {
            "name": "Cube",
            "from": [ 7.5, 8, 9 ], 
            "to": [ 8.5, 9, 10 ], 
            "faces": {
                "east": { "texture": "#sapling_jungle", "uv": [ 6, 7, 7, 8 ] },
                "west": { "texture": "#sapling_jungle", "uv": [ 6, 7, 7, 8 ] },
                "up": { "texture": "#sapling_jungle", "uv": [ 6, 7, 7, 8 ] },
                "down": { "texture": "#sapling_jungle", "uv": [ 6, 7, 7, 8 ] }
            }
        },
        {
            "name": "Cube",
            "from": [ 9, 5, 7.5 ], 
            "to": [ 10, 6, 8.5 ], 
            "faces": {
                "north": { "texture": "#sapling_jungle", "uv": [ 9, 10, 10, 11 ] },
                "south": { "texture": "#sapling_jungle", "uv": [ 9, 10, 10, 11 ] },
                "up": { "texture": "#sapling_jungle", "uv": [ 9, 10, 10, 11 ] },
                "down": { "texture": "#sapling_jungle", "uv": [ 9, 10, 10, 11 ] }
            }
        },
        {
            "name": "Cube",
            "from": [ 2, 4, 6 ], 
            "to": [ 6, 7, 10 ], 
            "faces": {
                "north": { "texture": "#sapling_jungle", "uv": [ 10, 9, 14, 12 ] },
                "east": { "texture": "#sapling_jungle", "uv": [ 10, 9, 14, 12 ] },
                "south": { "texture": "#sapling_jungle", "uv": [ 10, 9, 14, 12 ] },
                "west": { "texture": "#sapling_jungle", "uv": [ 10, 9, 14, 12 ] },
                "up": { "texture": "#sapling_jungle", "uv": [ 10, 9, 14, 11 ] },
                "down": { "texture": "#sapling_jungle", "uv": [ 10, 11, 14, 12 ] }
            }
        },
        {
            "name": "Cube",
            "from": [ 6, 7, 10 ], 
            "to": [ 10, 10, 14 ], 
            "faces": {
                "north": { "texture": "#sapling_jungle", "uv": [ 2, 6, 6, 9 ] },
                "east": { "texture": "#sapling_jungle", "uv": [ 2, 6, 6, 9 ] },
                "south": { "texture": "#sapling_jungle", "uv": [ 2, 6, 6, 9 ] },
                "west": { "texture": "#sapling_jungle", "uv": [ 2, 6, 6, 9 ] },
                "up": { "texture": "#sapling_jungle", "uv": [ 2, 6, 6, 8 ] },
                "down": { "texture": "#sapling_jungle", "uv": [ 2, 8, 6, 9 ] }
            }
        }
    ]
}