{
"ambientocclusion": false,
"inventoryRender3D": false,
"textures": {
    "down": "blocks/melon_stem_disconnected",
    "up": "blocks/melon_stem_disconnected",
    "north": "blocks/melon_stem_disconnected",
    "south": "blocks/melon_stem_disconnected",
    "west": "blocks/melon_stem_disconnected",
    "east": "blocks/melon_stem_disconnected",
    "particle": "blocks/melon_stem_disconnected"
},
"elements": [ 
{
    "from": [ 8, 1, 8 ],
    "to": [ 9, 3, 9 ],
    "faces": {
        "down":  { "uv": [ 8, 14, 9, 15 ], "texture": "#down", "tintindex": 0 },
        "up":    { "uv": [ 8, 13, 9, 14 ], "texture": "#up", "tintindex": 0 },
        "north": { "uv": [ 9, 13, 8, 15 ], "texture": "#north", "tintindex": 0 },
        "south": { "uv": [ 8, 13, 9, 15 ], "texture": "#south", "tintindex": 0 },
        "west":  { "uv": [ 8, 13, 9, 15 ], "texture": "#west", "tintindex": 0 },
        "east":  { "uv": [ 9, 13, 8, 15 ], "texture": "#east", "tintindex": 0 }
    }
},
{
    "from": [ 7.5, -1, 7.5 ],
    "to": [ 8.5, 2, 8.5 ],
    "faces": {
        "down":  { "uv": [ 7, 15, 8, 16 ], "texture": "#down", "tintindex": 0 },
        "up":    { "uv": [ 7, 13, 8, 14 ], "texture": "#up", "tintindex": 0 },
        "north": { "uv": [ 7, 13, 8, 16 ], "texture": "#north", "tintindex": 0 },
        "south": { "uv": [ 7, 13, 8, 16 ], "texture": "#south", "tintindex": 0 },
        "west":  { "uv": [ 7, 13, 8, 16 ], "texture": "#west", "tintindex": 0 },
        "east":  { "uv": [ 7, 13, 8, 16 ], "texture": "#east", "tintindex": 0 }
    }
}
]
}