{
"textures": {
    "particle": "blocks/door_spruce_lower",
    "texture": "blocks/door_spruce_lower"
},
"elements": [ 
{
    "from": [ 0, 0, 0 ],
    "to": [ 3, 16, 16 ],
    "faces": {
        "down":  { "uv": [ 0, 16, 3, 0 ], "texture": "#texture" },
        "up":    { "uv": [ 0, 0, 3, 16 ], "texture": "#texture" },
        "north": { "uv": [ 3, 0, 0, 16 ], "texture": "#texture" },
        "south": { "uv": [ 3, 0, 6, 16 ], "texture": "#texture" },
        "west":  { "uv": [ 0, 0, 16, 16 ], "texture": "#texture" },
        "east":  { "uv": [ 16, 0, 0, 16 ], "texture": "#texture" }
    }
},
{
    "from": [ -1, 15, 11 ],
    "to": [ 0, 16, 13 ],
    "faces": {
        "down":  { "uv": [ 13, 1, 11, 0 ], "rotation": 90, "texture": "#texture" },
        "up":    { "uv": [ 11, 0, 13, 1 ], "rotation": 90, "texture": "#texture" },
        "north": { "uv": [ 11, 0, 11.5, 1 ], "texture": "#texture" },
        "south": { "uv": [ 12.5, 0, 13, 1 ], "texture": "#texture" },
        "west":  { "uv": [ 11, 0, 13, 1 ], "texture": "#texture" }
    }
},
{
    "from": [ 3, 15, 11 ],
    "to": [ 4, 16, 13 ],
    "faces": {
        "down":  { "uv": [ 11, 1, 13, 0 ], "rotation": 90, "texture": "#texture" },
        "up":    { "uv": [ 11, 0, 13, 1 ], "rotation": 90, "texture": "#texture" },
        "north": { "uv": [ 11, 0, 11.5, 1 ], "texture": "#texture" },
        "south": { "uv": [ 12.5, 0, 13, 1 ], "texture": "#texture" },
        "east":  { "uv": [ 13, 0, 11, 1 ], "texture": "#texture" }
    }
},
{
    "from": [ -1, 12, 11 ],
    "to": [ 0, 13, 13 ],
    "faces": {
        "down":  { "uv": [ 13, 1, 11, 0 ], "rotation": 90, "texture": "#texture" },
        "up":    { "uv": [ 11, 0, 13, 1 ], "rotation": 90, "texture": "#texture" },
        "north": { "uv": [ 11, 0, 11.5, 1 ], "texture": "#texture" },
        "south": { "uv": [ 12.5, 0, 13, 1 ], "texture": "#texture" },
        "west":  { "uv": [ 11, 0, 13, 1 ], "texture": "#texture" }
    }
},
{
    "from": [ 3, 12, 11 ],
    "to": [ 4, 13, 13 ],
    "faces": {
        "down":  { "uv": [ 11, 1, 13, 0 ], "rotation": 90, "texture": "#texture" },
        "up":    { "uv": [ 11, 0, 13, 1 ], "rotation": 90, "texture": "#texture" },
        "north": { "uv": [ 11, 0, 11.5, 1 ], "texture": "#texture" },
        "south": { "uv": [ 12.5, 0, 13, 1 ], "texture": "#texture" },
        "east":  { "uv": [ 13, 0, 11, 1 ], "texture": "#texture" }
    }
},
{
    "from": [ -1, 13, 10 ],
    "to": [ 0, 15, 11 ],
    "faces": {
        "down":  { "uv": [ 10, 3, 11, 2 ], "texture": "#texture" },
        "up":    { "uv": [ 10, 1, 11, 2 ], "texture": "#texture" },
        "north": { "uv": [ 10, 1, 11, 3 ], "texture": "#texture" },
        "south": { "uv": [ 10, 1, 11, 3 ], "texture": "#texture" },
        "west":  { "uv": [ 10, 1, 11, 3 ], "texture": "#texture" }
    }
},
{
    "from": [ -1, 13, 13 ],
    "to": [ 0, 15, 14 ],
    "faces": {
        "down":  { "uv": [ 10, 3, 11, 2 ], "texture": "#texture" },
        "up":    { "uv": [ 10, 1, 11, 2 ], "texture": "#texture" },
        "north": { "uv": [ 10, 1, 11, 3 ], "texture": "#texture" },
        "south": { "uv": [ 10, 1, 11, 3 ], "texture": "#texture" },
        "west":  { "uv": [ 10, 1, 11, 3 ], "texture": "#texture" }
    }
},
{
    "from": [ 3, 13, 13 ],
    "to": [ 4, 15, 14 ],
    "faces": {
        "down":  { "uv": [ 10, 3, 11, 2 ], "texture": "#texture" },
        "up":    { "uv": [ 10, 1, 11, 2 ], "texture": "#texture" },
        "north": { "uv": [ 10, 1, 11, 3 ], "texture": "#texture" },
        "south": { "uv": [ 10, 1, 11, 3 ], "texture": "#texture" },
        "east":  { "uv": [ 11, 1, 10, 3 ], "texture": "#texture" }
    }
},
{
    "from": [ 3, 13, 10 ],
    "to": [ 4, 15, 11 ],
    "faces": {
        "down":  { "uv": [ 10, 3, 11, 2 ], "texture": "#texture" },
        "up":    { "uv": [ 10, 1, 11, 2 ], "texture": "#texture" },
        "north": { "uv": [ 10, 1, 11, 3 ], "texture": "#texture" },
        "south": { "uv": [ 10, 1, 11, 3 ], "texture": "#texture" },
        "east":  { "uv": [ 11, 1, 10, 3 ], "texture": "#texture" }
    }
},
{
    "from": [ -0.5, 5, 13 ],
    "to": [ 0, 6, 15 ],
    "faces": {
        "down":  { "uv": [ 15, 11, 13, 10 ], "rotation": 90, "texture": "#texture" },
        "up":    { "uv": [ 13, 10, 15, 11 ], "rotation": 90, "texture": "#texture" },
        "north": { "uv": [ 13, 10, 13.5, 11 ], "texture": "#texture" },
        "south": { "uv": [ 14.5, 10, 15, 11 ], "texture": "#texture" },
        "west":  { "uv": [ 13, 10, 15, 11 ], "texture": "#texture" }
    }
},
{
    "from": [ -0.5, 5, 10 ],
    "to": [ 0, 6, 12 ],
    "faces": {
        "down":  { "uv": [ 15, 11, 13, 10 ], "rotation": 90, "texture": "#texture" },
        "up":    { "uv": [ 13, 10, 15, 11 ], "rotation": 90, "texture": "#texture" },
        "north": { "uv": [ 13, 10, 13.5, 11 ], "texture": "#texture" },
        "south": { "uv": [ 14.5, 10, 15, 11 ], "texture": "#texture" },
        "west":  { "uv": [ 13, 10, 15, 11 ], "texture": "#texture" }
    }
},
{
    "from": [ -0.5, 5, 7 ],
    "to": [ 0, 6, 9 ],
    "faces": {
        "down":  { "uv": [ 15, 11, 13, 10 ], "rotation": 90, "texture": "#texture" },
        "up":    { "uv": [ 13, 10, 15, 11 ], "rotation": 90, "texture": "#texture" },
        "north": { "uv": [ 13, 10, 13.5, 11 ], "texture": "#texture" },
        "south": { "uv": [ 14.5, 10, 15, 11 ], "texture": "#texture" },
        "west":  { "uv": [ 13, 10, 15, 11 ], "texture": "#texture" }
    }
},
{
    "from": [ -0.5, 5, 4 ],
    "to": [ 0, 6, 6 ],
    "faces": {
        "down":  { "uv": [ 15, 11, 13, 10 ], "rotation": 90, "texture": "#texture" },
        "up":    { "uv": [ 13, 10, 15, 11 ], "rotation": 90, "texture": "#texture" },
        "north": { "uv": [ 13, 10, 13.5, 11 ], "texture": "#texture" },
        "south": { "uv": [ 14.5, 10, 15, 11 ], "texture": "#texture" },
        "west":  { "uv": [ 13, 10, 15, 11 ], "texture": "#texture" }
    }
},
{
    "from": [ -0.5, 5, 1 ],
    "to": [ 0, 6, 3 ],
    "faces": {
        "down":  { "uv": [ 15, 11, 13, 10 ], "rotation": 90, "texture": "#texture" },
        "up":    { "uv": [ 13, 10, 15, 11 ], "rotation": 90, "texture": "#texture" },
        "north": { "uv": [ 13, 10, 13.5, 11 ], "texture": "#texture" },
        "south": { "uv": [ 14.5, 10, 15, 11 ], "texture": "#texture" },
        "west":  { "uv": [ 13, 10, 15, 11 ], "texture": "#texture" }
    }
},
{
    "from": [ 3, 5, 13 ],
    "to": [ 3.5, 6, 15 ],
    "faces": {
        "down":  { "uv": [ 13, 11, 15, 10 ], "rotation": 90, "texture": "#texture" },
        "up":    { "uv": [ 13, 10, 15, 11 ], "rotation": 90, "texture": "#texture" },
        "north": { "uv": [ 13, 10, 13.5, 11 ], "texture": "#texture" },
        "south": { "uv": [ 14.5, 10, 15, 11 ], "texture": "#texture" },
        "east":  { "uv": [ 15, 10, 13, 11 ], "texture": "#texture" }
    }
},
{
    "from": [ 3, 5, 10 ],
    "to": [ 3.5, 6, 12 ],
    "faces": {
        "down":  { "uv": [ 13, 11, 15, 10 ], "rotation": 90, "texture": "#texture" },
        "up":    { "uv": [ 13, 10, 15, 11 ], "rotation": 90, "texture": "#texture" },
        "north": { "uv": [ 13, 10, 13.5, 11 ], "texture": "#texture" },
        "south": { "uv": [ 14.5, 10, 15, 11 ], "texture": "#texture" },
        "east":  { "uv": [ 15, 10, 13, 11 ], "texture": "#texture" }
    }
},
{
    "from": [ 3, 5, 7 ],
    "to": [ 3.5, 6, 9 ],
    "faces": {
        "down":  { "uv": [ 13, 11, 15, 10 ], "rotation": 90, "texture": "#texture" },
        "up":    { "uv": [ 13, 10, 15, 11 ], "rotation": 90, "texture": "#texture" },
        "north": { "uv": [ 13, 10, 13.5, 11 ], "texture": "#texture" },
        "south": { "uv": [ 14.5, 10, 15, 11 ], "texture": "#texture" },
        "east":  { "uv": [ 15, 10, 13, 11 ], "texture": "#texture" }
    }
},
{
    "from": [ 3, 5, 4 ],
    "to": [ 3.5, 6, 6 ],
    "faces": {
        "down":  { "uv": [ 13, 11, 15, 10 ], "rotation": 90, "texture": "#texture" },
        "up":    { "uv": [ 13, 10, 15, 11 ], "rotation": 90, "texture": "#texture" },
        "north": { "uv": [ 13, 10, 13.5, 11 ], "texture": "#texture" },
        "south": { "uv": [ 14.5, 10, 15, 11 ], "texture": "#texture" },
        "east":  { "uv": [ 15, 10, 13, 11 ], "texture": "#texture" }
    }
},
{
    "from": [ 3, 5, 1 ],
    "to": [ 3.5, 6, 3 ],
    "faces": {
        "down":  { "uv": [ 13, 11, 15, 10 ], "rotation": 90, "texture": "#texture" },
        "up":    { "uv": [ 13, 10, 15, 11 ], "rotation": 90, "texture": "#texture" },
        "north": { "uv": [ 13, 10, 13.5, 11 ], "texture": "#texture" },
        "south": { "uv": [ 14.5, 10, 15, 11 ], "texture": "#texture" },
        "east":  { "uv": [ 15, 10, 13, 11 ], "texture": "#texture" }
    }
}
]
}