{
"textures": {
    "particle": "blocks/waterlily",
    "texture": "blocks/waterlily",
    "melon_stem_disconnected": "blocks/melon_stem_disconnected"
},
"elements": [ 
{
    "from": [ 0, 0.25, 0 ],
    "to": [ 16, 0.3125, 16 ],
    "faces": {
        "down":  { "uv": [ 16, 16, 0, 0 ], "texture": "#texture", "tintindex": 0 },
        "up":    { "uv": [ 16, 0, 0, 16 ], "texture": "#texture", "tintindex": 0 }
    }
}
]
}