{
  "parent": "tcc:recipes/root",
  "rewards": {
    "recipes": [
      "tcc:horn_coral_block"
    ]
  },
  "criteria": {
    "has_coral_fan": {
      "trigger": "minecraft:inventory_changed",
      "conditions": {
        "items": [
          {
            "item": "minecraft:horn_coral_fan"
          }
        ]
      }
    },
    "has_coral": {
      "trigger": "minecraft:inventory_changed",
      "conditions": {
        "items": [
          {
            "item": "minecraft:horn_coral"
          }
        ]
      }
    },
    "has_the_recipe": {
      "trigger": "minecraft:recipe_unlocked",
      "conditions": {
        "recipe": "tcc:horn_coral_block"
      }
    }
  },
  "requirements": [
    [
      "has_coral",
      "has_the_recipe",
      "has_coral_fan"
    ]
  ]
}