{
  "parent": "tcc:recipes/root",
  "rewards": {
    "recipes": [
      "tcc:iron_ring"
    ]
  },
  "criteria": {
    "has_iron_nugget": {
      "trigger": "minecraft:inventory_changed",
      "conditions": {
        "items": [
          {
            "item": "minecraft:iron_nugget"
          }
        ]
      }
    },
    "has_the_recipe": {
      "trigger": "minecraft:recipe_unlocked",
      "conditions": {
        "recipe": "tcc:iron_ring"
      }
    }
  },
  "requirements": [
    [
      "has_iron_nugget",
      "has_the_recipe"
    ]
  ]
}