{
    "type": "crafting_shaped",
	"group": "barrel",
    "pattern": [
        "L L",
        "L L",
        "LLL"
    ],
    "key": {
        "L": {
            "tag": "minecraft:logs"
        }
    },
    "result": {
        "item": "minecraft:barrel",
        "count": 4
    }
}