{
    "type": "crafting_shaped",
	"group": "bee_hive",
    "pattern": [
        "PPP",
        "bbb",
        "PPP"
    ],
    "key": {
        "b": {
            "item": "minecraft:honeycomb"
        },
		"P": {
            "tag": "minecraft:planks"
        }
    },
    "result": {
        "item": "minecraft:bee_hive",
        "count": 1
    }
}