{
    "type": "crafting_shaped",
	"group": "bowl",
    "pattern": [
        "   ",
        "P P",
        " P "
    ],
    "key": {
		"P": {
            "tag": "minecraft:planks"
        }
    },
    "result": {
        "item": "minecraft:bowl",
        "count": 4
    }
}