{
    "type": "crafting_shapeless",
	"group": "chest_minecart",
    "ingredients": [
        {
            "tag": "paint:chest_and_trapped_chest"
        },
		{
            "item": "minecraft:minecart"
        }
    ],
    "result": {
        "item": "minecraft:chest_minecart",
        "count": 1
    }
}