{
    "type": "crafting_shaped",
	"group": "chiseled_red_sandstone",
    "pattern": [
        " ss",
        "   ",
        " ss"
    ],
    "key": {
        "s": {
            "item": "minecraft:red_sand"
        }
    },
    "result": {
        "item": "minecraft:chiseled_red_sandstone",
        "count": 1
    }
}