{
    "type": "crafting_shaped",
	"group": "golden_shovel",
    "pattern": [
        " i ",
        " P ",
        "   "
    ],
    "key": {
		"i": {
            "item": "minecraft:gold_ingot"
        },
		"P": {
            "tag": "minecraft:planks"
        }
    },
    "result": {
        "item": "minecraft:golden_shovel",
        "count": 1
    }
}