{
    "type": "crafting_shaped",
	"group": "stained_glass",
    "pattern": [
        "GGG",
        "GdG",
        "GGG"
    ],
    "key": {
	"d": {
            "tag": "paint:subs_for_gray_dye"
        },
        "G": {
            "item": "minecraft:glass"
        }
    },
    "result": {
        "item": "minecraft:gray_stained_glass",
        "count": 8
    }
}