{
    "type": "crafting_shapeless",
	"group": "beds",
    "ingredients": [
        {
            "tag": "paint:beds_except_light_gray"
        },
        {
            "tag": "paint:subs_for_light_gray_dye"
        }
    ],
    "result": {
        "item": "minecraft:light_gray_bed",
        "count": 1
    }
}