{
    "type": "crafting_shaped",
	"group": "stained_terracotta",
    "pattern": [
        "GGG",
        "GdG",
        "GGG"
    ],
    "key": {
	"d": {
            "tag": "paint:subs_for_lime_dye"
        },
        "G": {
            "item": "minecraft:terracotta"
        }
    },
    "result": {
        "item": "minecraft:lime_terracotta",
        "count": 8
    }
}