{
    "type": "crafting_shapeless",
	"group": "mossy_cobblestone_stairs",
    "ingredients": [
        {
            "item": "minecraft:cobblestone_stairs"
        },
		{
            "item": "minecraft:vine"
        }
    ],
    "result": {
        "item": "minecraft:mossy_cobblestone_stairs",
        "count": 1
    }
}