{
    "type": "stonecutting",
	"group": "mossy_cobblestone_slab",
    "ingredient":
        {
            "item": "minecraft:mossy_cobblestone_stairs"
        },
    "result": "minecraft:mossy_cobblestone_slab",
	"count": 1
}