{
    "type": "crafting_shaped",
	"group": "door",
    "pattern": [
        " LL",
        " LL",
        " LL"
    ],
    "key": {
        "L": {
            "tag": "minecraft:oak_logs"
        }
    },
    "result": {
        "item": "minecraft:oak_door",
        "count": 12
    }
}