{
    "type": "crafting_shaped",
	"group": "door",
    "pattern": [
        " PP",
        " PP",
        " PP"
    ],
    "key": {
        "P": {
            "item": "minecraft:oak_planks"
        }
    },
    "result": {
        "item": "minecraft:oak_door",
        "count": 3
    }
}