{
    "type": "crafting_shaped",
	"group": "repeater",
    "pattern": [
        "   ",
        "trt",
        "SSS"
    ],
    "key": {
		"r": {
            "item": "minecraft:redstone"
        },
		"S": {
            "item": "minecraft:stone"
        },
        "t": {
            "item": "minecraft:redstone_torch"
        }
    },
    "result": {
        "item": "minecraft:repeater",
        "count": 1
    }
}