{
    "type": "crafting_shaped",
	"group": "smithing_table",
    "pattern": [
        "ii ",
        "PP ",
        "PP "
    ],
    "key": {
        "i": {
            "item": "minecraft:iron_ingot"
        },
		"P": {
            "tag": "minecraft:planks"
        }
    },
    "result": {
        "item": "minecraft:smithing_table",
        "count": 1
    }
}