{
    "type": "crafting_shaped",
	"group": "spectral_arrow",
    "pattern": [
        "   ",
        " a ",
        " G "
    ],
    "key": {
        "G": {
            "item": "minecraft:glowstone"
        },
		"a": {
            "item": "minecraft:arrow"
        }
    },
    "result": {
        "item": "minecraft:spectral_arrow",
        "count": 2
    }
}