{
    "type": "crafting_shaped",
	"group": "fence",
    "pattern": [
        "   ",
        "PPP",
        "P P"
    ],
    "key": {
        "P": {
            "item": "minecraft:spruce_planks"
        }
    },
    "result": {
        "item": "minecraft:spruce_fence",
        "count": 3
    }
}