{
    "type": "crafting_shaped",
	"group": "stick",
    "pattern": [
        "   ",
        "  P",
        "  P"
    ],
    "key": {
        "P": {
            "tag": "minecraft:planks"
        }
    },
    "result": {
        "item": "minecraft:stick",
        "count": 4
    }
}