{
    "type": "crafting_shapeless",
	"group": "torch",
    "ingredients": [
        {
            "tag": "paint:coal"
        },
		{
            "item": "minecraft:stick"
        }
    ],
    "result": {
        "item": "minecraft:torch",
        "count": 4
    }
}