{
    "type": "crafting_shaped",
	"group": "wooden_pickaxe",
    "pattern": [
        "PPP",
        " P ",
        "   "
    ],
    "key": {
		"P": {
            "tag": "minecraft:planks"
        }
    },
    "result": {
        "item": "minecraft:wooden_pickaxe",
        "count": 1
    }
}