{
    "type": "crafting_shapeless",
	"group": "writable_book",
    "ingredients": [
        {
            "item": "minecraft:book"
        },
		{
            "item": "minecraft:feather"
        },
		{
            "item": "minecraft:ink_sac"
        }
    ],
    "result": {
        "item": "minecraft:writable_book",
        "count": 1
    }
}