# Desc: Admin Support Text
# Called by: Player
# Datapack made by TheDiamondPlayables

tellraw @s [{"text":"[Datapack]","color":"aqua"},{"text":" Admin Support for All Datapacks:","color":"yellow"}]
tellraw @s [{"text":"-----------------------------------------------------","color":"gold"}]
function #main:admin_support_message
tellraw @s [{"text":"-----------------------------------------------------","color":"gold"}]