{
  "pools": [
    {
      "rolls": 1,
      "entries": [
        {
          "type": "minecraft:alternatives",
          "children": [
            {
              "type": "minecraft:loot_table",
              "name": "tcc:charms/sifting/gravel/gravelly_mountains",
              "conditions": [
                { 
                  "condition": "minecraft:alternative",
                  "terms": [
                    {
                      "condition": "minecraft:location_check",
                      "predicate": {
                        "biome": "minecraft:gravelly_mountains"
                      }
                    },
                    {
                      "condition": "minecraft:location_check",
                      "predicate": {
                         "biome": "minecraft:modified_gravelly_mountains"
                      }
                    }
                  ]
                }
              ]
            },
            {
              "type": "minecraft:loot_table",
              "name": "tcc:charms/sifting/gravel/ocean",
              "conditions": [
                { 
                  "condition": "minecraft:alternative",
                  "terms": [
                    {
                      "condition": "minecraft:location_check",
                      "predicate": {
                        "biome": "minecraft:ocean"
                      }
                    },
                    {
                      "condition": "minecraft:location_check",
                      "predicate": {
                         "biome": "minecraft:deep_ocean"
                      }
                    },
                    {
                      "condition": "minecraft:location_check",
                      "predicate": {
                         "biome": "minecraft:deep_cold_ocean"
                      }
                    },
                    {
                      "condition": "minecraft:location_check",
                      "predicate": {
                         "biome": "minecraft:cold_ocean"
                      }
                    }
                  ]
                }
              ]
            },
            {
              "type": "minecraft:loot_table",
              "name": "tcc:charms/sifting/gravel/frozen_ocean",
              "conditions": [
                { 
                  "condition": "minecraft:alternative",
                  "terms": [
                    {
                      "condition": "minecraft:location_check",
                      "predicate": {
                        "biome": "minecraft:frozen_ocean"
                      }
                    },
                    {
                      "condition": "minecraft:location_check",
                      "predicate": {
                         "biome": "minecraft:deep_frozen_ocean"
                      }
                    }
                  ]
                }
              ]
            },
            {
              "type": "minecraft:loot_table",
              "name": "tcc:charms/sifting/gravel/normal"
            }
          ]
        }
      ]
    }
  ]
}