{
    "display": {
        "icon": {
            "item": "minecraft:carrot_on_a_stick",
            "nbt": "{CustomModelData:12}"
        },
        "title": {
            "translate": "advancements.tcc.minecraft.story.obsidian_mirror.title"
        },
        "description": {
            "translate": "advancements.tcc.minecraft.story.obsidian_mirror.description"
        },
        "show_toast": true,
        "announce_to_chat": true,
        "frame": "goal"
    },
    "parent": "tcc:minecraft/story/obsidian_shard",
    "criteria": {
        "criteria": {
            "trigger": "impossible"
        }
    }
}
