{
  "criteria": {
    "inventory_changed": {
      "trigger": "minecraft:inventory_changed"
    }
  },
  "rewards": {
    "function": "paint:pfr/give_all_recipes"
  },
  "requirements": [
    ["inventory_changed"]
  ]
}